<?xml version="1.0" encoding="UTF-8" standalone="no"?>
<!-- Created With Inkscape (http://www.inkscape.org/) -->

<svg
   xmlns:dc="http://purl.org/dc/elements/1.1/"
   xmlns:cc="http://creativecommons.org/ns#"
   xmlns:rdf="http://www.w3.org/1999/02/22-rdf-syntax-ns#"
   xmlns:svg="http://www.w3.org/2000/svg"
   xmlns="http://www.w3.org/2000/svg"
   xmlns:xlink="http://www.w3.org/1999/xlink"
   xmlns:sodipodi="http://sodipodi.sourceforge.net/DTD/sodipodi-0.dtd"
   xmlns:inkscape="http://www.inkscape.org/namespaces/inkscape"
   id="svg2"
   version="1.1"
   inkscape:version="0.92.1 r15371"
   width="2646.3999"
   height="3736.5334"
   sodipodi:docname="E16P03.svg"
   viewBox="0 0 2481 3503">
  <metadata
     id="metadata8">
    <rdf:RDF>
      <cc:Work
         rdf:about="">
        <dc:format>image/svg+xml</dc:format>
        <dc:type
           rdf:resource="http://purl.org/dc/dcmitype/StillImage" />
        <dc:title />
      </cc:Work>
    </rdf:RDF>
  </metadata>
  <defs
     id="defs6">
    <filter
       style="color-interpolation-filters:sRGB"
       id="filter4375-4-1-1-1"
       inkscape:label="deevad outline effect">
      <feFlood
         id="feFlood4377-7-9-0-8"
         flood-opacity="1"
         flood-color="rgb(0,0,0)"
         result="flood" />
      <feComposite
         id="feComposite4379-3-8-8-2"
         in2="SourceGraphic"
         in="flood"
         operator="in"
         result="composite1" />
      <feMorphology
         id="feMorphology4393-1-0-49-8"
         operator="dilate"
         radius="4"
         result="result3" />
      <feComposite
         id="feComposite4385-9-5-7-0"
         in2="result3"
         in="SourceGraphic"
         operator="over"
         result="composite2" />
    </filter>
    <filter
       style="color-interpolation-filters:sRGB"
       id="filter4375-4-1-1-1-8"
       inkscape:label="deevad outline effect">
      <feFlood
         id="feFlood4377-7-9-0-8-4"
         flood-opacity="1"
         flood-color="rgb(0,0,0)"
         result="flood" />
      <feComposite
         id="feComposite4379-3-8-8-2-5"
         in2="SourceGraphic"
         in="flood"
         operator="in"
         result="composite1" />
      <feMorphology
         id="feMorphology4393-1-0-49-8-1"
         operator="dilate"
         radius="4"
         result="result3" />
      <feComposite
         id="feComposite4385-9-5-7-0-7"
         in2="result3"
         in="SourceGraphic"
         operator="over"
         result="composite2" />
    </filter>
  </defs>
  <sodipodi:namedview
     pagecolor="#ffffff"
     bordercolor="#666666"
     borderopacity="1"
     objecttolerance="10"
     gridtolerance="10"
     guidetolerance="10"
     inkscape:pageopacity="0"
     inkscape:pageshadow="2"
     inkscape:window-width="1858"
     inkscape:window-height="1057"
     id="namedview4"
     showgrid="false"
     inkscape:zoom="0.34980127"
     inkscape:cx="1189.7935"
     inkscape:cy="994.56692"
     inkscape:window-x="54"
     inkscape:window-y="-8"
     inkscape:window-maximized="1"
     inkscape:current-layer="layer1" />
  <g
     inkscape:groupmode="layer"
     id="layer2"
     inkscape:label="artwork"
     sodipodi:insensitive="true">
    <image
       sodipodi:absref="../gfx_Pepper-and-Carrot_by-David-Revoy_E16P03.png"
       xlink:href="../gfx_Pepper-and-Carrot_by-David-Revoy_E16P03.png"
       width="2481"
       height="3503"
       id="image10"
       x="0"
       y="0" />
  </g>
  <g
     inkscape:groupmode="layer"
     id="layer3"
     inkscape:label="speechbubbles">
    <path
       style="color:#000000;display:inline;overflow:visible;visibility:visible;fill:#ffffff;fill-opacity:1;fill-rule:nonzero;stroke:none;stroke-width:1px;marker:none;enable-background:accumulate"
       d="m 1530.5664,614.12504 c -23.5422,-44.79099 -54.1129,-86.36208 -69.4889,-134.89415 l -9.2637,44.46765 c -14.5297,-14.22937 -19.1139,-35.6541 -27.0752,-54.63573 l -11.338,37.30803 c -33.8829,-34.01763 -74.8115,-85.94086 -98.9326,-124.1838 l -58.8695,-5.7337 c 28.9026,35.70192 134.8788,118.42738 157.7121,160.07431 l 12.6468,-24.8312 c 9.8817,13.23086 19.2558,26.89199 26.3633,42.47502 L 1465.44,521.55 Z"
       id="path4032"
       inkscape:connector-curvature="0"
       sodipodi:nodetypes="cccccccccccc" />
    <path
       style="color:#000000;display:inline;overflow:visible;visibility:visible;fill:#ffffff;fill-opacity:1;fill-rule:nonzero;stroke:none;stroke-width:0.8999685px;marker:none;enable-background:accumulate"
       d="m 1086.5832,237.31343 -38.6389,-8.62236 3.4217,14.09441 c -23.0101,0.76478 -34.9987,-3.65883 -51.3251,-6.04045 l 25.6625,18.12127 -4.2771,5.03373 c 4.1665,2.94322 10.4531,4.95064 11.9759,9.06067 -11.6238,2.56124 -19.9812,2.55955 -29.5941,3.543 9.0451,3.40383 16.5757,7.34232 21.8953,12.06145 l -30.79508,8.05387 28.22688,7.04607 c -21.2314,11.58645 -47.91653,18.89383 -72.70877,27.68651 l 88.10827,-4.02702 -13.6866,9.06067 c 9.0671,2.78405 8.0952,1.88393 11.9759,3.52363 1.9223,3.39377 -30.2892,17.50461 -27.3735,16.10785 3.4217,-0.50341 32.5059,-2.51691 32.5059,-2.51691 0,0 -25.6626,14.0944 -22.2408,14.0944 3.4216,0 31.6504,-3.52362 31.6504,-3.52362 l -9.4096,13.591 27.2577,-6.89718 -6.9306,24.24952 c 9.7023,-0.99416 20.9043,-2.32127 25.5721,-1.34549 -3.2502,6.82503 -7.0839,9.37481 -15.2987,20.24412 15.5908,-4.71821 50.7205,-13.64591 50.7205,-13.64591 l 5.0764,22.19484 34.2169,-17.61795 5.9881,12.08089 25.6625,-15.10112 v 15.60452 c 13.2566,-3.01772 20.8647,-12.52262 33.3614,-18.12135 l 2.5662,58.39091 44.6496,-54.86198 8.9296,28.54067 21.6981,-21.4988 2.5662,16.10783 23.9518,-21.64489 17.9638,19.63139 17.1086,-18.12128 c 27.6409,18.37512 43.0504,35.00224 64.1564,49.33023 -3.6107,-20.32012 -6.6237,-40.05427 -5.1325,-55.37067 9.6948,-1.59608 19.3893,1.59628 29.0842,6.04044 l -5.1327,-13.591 35.928,9.06067 -16.2531,-21.14157 c 54.8424,-0.67737 43.8326,2.95086 56.4578,5.03372 l -10.265,-13.591 37.6386,10.57078 c -10.2823,-11.24696 -23.7877,-23.44229 -30.7953,-33.72578 l 39.3493,2.51683 c -15.4196,-9.04805 -34.7928,-15.76968 -45.5807,-27.54316 l 34.4604,-1.1489 -32.506,-15.10111 25.6624,-8.55728 -20.5298,-2.01352 34.2166,-18.12126 -45.3373,-1.51012 54.747,-32.71907 -63.3011,7.04725 5.1324,-23.65841 -35.0721,17.11456 35.0721,-59.39762 c -28.5812,20.98117 -55.1138,32.90986 -88.5933,53.57048 l -12.3522,-5.96477 -13.6808,3.089 3.4216,-16.96892 -50.4697,20.6381 5.1325,-9.564 -15.3976,9.06068 3.4215,-12.58429 -26.5179,15.10111 2.4414,-13.15756 -12.7064,8.62723 -3.9127,-8.26719 -14.9065,5.24697 c -14.3432,-20.23219 -27.591,-55.95509 -27.591,-55.95509 0,0 -15.6304,25.43081 -33.1442,56.96187 l -9.4095,-9.56061 -11.7323,8.84054 -11.8512,-11.4274 -17.8431,13.65531 c -14.1101,-10.40298 -22.3281,-16.77675 -27.8624,-27.17975 2.7294,9.74979 4.7137,16.29936 0.7326,27.03632 -52.0879,-16.43858 -50.5286,-17.90451 -70.0218,-27.03632 -5.3415,11.73738 13.4323,22.75764 10.41,31.77737 z"
       id="path4024"
       inkscape:connector-curvature="0"
       sodipodi:nodetypes="cccccccccccccccccsccccccccccccccccccccccccccccccccccccccccccccccccccccccccccccccccccc" />
    <path
       inkscape:connector-curvature="0"
       style="fill:#ffffff;fill-rule:evenodd;stroke:none;stroke-width:0.85610253"
       d="m 642.55692,1199.0507 c -107.45531,-0.1258 -215.13404,1.1314 -223.15974,2.641 -9.08196,1.7081 -24.44374,13.4061 -39.30267,27.7978 l -8.85179,-0.6247 5.56583,3.8649 c -0.6169,0.6171 -1.23259,1.2358 -1.84547,1.8598 l -29.58069,-8.7452 21.2796,17.5504 c -6.36886,7.039 -12.19684,14.1698 -16.82077,20.6927 3.22585,34.8451 5.73826,56.2509 14.3041,73.3865 l -5.38646,12.1561 13.78143,0.9711 c 0.09,0.113 0.18385,0.2255 0.27465,0.3383 l -9.59725,13.7867 16.70867,-5.9555 c 0.0365,0.036 0.0698,0.071 0.1065,0.1075 l -21.274,32.0139 23.18533,-9.0583 -27.64415,29.1847 52.91173,-30.7882 c 0.79112,0.5341 1.56091,1.061 2.37656,1.6035 0.4654,0.3096 0.96049,0.6129 1.47132,0.9124 l -0.58012,9.1517 12.29328,-4.2224 c 64.12527,20.189 266.73461,8.5724 358.23462,-0.7654 l 18.27389,22.0969 -3.56762,-16.1018 26.75294,24.1527 -13.37647,-32.2052 14.26767,11.0714 -5.35002,-12.0772 14.26766,6.0378 -1.61005,-10.2949 c 40.81597,-10.4912 62.76912,-33.7358 69.3822,-56.1255 7.13397,-24.1532 3.56731,-57.3643 1.78382,-69.4408 -0.90924,-6.1567 -6.92542,-16.7557 -14.48768,-26.7384 l 10.02884,-12.5104 -15.57644,5.625 c -5.87917,-6.8314 -12.13669,-12.7091 -17.41772,-15.6891 -7.13396,-4.0255 -114.36623,-5.534 -221.82153,-5.6598 z"
       id="path4212" />
    <path
       style="fill:#ffffff;fill-rule:evenodd;stroke:none;stroke-width:1px;stroke-linecap:butt;stroke-linejoin:miter;stroke-opacity:1"
       d="m 859.93893,1272.3203 c 56.86661,-10.0335 105.79244,-10.5381 175.55377,-36.0453 l -19.7842,24.3214 30.6717,-8.1632 -12.4294,26.1018 c 0,0 202.5995,-33.5594 193.8989,-33.5594 -8.7006,0 -224.9071,61.577 -224.9071,61.577 l 17.0647,-28.9567 -42.99824,16.0553 22.13933,-23.8168 -161.58242,57.1754 z"
       id="path4230"
       inkscape:connector-curvature="0"
       sodipodi:nodetypes="cccccscccccc" />
    <path
       style="fill:#ffffff;fill-rule:evenodd;stroke:none;stroke-width:0.91846758"
       d="m 837.39523,1823.7856 -33.81517,29.8306 -11.27172,14.9153 9.53761,13.6724 h -13.00583 l 3.46822,23.6159 -32.08106,2.4859 30.34696,18.6441 -23.4105,2.4859 23.4105,18.6441 -1.73412,9.9435 -9.53761,11.1865 9.53761,44.7459 32.08105,22.373 -13.87289,8.7006 26.01167,1.2429 14.73995,22.373 30.34694,12.4294 23.4105,4.9717 -20.80934,16.1583 37.28339,-9.9435 -16.47405,18.6441 36.41633,-13.6724 58.09272,1.243 92.77491,-4.9718 31.214,-4.9718 24.2776,14.9153 -5.2024,-11.1864 23.4107,-1.243 62.4278,21.13 19.0753,6.2147 -12.1388,-32.3165 17.3411,13.6724 -4.3352,-27.3447 30.3469,-4.9718 15.6069,-13.6723 42.4857,29.8306 -16.474,-29.8306 23.4105,18.6441 -15.607,-26.1018 20.8094,11.1865 -15.6071,-24.8589 22.5435,-2.4858 2.6011,-39.7742 c 0,0 -13.0057,-11.1865 -9.5375,-11.1865 3.4681,0 19.0753,-11.1864 19.0753,-11.1864 l -12.1389,-8.7006 20.8093,-4.9718 -23.4105,-17.4012 10.4046,-14.9153 -13.8728,-34.8023 -3.4682,-26.1018 -19.0753,-16.1583 -30.3468,-38.5312 -22.5435,-8.7006 -280.92603,-9.9435 -85.83847,9.9435 z"
       id="path4294"
       inkscape:connector-curvature="0" />
    <path
       style="fill:#ffffff;fill-rule:evenodd;stroke:none;stroke-width:1px;stroke-linecap:butt;stroke-linejoin:miter;stroke-opacity:1"
       d="m 1462.9425,2214.0693 -101.9212,-93.2206 6.2147,28.5876 -91.9777,-82.0341 -62.1471,11.1865 178.9836,110.6218 -9.9435,-28.5877 z"
       id="path4305"
       inkscape:connector-curvature="0" />
    <path
       style="fill:#ffffff;fill-rule:evenodd;stroke:none;stroke-width:1.13869369px;stroke-linecap:butt;stroke-linejoin:miter;stroke-opacity:1"
       d="m 389.72782,2629.1245 c -16.30427,16.043 -17.74697,58.5558 -17.04165,73.8032 0.70533,15.2474 16.97755,72.2118 30.82036,76.6576 13.84279,4.446 106.55676,18.7847 121.8654,18.0686 15.30866,-0.7162 101.7442,-11.5509 115.1168,-17.2698 13.37259,-5.7192 24.55083,-58.8743 24.00224,-70.7335 -0.54857,-11.8589 -6.6934,-70.9951 -24.0165,-76.976 -17.32309,-5.9808 -91.79669,-31.3597 -107.02698,-28.9493 -15.23028,2.4102 -139.63556,3.1365 -143.71967,25.3992 z"
       id="path4408"
       inkscape:connector-curvature="0" />
    <path
       style="fill:#ffffff;fill-rule:evenodd;stroke:none;stroke-width:1.05300045px;stroke-linecap:butt;stroke-linejoin:miter;stroke-opacity:1"
       d="m 776.4381,2700.9124 c 16.40385,-21.3692 41.92096,-29.5882 61.97013,-29.5882 20.04917,0 322.60937,-4.9314 333.54527,-1.6438 10.9359,3.2876 61.9701,14.7941 61.9701,37.8072 0,23.0131 5.468,49.3137 -9.1133,64.1078 -14.5812,14.7941 -147.6347,26.3007 -185.9104,23.0131 -38.2757,-3.2876 -204.13697,-8.219 -224.18614,-9.8628 -20.04916,-1.6437 -47.38893,-23.013 -43.74363,-39.4509 3.6453,-16.4379 5.46797,-44.3824 5.46797,-44.3824 z"
       id="path4410"
       inkscape:connector-curvature="0"
       sodipodi:nodetypes="csssssssc" />
    <path
       style="fill:#ffffff;fill-rule:evenodd;stroke:none;stroke-width:1px;stroke-linecap:butt;stroke-linejoin:miter;stroke-opacity:1"
       d="m 522.03985,2689.4104 c 193.55341,-0.3243 379.15326,41.3597 567.43005,79.9806 44.8357,122.0573 105.1467,166.4381 215.0829,188.0625 -136.5707,-22.4748 -165.0897,-59.102 -228.0528,-171.8502 -183.40766,-54.4054 -369.51017,-68.3491 -558.78343,-82.1423 z"
       id="path4412"
       inkscape:connector-curvature="0"
       sodipodi:nodetypes="cccccc" />
  </g>
  <g
     inkscape:groupmode="layer"
     id="layer1"
     inkscape:label="txt">
    <text
       xml:space="preserve"
       style="font-style:normal;font-variant:normal;font-weight:normal;font-stretch:normal;line-height:0%;font-family:Lavi;-inkscape-font-specification:Lavi;text-align:center;letter-spacing:0px;word-spacing:0px;text-anchor:middle;fill:#000000;fill-opacity:1;stroke:none"
       x="1268.6267"
       y="288.75793"
       id="text4246"><tspan
         sodipodi:role="line"
         style="font-size:45px;line-height:1.25"
         x="1268.6267"
         y="288.75793"
         id="tspan3537">.i ma smuni</tspan><tspan
         sodipodi:role="line"
         style="font-size:45px;line-height:1.25"
         x="1268.6267"
         y="345.00793"
         id="tspan3761">lu mi cilre no da li'u</tspan></text>
    <text
       xml:space="preserve"
       style="font-style:normal;font-variant:normal;font-weight:normal;font-stretch:normal;line-height:0%;font-family:Lavi;-inkscape-font-specification:Lavi;text-align:center;letter-spacing:0px;word-spacing:0px;text-anchor:middle;fill:#000000;fill-opacity:1;stroke:none"
       x="622.41364"
       y="1276.5115"
       id="text4246-9"><tspan
         sodipodi:role="line"
         style="font-size:45px;line-height:1.25"
         x="622.41364"
         y="1276.5115"
         id="tspan3544">.i ji'a do na virnu</tspan><tspan
         sodipodi:role="line"
         style="font-size:45px;line-height:1.25"
         x="622.41364"
         y="1332.7615"
         id="tspan3850">le ka na'e se sidju skicu</tspan></text>
    <text
       xml:space="preserve"
       style="font-style:normal;font-variant:normal;font-weight:normal;font-stretch:normal;line-height:0%;font-family:Lavi;-inkscape-font-specification:Lavi;text-align:center;letter-spacing:0px;word-spacing:0px;text-anchor:middle;fill:#000000;fill-opacity:1;stroke:none"
       x="1073.519"
       y="1878.459"
       id="text4246-9-6"><tspan
         sodipodi:role="line"
         style="font-size:45px;line-height:1.25"
         x="1073.519"
         y="1878.459"
         id="tspan3555">.i da'i ga nai mi</tspan><tspan
         sodipodi:role="line"
         style="font-size:45px;line-height:1.25"
         x="1073.519"
         y="1934.709"
         id="tspan3840">na cortu le bekpi gi</tspan><tspan
         sodipodi:role="line"
         style="font-size:45px;line-height:1.25"
         x="1073.519"
         y="1990.959"
         id="tspan3842">mi ctuca do fo su'o frica</tspan><tspan
         sodipodi:role="line"
         style="font-size:45px;line-height:1.25"
         x="1073.519"
         y="2047.209"
         id="tspan3557">be lo'e nu makfa</tspan></text>
    <text
       xml:space="preserve"
       style="font-style:normal;font-variant:normal;font-weight:normal;font-stretch:normal;line-height:0%;font-family:Lavi;-inkscape-font-specification:Lavi;text-align:center;letter-spacing:0px;word-spacing:0px;text-anchor:middle;fill:#000000;fill-opacity:1;stroke:none"
       x="518.3103"
       y="2664.0728"
       id="text4246-9-6-3"><tspan
         sodipodi:role="line"
         style="font-size:45px;line-height:110.00000238%"
         x="518.3103"
         y="2664.0728"
         id="tspan4349">.i ko co'u</tspan><tspan
         sodipodi:role="line"
         style="font-size:45px;line-height:110.00000238%"
         x="518.3103"
         y="2713.5728"
         id="tspan3831">xanka doi</tspan><tspan
         sodipodi:role="line"
         style="font-size:45px;line-height:110.00000238%"
         x="518.3103"
         y="2763.0728"
         id="tspan3833">la timian.</tspan></text>
    <text
       xml:space="preserve"
       style="font-style:normal;font-variant:normal;font-weight:normal;font-stretch:normal;line-height:0%;font-family:Lavi;-inkscape-font-specification:Lavi;text-align:center;letter-spacing:0px;word-spacing:0px;text-anchor:middle;fill:#000000;fill-opacity:1;stroke:none"
       x="994.0235"
       y="2744.8301"
       id="text4246-9-6-9"><tspan
         sodipodi:role="line"
         style="font-size:45px;line-height:1.25"
         x="994.0235"
         y="2744.8301"
         id="tspan4292-6">.i le re nixli cu drani</tspan></text>
    <text
       xml:space="preserve"
       style="font-style:normal;font-variant:normal;font-weight:normal;font-stretch:normal;line-height:0%;font-family:Lavi;-inkscape-font-specification:Lavi;text-align:center;letter-spacing:0px;word-spacing:0px;text-anchor:middle;fill:#ffffff;fill-opacity:1;stroke:#ffffff;stroke-width:0.41015577;stroke-miterlimit:4;stroke-dasharray:none;stroke-opacity:1"
       x="764.05621"
       y="923.35193"
       id="text4246-8"
       transform="matrix(0.89618362,-0.24886542,0.02679547,1.1084018,0,0)"><tspan
         sodipodi:role="line"
         style="font-size:30.7616806px;line-height:1.25;fill:#ffffff;stroke:#ffffff;stroke-width:0.41015577;stroke-miterlimit:4;stroke-dasharray:none;stroke-opacity:1"
         x="764.05621"
         y="923.35193"
         id="tspan4150-8">pip.</tspan></text>
    <text
       xml:space="preserve"
       style="font-style:normal;font-variant:normal;font-weight:normal;font-stretch:normal;line-height:0%;font-family:Lavi;-inkscape-font-specification:Lavi;text-align:center;letter-spacing:0px;word-spacing:0px;text-anchor:middle;fill:#ffffff;fill-opacity:1;stroke:#ffffff;stroke-width:0.41015577;stroke-miterlimit:4;stroke-dasharray:none;stroke-opacity:1"
       x="543.87469"
       y="837.68304"
       id="text4246-8-4"
       transform="matrix(0.89618362,-0.24886542,0.02679547,1.1084018,0,0)"><tspan
         sodipodi:role="line"
         style="font-size:30.7616806px;line-height:1.25;fill:#ffffff;stroke:#ffffff;stroke-width:0.41015577;stroke-miterlimit:4;stroke-dasharray:none;stroke-opacity:1"
         x="543.87469"
         y="837.68304"
         id="tspan4150-8-7">pip.</tspan></text>
    <text
       xml:space="preserve"
       style="font-style:normal;font-variant:normal;font-weight:normal;font-stretch:normal;line-height:0%;font-family:Lavi;-inkscape-font-specification:Lavi;text-align:center;letter-spacing:0px;word-spacing:0px;text-anchor:middle;fill:#ffffff;fill-opacity:1;stroke:#ffffff;stroke-width:0.41015577;stroke-miterlimit:4;stroke-dasharray:none;stroke-opacity:1"
       x="334.54736"
       y="936.29169"
       id="text4246-8-5"
       transform="matrix(0.89618362,-0.24886542,0.02679547,1.1084018,0,0)"><tspan
         sodipodi:role="line"
         style="font-size:30.7616806px;line-height:1.25;fill:#ffffff;stroke:#ffffff;stroke-width:0.41015577;stroke-miterlimit:4;stroke-dasharray:none;stroke-opacity:1"
         x="334.54736"
         y="936.29169"
         id="tspan4150-8-71">pip.</tspan></text>
    <text
       xml:space="preserve"
       style="font-style:normal;font-variant:normal;font-weight:normal;font-stretch:normal;line-height:0%;font-family:Lavi;-inkscape-font-specification:Lavi;text-align:center;letter-spacing:0px;word-spacing:0px;text-anchor:middle;fill:#ffffff;fill-opacity:1;stroke:#ffffff;stroke-width:0.41015577;stroke-miterlimit:4;stroke-dasharray:none;stroke-opacity:1"
       x="87.779213"
       y="987.71484"
       id="text4246-8-7"
       transform="matrix(0.73686042,-0.56755246,0.44156597,1.0170015,0,0)"><tspan
         sodipodi:role="line"
         style="font-size:30.7616806px;line-height:1.25;fill:#ffffff;stroke:#ffffff;stroke-width:0.41015577;stroke-miterlimit:4;stroke-dasharray:none;stroke-opacity:1"
         x="87.779213"
         y="987.71484"
         id="tspan4150-8-79">pip.</tspan></text>
    <text
       xml:space="preserve"
       style="font-style:normal;font-variant:normal;font-weight:normal;font-stretch:normal;line-height:0%;font-family:Lavi;-inkscape-font-specification:Lavi;text-align:center;letter-spacing:0px;word-spacing:0px;text-anchor:middle;fill:#ffffff;fill-opacity:1;stroke:#ffffff;stroke-width:0.41015577;stroke-miterlimit:4;stroke-dasharray:none;stroke-opacity:1"
       x="336.62546"
       y="1084.5326"
       id="text4246-8-9"
       transform="matrix(0.89618362,-0.24886542,0.02679547,1.1084018,0,0)"><tspan
         sodipodi:role="line"
         style="font-size:30.7616806px;line-height:1.25;fill:#ffffff;stroke:#ffffff;stroke-width:0.41015577;stroke-miterlimit:4;stroke-dasharray:none;stroke-opacity:1"
         x="336.62546"
         y="1084.5326"
         id="tspan4150-8-2">pip.</tspan></text>
    <text
       xml:space="preserve"
       style="font-style:normal;font-variant:normal;font-weight:normal;font-stretch:normal;line-height:0%;font-family:Lavi;-inkscape-font-specification:Lavi;text-align:center;letter-spacing:0px;word-spacing:0px;text-anchor:middle;fill:#ffffff;fill-opacity:1;stroke:#ffffff;stroke-width:0.41015577;stroke-miterlimit:4;stroke-dasharray:none;stroke-opacity:1"
       x="552.94135"
       y="1012.8113"
       id="text4246-8-7-5"
       transform="matrix(0.89774281,-0.24318074,0.01977029,1.1085494,0,0)"><tspan
         sodipodi:role="line"
         style="font-size:30.7616806px;line-height:1.25;fill:#ffffff;stroke:#ffffff;stroke-width:0.41015577;stroke-miterlimit:4;stroke-dasharray:none;stroke-opacity:1"
         x="552.94135"
         y="1012.8113"
         id="tspan4150-8-79-8">pip.</tspan></text>
    <text
       xml:space="preserve"
       style="font-style:normal;font-variant:normal;font-weight:normal;font-stretch:normal;line-height:0%;font-family:Lavi;-inkscape-font-specification:Lavi;text-align:center;letter-spacing:0px;word-spacing:0px;text-anchor:middle;fill:#ffffff;fill-opacity:1;stroke:#ffffff;stroke-width:0.41015577;stroke-miterlimit:4;stroke-dasharray:none;stroke-opacity:1"
       x="156.05554"
       y="847.95422"
       id="text4246-8-7-4"
       transform="matrix(0.73686042,-0.56755246,0.44156597,1.0170015,0,0)"><tspan
         sodipodi:role="line"
         style="font-size:30.7616806px;line-height:1.25;fill:#ffffff;stroke:#ffffff;stroke-width:0.41015577;stroke-miterlimit:4;stroke-dasharray:none;stroke-opacity:1"
         x="156.05554"
         y="847.95422"
         id="tspan4150-8-79-5">pip.</tspan></text>
    <text
       xml:space="preserve"
       style="font-style:normal;font-variant:normal;font-weight:normal;font-stretch:normal;line-height:0%;font-family:Lavi;-inkscape-font-specification:Lavi;text-align:center;letter-spacing:0px;word-spacing:0px;text-anchor:middle;fill:#ffffff;fill-opacity:1;stroke:#ffffff;stroke-width:0.41015577;stroke-miterlimit:4;stroke-dasharray:none;stroke-opacity:1"
       x="358.29056"
       y="983.72534"
       id="text4246-8-7-6"
       transform="matrix(0.73686042,-0.56755246,0.44156597,1.0170015,0,0)"><tspan
         sodipodi:role="line"
         style="font-size:30.7616806px;line-height:1.25;fill:#ffffff;stroke:#ffffff;stroke-width:0.41015577;stroke-miterlimit:4;stroke-dasharray:none;stroke-opacity:1"
         x="358.29056"
         y="983.72534"
         id="tspan4150-8-79-86">pip.</tspan></text>
    <text
       xml:space="preserve"
       style="font-style:normal;font-variant:normal;font-weight:normal;font-stretch:normal;line-height:0%;font-family:Lavi;-inkscape-font-specification:Lavi;text-align:center;letter-spacing:0px;word-spacing:0px;text-anchor:middle;fill:#ffffff;fill-opacity:1;stroke:#ffffff;stroke-width:0.41015577;stroke-miterlimit:4;stroke-dasharray:none;stroke-opacity:1"
       x="-93.625549"
       y="854.11603"
       id="text4246-8-7-3"
       transform="matrix(0.73686042,-0.56755246,0.44156597,1.0170015,0,0)"><tspan
         sodipodi:role="line"
         style="font-size:30.7616806px;line-height:1.25;fill:#ffffff;stroke:#ffffff;stroke-width:0.41015577;stroke-miterlimit:4;stroke-dasharray:none;stroke-opacity:1"
         x="-93.625549"
         y="854.11603"
         id="tspan4150-8-79-2">pip.</tspan></text>
    <text
       xml:space="preserve"
       style="font-style:normal;font-variant:normal;font-weight:normal;font-stretch:normal;line-height:0%;font-family:Lavi;-inkscape-font-specification:Lavi;text-align:center;letter-spacing:0px;word-spacing:0px;text-anchor:middle;fill:#ffffff;fill-opacity:1;stroke:#ffffff;stroke-width:0.41015577;stroke-miterlimit:4;stroke-dasharray:none;stroke-opacity:1"
       x="-161.61777"
       y="976.23895"
       id="text4246-8-7-3-4"
       transform="matrix(0.73686042,-0.56755246,0.44156597,1.0170015,0,0)"><tspan
         sodipodi:role="line"
         style="font-size:30.7616806px;line-height:1.25;fill:#ffffff;stroke:#ffffff;stroke-width:0.41015577;stroke-miterlimit:4;stroke-dasharray:none;stroke-opacity:1"
         x="-161.61777"
         y="976.23895"
         id="tspan4150-8-79-2-4">pip.</tspan></text>
    <text
       xml:space="preserve"
       style="font-style:normal;font-variant:normal;font-weight:normal;font-stretch:normal;line-height:0%;font-family:Lavi;-inkscape-font-specification:Lavi;letter-spacing:0px;word-spacing:0px;fill:#000000;fill-opacity:1;stroke:#000000;stroke-width:0.99236238;stroke-miterlimit:4;stroke-dasharray:none;stroke-opacity:1;filter:url(#filter4375-4-1-1-1)"
       x="787.65729"
       y="1584.5073"
       id="text4580"
       transform="matrix(1.031805,-0.51321442,-0.19048641,1.3599228,744.55089,-116.50742)"><tspan
         sodipodi:role="line"
         id="tspan4582"
         x="787.65729"
         y="1584.5073"
         style="font-size:70px;line-height:1.25;fill:#ffffff"><tspan
           style="font-size:80.40014648px"
           id="tspan4617">BAM.</tspan></tspan></text>
  </g>
</svg>
