<?xml version="1.0" encoding="UTF-8" standalone="no"?>
<!-- Created with Inkscape (http://www.inkscape.org/) -->

<svg
   xmlns:dc="http://purl.org/dc/elements/1.1/"
   xmlns:cc="http://creativecommons.org/ns#"
   xmlns:rdf="http://www.w3.org/1999/02/22-rdf-syntax-ns#"
   xmlns:svg="http://www.w3.org/2000/svg"
   xmlns="http://www.w3.org/2000/svg"
   xmlns:xlink="http://www.w3.org/1999/xlink"
   xmlns:sodipodi="http://sodipodi.sourceforge.net/DTD/sodipodi-0.dtd"
   xmlns:inkscape="http://www.inkscape.org/namespaces/inkscape"
   id="svg2"
   version="1.1"
   inkscape:version="0.92.3 (2405546, 2018-03-11)"
   width="2481"
   height="3503"
   sodipodi:docname="E03P07.svg">
  <metadata
     id="metadata8">
    <rdf:RDF>
      <cc:Work
         rdf:about="">
        <dc:format>image/svg+xml</dc:format>
        <dc:type
           rdf:resource="http://purl.org/dc/dcmitype/StillImage" />
        <dc:title />
      </cc:Work>
    </rdf:RDF>
  </metadata>
  <defs
     id="defs6" />
  <sodipodi:namedview
     pagecolor="#ffffff"
     bordercolor="#666666"
     borderopacity="1"
     objecttolerance="10"
     gridtolerance="10"
     guidetolerance="10"
     inkscape:pageopacity="0"
     inkscape:pageshadow="2"
     inkscape:window-width="1920"
     inkscape:window-height="1025"
     id="namedview4"
     showgrid="false"
     inkscape:zoom="0.41451839"
     inkscape:cx="827.91638"
     inkscape:cy="867.34561"
     inkscape:window-x="0"
     inkscape:window-y="26"
     inkscape:window-maximized="1"
     inkscape:current-layer="layer1" />
  <g
     inkscape:groupmode="layer"
     id="layer2"
     inkscape:label="artwork"
     sodipodi:insensitive="true">
    <image
       sodipodi:absref="/home/deevad/peppercarrot/webcomics/ep03_The-secret-ingredients/lang/vi/../gfx_Pepper-and-Carrot_by-David-Revoy_E03P07.png"
       xlink:href="../gfx_Pepper-and-Carrot_by-David-Revoy_E03P07.png"
       y="0"
       x="0"
       id="image10"
       height="3503"
       width="2481" />
  </g>
  <g
     inkscape:groupmode="layer"
     id="layer3"
     inkscape:label="speechbubbles">
    <path
       style="fill:#ffffff;stroke:none"
       d="m 503.47767,2211.4516 c -6.41079,-26.4597 50.37762,-30.6925 57.72435,-36.1733 7.34674,-5.4808 24.13929,-25.2117 36.73373,-28.5002 12.59434,-3.2885 58.77382,10.9617 74.51687,18.6347 15.74295,7.6732 38.70751,-8.0464 61.92243,-4.3845 23.21493,3.6618 30.43653,24.1155 40.93183,30.6923 10.4953,6.577 59.8234,8.7694 60.87297,37.2695 1.04957,28.5002 -71.36827,28.5002 -83.96271,30.6925 -12.59444,2.1924 -47.22905,17.5385 -66.12061,15.3462 -18.89156,-2.1923 -54.57574,-13.1539 -72.41783,-15.3462 -17.84209,-2.1923 -44.08041,9.8654 -55.62528,1.0962 -11.54487,-8.7694 -10.49534,-15.3463 -15.743,-19.7309 -5.24767,-4.3846 -32.42196,-3.1367 -38.83275,-29.5963 z"
       id="path3250"
       inkscape:connector-curvature="0"
       sodipodi:nodetypes="zssszsssssssz" />
    <path
       style="fill:#ffffff;stroke:none"
       d="m 342.5949,2402.1905 c 11.85374,-75.2667 52.80304,-147.3077 299.5764,-156.9849 246.77337,-9.6771 348.06899,89.2449 349.1466,146.2325 1.07762,56.9876 -72.20007,163.4363 -271.55846,165.5868 -199.3584,2.1505 -370.69886,-7.5267 -377.16454,-154.8344 z"
       id="path3270"
       inkscape:connector-curvature="0" />
    <path
       style="fill:#ffffff;stroke:none"
       d="m 929.28059,2436.0482 c 18.77335,14.6015 45.8904,32.3319 55.27707,31.2889 9.38668,-1.0429 39.63264,-1.0429 57.36304,-9.3867 17.7303,-8.3437 82.191,36.2751 86.3629,68.607 -35.4608,-37.5467 -84.9631,-43.4989 -101.1675,-40.6756 -13.9753,2.4349 -44.64436,26.3028 -54.03104,26.3028 -26.07409,2.0859 -55.27707,-10.4297 -64.66374,-34.4178 -9.38667,-23.9882 20.85927,-41.7186 20.85927,-41.7186 z"
       id="path3272"
       inkscape:connector-curvature="0"
       sodipodi:nodetypes="ccscscsc" />
    <path
       style="fill:#ffffff;stroke:none;stroke-width:1"
       d="m 355.34801,2738.9961 c 9.01474,-100.1618 94.24497,-215.1301 294.20819,-198.5816 199.96324,16.5484 276.17873,87.9681 270.44207,224.7107 -5.73664,136.7426 -113.91347,189.8719 -281.91537,182.0331 -168.00189,-7.8387 -292.56916,-63.5809 -282.73489,-208.1622 z"
       id="path3274"
       inkscape:connector-curvature="0" />
    <path
       style="fill:#ffffff;stroke:none"
       d="m 895.66957,2726.128 c 48.74721,-18.1385 83.15697,8.1623 93.67117,29.0216 10.5141,20.8592 63.08446,9.9761 74.55446,-11.7901 -19.9609,52.676 -79.70296,54.6393 -121.7324,26.0768 -12.33917,-8.3855 -34.85287,3.408 -41.54166,27.8751 -6.18209,22.6137 -31.71475,33.9701 -31.71475,33.9701 z"
       id="path3276"
       inkscape:connector-curvature="0"
       sodipodi:nodetypes="cscsscc" />
    <path
       style="fill:#ffffff;stroke:none;stroke-width:1"
       d="m 539.0061,1179.563 c 2.69644,-31.4796 33.67464,-44.8579 47.86659,-49.3027 14.19196,-4.4449 74.78309,-10.9634 114.73061,-10.8122 39.94753,0.1512 139.16351,2.776 155.91144,3.9641 16.74794,1.188 63.05347,23.8558 64.26551,44.1039 1.21201,20.248 -6.57084,33.7141 -29.813,45.9971 -23.24215,12.2831 -167.59,17.3599 -176.60615,16.2012 -9.01615,-1.1589 -128.82891,-9.4847 -136.54793,-12.8878 -7.71901,-3.4032 -38.61208,-12.517 -39.80707,-37.2636 z"
       id="path3278"
       inkscape:connector-curvature="0" />
    <path
       style="fill:#ffffff;stroke:none;stroke-width:1"
       d="m 591.44841,1265.0073 c 7.70123,-43.3638 28.60456,-71.6006 155.1247,-65.5498 126.52015,6.0507 169.42698,27.2284 168.3268,61.516 -1.10017,34.2875 -56.10893,79.6682 -156.22487,71.6005 -100.11595,-8.0676 -170.52715,-17.1438 -167.22663,-67.5667 z"
       id="path3280"
       inkscape:connector-curvature="0" />
    <path
       style="fill:#ffffff;stroke:none"
       d="m 894.26654,1245.4232 c 36.21998,1.8627 49.0548,-7.9264 65.31645,-9.0507 16.26165,-1.1242 31.17581,24.7604 40.29241,27.7581 9.007,2.2434 21.7173,-2.1852 42.366,-13.4316 -33.4951,31.355 -43.1807,24.7951 -51.5298,22.6847 -11.47713,-2.9011 -17.9166,-16.6011 -32.45242,-13.3078 -14.07966,3.1899 -58.27477,31.3982 -79.54065,25.8121 -21.26587,-5.5861 -25.09518,-15.2083 -25.09518,-15.2083 z"
       id="path3282"
       inkscape:connector-curvature="0"
       sodipodi:nodetypes="csccssscc" />
    <path
       style="fill:#ffffff;stroke:none;stroke-width:0.99999994"
       d="m 559.03562,282.98372 c -13.88414,-68.44038 13.26807,-126.57453 31.70964,-141.60416 18.44157,-15.02961 50.56795,-33.92899 66.84242,-37.90899 16.27447,-3.98 275.72443,-24.886152 291.60052,-16.796088 15.87609,8.090079 87.0228,36.837798 104.2087,78.839938 17.1862,42.00213 21.8706,118.50431 2.0829,143.45286 -19.7877,24.94855 -37.8247,72.83305 -155.8329,84.43096 -118.00807,11.5979 -274.08025,-0.25413 -309.71624,-49.27269 -20.08961,-27.63397 -30.89504,-61.14183 -30.89504,-61.14183 z"
       id="path3286"
       inkscape:connector-curvature="0"
       sodipodi:nodetypes="csssssssc" />
    <path
       style="fill:#ffffff;stroke:none"
       d="m 1059.9192,210.46832 c 57.57,-27.60206 176.6532,-67.82221 291.0046,52.83824 -146.6853,-86.74934 -164.8238,-65.45632 -280.7524,-28.3907 -115.92869,37.06563 -106.46512,3.15452 -106.46512,3.15452 z"
       id="path3288"
       inkscape:connector-curvature="0" />
  </g>
  <g
     inkscape:groupmode="layer"
     id="layer1"
     inkscape:label="txt">
    <flowRoot
       xml:space="preserve"
       id="flowRoot2987"
       style="font-style:normal;font-variant:normal;font-weight:normal;font-stretch:normal;line-height:0.01%;font-family:Lavi;-inkscape-font-specification:Lavi;letter-spacing:0px;word-spacing:0px;fill:#000000;fill-opacity:1;stroke:none"
       transform="translate(408.71268,-137.28313)"><flowRegion
         id="flowRegion2989"><rect
           id="rect2991"
           width="547.34143"
           height="410.27991"
           x="120.55251"
           y="265.53046"
           style="font-style:normal;font-variant:normal;font-weight:normal;font-stretch:normal;font-family:Lavi;-inkscape-font-specification:Lavi" /></flowRegion><flowPara
         style="font-style:normal;font-variant:normal;font-weight:500;font-stretch:normal;font-size:48px;line-height:1.25;font-family:ComicSpice;-inkscape-font-specification:'ComicSpice Medium';text-align:center;text-anchor:middle"
         id="flowPara3017">Vậy là xong rồi</flowPara><flowPara
         style="font-style:normal;font-variant:normal;font-weight:500;font-stretch:normal;font-size:48px;line-height:1.25;font-family:ComicSpice;-inkscape-font-specification:'ComicSpice Medium';text-align:center;text-anchor:middle"
         id="flowPara3390">đó Cà Rốt, Chúng</flowPara><flowPara
         style="font-style:normal;font-variant:normal;font-weight:500;font-stretch:normal;font-size:48px;line-height:1.25;font-family:ComicSpice;-inkscape-font-specification:'ComicSpice Medium';text-align:center;text-anchor:middle"
         id="flowPara3392">ta đã có tất cả những</flowPara><flowPara
         style="font-style:normal;font-variant:normal;font-weight:500;font-stretch:normal;font-size:48px;line-height:1.25;font-family:ComicSpice;-inkscape-font-specification:'ComicSpice Medium';text-align:center;text-anchor:middle"
         id="flowPara3394">gì chúng ta cần.</flowPara></flowRoot>    <flowRoot
       xml:space="preserve"
       id="flowRoot2987-8"
       style="font-style:normal;font-variant:normal;font-weight:normal;font-stretch:normal;line-height:0.01%;font-family:Lavi;-inkscape-font-specification:Lavi;letter-spacing:0px;word-spacing:0px;fill:#000000;fill-opacity:1;stroke:none"
       transform="translate(285.70729,883.26302)"><flowRegion
         id="flowRegion2989-57"><rect
           id="rect2991-1"
           width="646.4549"
           height="79.985016"
           x="120.55251"
           y="265.53046"
           style="font-style:normal;font-variant:normal;font-weight:normal;font-stretch:normal;font-family:Lavi;-inkscape-font-specification:Lavi" /></flowRegion><flowPara
         style="font-style:normal;font-variant:normal;font-weight:500;font-stretch:normal;font-size:48px;line-height:1.25;font-family:ComicSpice;-inkscape-font-specification:'ComicSpice Medium';text-align:center;text-anchor:middle"
         id="flowPara3017-3">Nó trông thật ...</flowPara><flowPara
         style="font-style:normal;font-variant:normal;font-weight:500;font-stretch:normal;font-size:48px;line-height:1.25;font-family:ComicSpice;-inkscape-font-specification:'ComicSpice Medium';text-align:center;text-anchor:middle"
         id="flowPara3057"> </flowPara></flowRoot>    <flowRoot
       xml:space="preserve"
       id="flowRoot2987-8-6"
       style="font-style:normal;font-variant:normal;font-weight:normal;font-stretch:normal;line-height:0.01%;font-family:Lavi;-inkscape-font-specification:Lavi;letter-spacing:0px;word-spacing:0px;fill:#000000;fill-opacity:1;stroke:none"
       transform="translate(297.95115,977.80802)"><flowRegion
         id="flowRegion2989-57-9"><rect
           id="rect2991-1-7"
           width="646.4549"
           height="79.985016"
           x="120.55251"
           y="265.53046"
           style="font-style:normal;font-variant:normal;font-weight:normal;font-stretch:normal;font-family:Lavi;-inkscape-font-specification:Lavi" /></flowRegion><flowPara
         style="font-style:normal;font-variant:normal;font-weight:500;font-stretch:normal;font-size:48px;line-height:1.25;font-family:ComicSpice;-inkscape-font-specification:'ComicSpice Medium';text-align:center;text-anchor:middle"
         id="flowPara3017-3-3">... Hoàn hảo</flowPara><flowPara
         style="font-style:normal;font-variant:normal;font-weight:500;font-stretch:normal;font-size:48px;line-height:1.25;font-family:ComicSpice;-inkscape-font-specification:'ComicSpice Medium';text-align:center;text-anchor:middle"
         id="flowPara3057-7"> </flowPara></flowRoot>    <flowRoot
       xml:space="preserve"
       id="flowRoot2987-8-6-0"
       style="font-style:normal;font-variant:normal;font-weight:normal;font-stretch:normal;line-height:0.01%;font-family:Lavi;-inkscape-font-specification:Lavi;letter-spacing:0px;word-spacing:0px;fill:#000000;fill-opacity:1;stroke:none"
       transform="translate(215.17296,1914.6074)"><flowRegion
         id="flowRegion2989-57-9-5"><rect
           id="rect2991-1-7-6"
           width="646.4549"
           height="79.985016"
           x="120.55251"
           y="265.53046"
           style="font-style:normal;font-variant:normal;font-weight:normal;font-stretch:normal;font-family:Lavi;-inkscape-font-specification:Lavi" /></flowRegion><flowPara
         style="font-style:normal;font-variant:normal;font-weight:500;font-stretch:normal;font-size:48px;line-height:1.25;font-family:ComicSpice;-inkscape-font-specification:'ComicSpice Medium';text-align:center;text-anchor:middle"
         id="flowPara3017-3-3-0">Mmm ...</flowPara><flowPara
         style="font-style:normal;font-variant:normal;font-weight:500;font-stretch:normal;font-size:48px;line-height:1.25;font-family:ComicSpice;-inkscape-font-specification:'ComicSpice Medium';text-align:center;text-anchor:middle"
         id="flowPara3057-7-3"> </flowPara></flowRoot>    <flowRoot
       xml:space="preserve"
       id="flowRoot2987-8-6-0-1"
       style="font-style:normal;font-variant:normal;font-weight:normal;font-stretch:normal;line-height:0.01%;font-family:Lavi;-inkscape-font-specification:Lavi;letter-spacing:0px;word-spacing:0px;fill:#000000;fill-opacity:1;stroke:none"
       transform="matrix(1.0270069,0,0,1.0526176,176.70113,2041.5782)"><flowRegion
         id="flowRegion2989-57-9-5-4"><rect
           id="rect2991-1-7-6-9"
           width="697.53107"
           height="220.44458"
           x="120.55251"
           y="265.53046"
           style="font-style:normal;font-variant:normal;font-weight:normal;font-stretch:normal;font-family:Lavi;-inkscape-font-specification:Lavi" /></flowRegion><flowPara
         style="font-style:normal;font-variant:normal;font-weight:500;font-stretch:normal;font-size:64px;line-height:1.25;font-family:ComicSpice;-inkscape-font-specification:'ComicSpice Medium';text-align:center;text-anchor:middle"
         id="flowPara3149">Thật là một cốc</flowPara><flowPara
         style="font-style:normal;font-variant:normal;font-weight:500;font-stretch:normal;font-size:64px;line-height:1.25;font-family:ComicSpice;-inkscape-font-specification:'ComicSpice Medium';text-align:center;text-anchor:middle"
         id="flowPara3422">cà phê... Tuyệt Vời!</flowPara><flowPara
         style="font-style:normal;font-variant:normal;font-weight:500;font-stretch:normal;font-size:64px;line-height:1.25;font-family:ComicSpice;-inkscape-font-specification:'ComicSpice Medium';text-align:center;text-anchor:middle"
         id="flowPara3057-7-3-2"> </flowPara></flowRoot>    <flowRoot
       xml:space="preserve"
       id="flowRoot2987-4"
       style="font-style:normal;font-variant:normal;font-weight:normal;font-stretch:normal;line-height:0.01%;font-family:Lavi;-inkscape-font-specification:Lavi;letter-spacing:0px;word-spacing:0px;fill:#000000;fill-opacity:1;stroke:none;stroke-width:0.96017826"
       transform="matrix(1.0414733,0,0,1.0414733,170.80138,2325.4838)"><flowRegion
         id="flowRegion2989-3"
         style="stroke-width:0.96017826"><rect
           id="rect2991-15"
           width="676.55792"
           height="400.5246"
           x="120.55251"
           y="265.53046"
           style="font-style:normal;font-variant:normal;font-weight:normal;font-stretch:normal;font-family:Lavi;-inkscape-font-specification:Lavi;stroke-width:0.96017826" /></flowRegion><flowPara
         style="font-style:normal;font-variant:normal;font-weight:500;font-stretch:normal;font-size:48px;line-height:1.25;font-family:ComicSpice;-inkscape-font-specification:'ComicSpice Medium';text-align:center;text-anchor:middle;stroke-width:0.96017826"
         id="flowPara3193">Đó là tất cả, Ta cần </flowPara><flowPara
         style="font-style:normal;font-variant:normal;font-weight:500;font-stretch:normal;font-size:48px;line-height:1.25;font-family:ComicSpice;-inkscape-font-specification:'ComicSpice Medium';text-align:center;text-anchor:middle;stroke-width:0.96017826"
         id="flowPara3405">phải làm xuyên đêm để</flowPara><flowPara
         style="font-style:normal;font-variant:normal;font-weight:500;font-stretch:normal;font-size:48px;line-height:1.25;font-family:ComicSpice;-inkscape-font-specification:'ComicSpice Medium';text-align:center;text-anchor:middle;stroke-width:0.96017826"
         id="flowPara3407">có lọ thần dược tốt nhất</flowPara><flowPara
         style="font-style:normal;font-variant:normal;font-weight:500;font-stretch:normal;font-size:48px;line-height:1.25;font-family:ComicSpice;-inkscape-font-specification:'ComicSpice Medium';text-align:center;text-anchor:middle;stroke-width:0.96017826"
         id="flowPara3195">cho cuộc thi</flowPara><flowPara
         style="font-style:normal;font-variant:normal;font-weight:500;font-stretch:normal;font-size:48px;line-height:1.25;font-family:ComicSpice;-inkscape-font-specification:'ComicSpice Medium';text-align:center;text-anchor:middle;stroke-width:0.96017826"
         id="flowPara3413">ngày mai</flowPara></flowRoot>    <flowRoot
       xml:space="preserve"
       id="flowRoot2987-4-6"
       style="font-style:normal;font-variant:normal;font-weight:normal;font-stretch:normal;line-height:0.01%;font-family:Lavi;-inkscape-font-specification:Lavi;letter-spacing:0px;word-spacing:0px;fill:#000000;fill-opacity:1;stroke:none;stroke-width:0.84334439"
       transform="matrix(1.1857552,0,0,1.1857552,1732.0223,3098.1277)"><flowRegion
         id="flowRegion2989-3-2"
         style="stroke-width:0.84334439"><rect
           id="rect2991-15-0"
           width="676.55792"
           height="400.5246"
           x="120.55251"
           y="265.53046"
           style="font-style:normal;font-variant:normal;font-weight:normal;font-stretch:normal;font-family:Lavi;-inkscape-font-specification:Lavi;stroke-width:0.84334439" /></flowRegion><flowPara
         style="font-style:normal;font-variant:normal;font-weight:500;font-stretch:normal;font-size:48px;line-height:1.25;font-family:ComicSpice;-inkscape-font-specification:'ComicSpice Medium';text-align:center;text-anchor:middle;stroke-width:0.84334439"
         id="flowPara3195-9">Còn tiếp...</flowPara></flowRoot>  </g>
</svg>
