<?xml version="1.0" encoding="UTF-8" standalone="no"?>
<!-- Created with Inkscape (http://www.inkscape.org/) -->

<svg
   xmlns:dc="http://purl.org/dc/elements/1.1/"
   xmlns:cc="http://creativecommons.org/ns#"
   xmlns:rdf="http://www.w3.org/1999/02/22-rdf-syntax-ns#"
   xmlns:svg="http://www.w3.org/2000/svg"
   xmlns="http://www.w3.org/2000/svg"
   xmlns:xlink="http://www.w3.org/1999/xlink"
   xmlns:sodipodi="http://sodipodi.sourceforge.net/DTD/sodipodi-0.dtd"
   xmlns:inkscape="http://www.inkscape.org/namespaces/inkscape"
   id="svg2"
   version="1.1"
   inkscape:version="0.92.2 2405546, 2018-03-11"
   width="2481"
   height="3503"
   sodipodi:docname="E27P02.svg">
  <metadata
     id="metadata8">
    <rdf:RDF>
      <cc:Work
         rdf:about="">
        <dc:format>image/svg+xml</dc:format>
        <dc:type
           rdf:resource="http://purl.org/dc/dcmitype/StillImage" />
        <dc:title></dc:title>
      </cc:Work>
    </rdf:RDF>
  </metadata>
  <defs
     id="defs6" />
  <sodipodi:namedview
     pagecolor="#ffffff"
     bordercolor="#666666"
     borderopacity="1"
     objecttolerance="10"
     gridtolerance="10"
     guidetolerance="10"
     inkscape:pageopacity="0"
     inkscape:pageshadow="2"
     inkscape:window-width="1858"
     inkscape:window-height="1057"
     id="namedview4"
     showgrid="false"
     inkscape:zoom="0.4574026"
     inkscape:cx="929.95888"
     inkscape:cy="490.84785"
     inkscape:window-x="1912"
     inkscape:window-y="-8"
     inkscape:window-maximized="1"
     inkscape:current-layer="layer1"
     inkscape:snap-global="false" />
  <g
     inkscape:groupmode="layer"
     id="layer2"
     inkscape:label="artwork"
     sodipodi:insensitive="true">
    <image
       sodipodi:absref="/home/midgard/git/peppercarrot/comics/new-ep27_Coriander-s-Invention/lang/ja/../gfx_Pepper-and-Carrot_by-David-Revoy_E27P02.png"
       xlink:href="../gfx_Pepper-and-Carrot_by-David-Revoy_E27P02.png"
       y="0"
       x="0"
       id="image10"
       height="3503"
       width="2481" />
  </g>
  <g
     inkscape:groupmode="layer"
     id="layer3"
     inkscape:label="speechbubbles">
    <path
       style="fill:#ffffff;fill-rule:evenodd;stroke:none;stroke-width:0.91965902px;stroke-linecap:butt;stroke-linejoin:miter;stroke-opacity:1"
       d="m 470.50403,195.57139 c 4.85886,1.63451 50.67097,0 54.8357,-0.81725 4.16475,-0.81726 35.40027,-7.35529 43.03563,-5.72078 7.63536,1.63451 60.38869,10.6243 70.10641,11.44156 9.71772,0.81725 56.22395,2.45176 64.55342,7.35529 8.32949,4.90352 19.43545,9.80705 25.68257,17.9796 6.2471,8.17254 15.27069,33.50743 14.57657,39.22821 -0.69413,5.72078 -10.41184,44.94899 -15.96482,50.66977 -5.55298,5.72078 -24.98843,24.51763 -30.54141,26.9694 -5.55299,2.45176 -18.04719,8.98979 -24.29431,11.44156 -6.2471,2.45176 -147.84818,4.90352 -165.20125,5.72078 -17.35307,0.81725 -84.683,-4.90353 -96.48309,-5.72078 -11.80009,-0.81726 -39.56501,1.63451 -57.61219,-6.53804 -18.04721,-8.17254 -30.54142,-38.41095 -36.0944,-44.13174 -5.55299,-5.72078 -15.27071,-30.23841 -14.57658,-39.22821 0.69412,-8.9898 14.57658,-30.23841 21.5178,-32.69017 6.94123,-2.45177 35.40027,-22.88313 52.05922,-26.9694 16.65896,-4.08627 56.91808,-13.89332 64.55343,-13.07607 10.45132,1.64213 9.35332,0.16304 29.8473,4.08627 z"
       id="path1323"
       inkscape:connector-curvature="0"
       sodipodi:nodetypes="ccsscscsscsssccsscc" />
    <path
       style="fill:#ffffff;fill-rule:evenodd;stroke:none;stroke-width:1.1147244px;stroke-linecap:butt;stroke-linejoin:miter;stroke-opacity:1"
       d="m 143.81861,163.77351 c 13.08863,-19.15682 36.81181,-29.0442 49.08239,-31.51605 12.2706,-2.47185 32.7216,3.08981 44.17417,1.85389 11.45254,-1.23593 54.80865,-12.35924 71.16945,-11.74128 16.36079,0.61796 64.62515,4.32573 80.16792,4.9437 15.54274,0.61796 53.99063,3.0898 67.8973,9.88738 13.90668,6.79758 29.44944,14.21312 31.90355,21.0107 2.45413,6.79758 8.18041,19.77478 2.45413,30.89809 -5.72627,11.12331 -19.63295,30.28013 -37.62984,32.13401 -17.99687,1.85389 -107.16322,8.65147 -126.79617,8.0335 -19.63296,-0.61796 -73.6236,0 -86.71224,0 -13.08864,0 -60.53494,-4.32573 -74.44164,-12.35923 -13.90667,-8.0335 -24.54117,-24.10051 -26.17726,-33.9879 -1.63608,-9.88738 4.90824,-19.15681 4.90824,-19.15681 z"
       id="path1325"
       inkscape:connector-curvature="0" />
    <path
       style="fill:#ffffff;fill-rule:evenodd;stroke:none;stroke-width:1px;stroke-linecap:butt;stroke-linejoin:miter;stroke-opacity:1"
       d="m 544.4243,343.97954 c 6.17962,25.33643 -4.94369,76.0093 4.32573,89.60445 9.26943,13.59516 11.12331,11.74128 19.15682,18.53886 -12.35924,15.44904 -17.92089,33.36993 -16.68497,42.63936 1.23592,9.26942 4.32573,33.36993 35.84178,44.49324 -27.19032,-19.15681 -24.71847,-38.31363 -23.48255,-43.87528 1.23593,-5.56166 6.17962,-34.60586 21.62867,-42.0214 -15.44905,-11.74127 -23.48255,-24.71847 -23.48255,-32.13401 0,-7.41554 8.65146,-82.80688 8.65146,-82.80688 z"
       id="path1327"
       inkscape:connector-curvature="0" />
    <path
       style="fill:#ffffff;fill-rule:evenodd;stroke:none;stroke-width:0.93862015px;stroke-linecap:butt;stroke-linejoin:miter;stroke-opacity:1"
       d="m 1028.778,96.807206 c -32.42456,15.004574 -62.38624,27.285214 -66.70952,49.291914 -4.32327,22.0067 -16.21228,40.0122 -17.2931,55.01676 -1.08082,15.00458 7.26449,69.74435 14.83022,89.75045 7.56573,20.0061 48.6369,66.02012 54.0409,70.02134 5.4041,4.00121 41.0712,17.00518 58.3643,23.00701 17.2931,6.00183 155.6379,10.00304 180.4967,13.00395 24.8589,3.00092 91.8696,-14.00426 109.1628,-21.00639 17.2931,-7.00214 41.0711,-10.00305 51.8793,-22.00671 10.8082,-12.00365 35.667,-44.0134 39.9903,-58.01767 4.3232,-14.00427 4.3232,-62.0189 4.3232,-72.02195 0,-10.00305 -1.0808,-54.01646 -21.6163,-73.02224 -20.5356,-19.00579 -55.1218,-45.01373 -82.1423,-53.016158 -27.0205,-8.002438 -190.2241,-20.006096 -208.598,-21.006401 -18.374,-1.000305 -116.7285,20.006095 -116.7285,20.006095 z"
       id="path1329"
       inkscape:connector-curvature="0"
       sodipodi:nodetypes="cssscsscscscssc" />
    <path
       style="fill:#ffffff;fill-rule:evenodd;stroke:none;stroke-width:0.78244507px;stroke-linecap:butt;stroke-linejoin:miter;stroke-opacity:1"
       d="m 1055.2353,368.61685 c -23.5293,12.64434 -49.7736,24.49843 -55.2035,33.19142 -5.42982,8.69298 -12.66963,32.40113 -9.04979,43.46494 3.61997,11.06381 15.38469,56.89957 28.95929,65.59256 13.5746,8.69299 57.0136,35.56223 78.733,35.56223 21.7194,0 91.4025,10.27353 103.1673,9.48326 11.7646,-0.79027 87.7826,8.69299 107.6922,0.79027 19.9094,-7.90272 45.2487,-22.12761 60.6334,-26.86924 15.3844,-4.74163 52.4885,-7.11244 63.3482,-24.49843 10.8598,-17.38597 15.7192,-48.43105 7.2399,-71.12446 -8.2009,-21.94807 -25.3393,-41.09412 -52.4887,-52.94821 -27.1492,-11.85407 -114.027,-37.93304 -114.027,-37.93304 l -130.3165,-10.27353 c 0,0 -20.8145,7.11244 -42.534,17.38598 -21.7194,10.27353 -46.1538,18.17625 -46.1538,18.17625 z"
       id="path1331"
       inkscape:connector-curvature="0"
       sodipodi:nodetypes="csccsccccasccsc" />
    <path
       style="fill:#ffffff;fill-rule:evenodd;stroke:none;stroke-width:1px;stroke-linecap:butt;stroke-linejoin:miter;stroke-opacity:1"
       d="m 1351.9814,512.88853 c 0,0 27.0205,22.6972 35.667,37.82867 8.6466,15.13146 27.0205,36.74784 22.6972,76.73814 10.8082,-51.87931 10.8082,-67.01077 -20.5355,-116.72844 -31.3438,-49.71768 -37.8287,2.16163 -37.8287,2.16163 z"
       id="path1333"
       inkscape:connector-curvature="0" />
    <path
       style="fill:#ffffff;fill-rule:evenodd;stroke:none;stroke-width:0.95531344px;stroke-linecap:butt;stroke-linejoin:miter;stroke-opacity:1"
       d="m 1604.7755,212.57403 c 12.1011,-39.43771 16.1347,-62.44306 44.3704,-76.68446 28.2357,-14.2414 143.8676,-26.29181 160.0023,-27.3873 16.1347,-1.09549 64.5387,3.28648 87.3962,3.28648 22.8575,0 141.1785,-2.19099 160.0023,-2.19099 18.8238,0 95.4636,0 115.632,2.19099 20.1683,2.19098 91.4298,15.33688 103.5309,25.19632 12.101,9.85942 47.0594,51.48813 48.404,78.87544 1.3446,27.38731 -1.3446,72.30249 -25.5466,89.83037 -24.202,17.52787 -80.6735,39.43772 -118.3211,46.01068 -37.6475,6.57295 -221.8519,14.24139 -243.3647,14.24139 -21.513,0 -112.9428,3.28648 -157.3132,-2.19098 -44.3704,-5.47746 -92.7745,-21.90985 -115.6319,-37.24674 -22.8575,-15.3369 -51.0933,-26.29181 -59.1606,-55.87011 -8.0673,-29.57829 0,-58.06109 0,-58.06109 z"
       id="path1335"
       inkscape:connector-curvature="0" />
    <path
       style="fill:#ffffff;fill-rule:evenodd;stroke:none;stroke-width:1px;stroke-linecap:butt;stroke-linejoin:miter;stroke-opacity:1"
       d="m 1740.3689,390.5748 c 27.5116,26.61792 42.8588,47.56076 -11.4058,80.71719 49.1355,-0.72812 43.5728,20.05383 34.2174,45.56614 66.8976,-20.5973 113.7421,-7.40942 120.3948,32.54725 43.9171,-32.2476 50.5645,-26.46532 83.6426,-1.30189 39.6321,-49.89404 62.6056,-15.54139 91.2465,-10.41512 -5.8821,-23.03081 13.5288,-43.92498 62.4748,-10.21797 -17.5693,-18.88765 -10.6126,-65.99877 56.6527,-69.19731 -30.151,-10.89059 -73.1985,-22.51429 -22.8117,-69.00017 -77.6206,-8.98442 -39.9485,-27.33589 -51.9598,-41.66048 l -112.7909,-13.0189 -114.0581,7.81134 -58.2964,5.20756 c -1.4105,20.45876 4.4806,42.79545 -77.3061,42.96236 z"
       id="path1337"
       inkscape:connector-curvature="0"
       sodipodi:nodetypes="cccccccccccccc" />
    <path
       style="fill:#ffffff;fill-rule:evenodd;stroke:none;stroke-width:1px;stroke-linecap:butt;stroke-linejoin:miter;stroke-opacity:1"
       d="m 2077.6353,496.12195 c 24.8588,19.45474 57.2834,63.76832 55.1217,92.95043 10.8082,-38.90948 -17.2931,-97.27371 -31.3437,-112.40517 -14.0507,-15.13147 -23.778,19.45474 -23.778,19.45474 z"
       id="path1339"
       inkscape:connector-curvature="0" />
    <path
       style="fill:#ffffff;fill-rule:evenodd;stroke:none;stroke-width:1px;stroke-linecap:butt;stroke-linejoin:miter;stroke-opacity:1"
       d="m 890.21141,1438.6648 c 10.99475,-34.2595 32.98428,-50.6446 62.82721,-59.5818 29.84293,-8.9372 108.37698,1.4895 128.79578,1.4895 20.4188,0 102.0943,7.4477 113.089,19.3641 10.9948,11.9164 37.6963,37.2387 29.8429,64.0505 -7.8534,26.8118 -17.2775,53.6236 -59.6858,68.519 -42.4084,14.8954 -81.6754,0 -97.3823,1.4896 -15.7068,1.4895 -36.1256,8.9372 -80.10461,1.4895 -43.97905,-7.4477 -100.52356,-46.1759 -97.38218,-96.8204 z"
       id="path1341"
       inkscape:connector-curvature="0" />
    <path
       style="fill:#ffffff;fill-rule:evenodd;stroke:none;stroke-width:1px;stroke-linecap:butt;stroke-linejoin:miter;stroke-opacity:1"
       d="m 1321.8416,1549.9601 c -25.1103,-26.3097 -29.3743,-46.7563 -36.94,-53.2412 -7.5658,-6.4849 -52.768,-40.79 -87.3542,-44.0325 -34.5862,-3.2424 -28.1013,24.8589 -28.1013,24.8589 0,0 36.7479,1.0808 51.8793,5.4041 15.1315,4.3232 48.6369,20.5355 54.041,24.8588 5.4041,4.3233 19.4547,27.0205 46.4752,42.1519 z"
       id="path1343"
       inkscape:connector-curvature="0"
       sodipodi:nodetypes="cccccsc" />
    <path
       style="fill:#ffffff;fill-rule:evenodd;stroke:none;stroke-width:1px;stroke-linecap:butt;stroke-linejoin:miter;stroke-opacity:1"
       d="m 1847.0115,1634.8585 c 65.8759,-41.0171 79.5483,-53.4465 129.266,-55.9324 49.7176,-2.4859 59.6612,-29.8306 59.6612,-29.8306 0,0 -34.8024,-1.243 -72.0906,6.2147 -37.2883,7.4576 -95.7066,37.2882 -116.8366,79.5483 z"
       id="path1345"
       inkscape:connector-curvature="0" />
    <path
       style="fill:#ffffff;fill-rule:evenodd;stroke:none;stroke-width:0.99999988px;stroke-linecap:butt;stroke-linejoin:miter;stroke-opacity:1"
       d="m 1980.1886,1519.225 c 17.7997,-20.9727 63.5703,-43.2562 91.5412,-47.1886 27.9708,-3.9323 116.9692,5.2432 136.0403,17.0403 19.071,11.7972 58.4846,20.9728 57.2132,58.9858 -1.2715,38.013 5.0856,55.0534 -24.1567,76.026 -29.2423,20.9728 -132.2261,15.7296 -155.1113,14.4188 -22.8854,-1.3107 -66.1131,-6.5539 -88.9984,-30.1483 -22.8853,-23.5942 -33.0565,-48.4993 -16.5283,-89.134 z"
       id="path1347"
       inkscape:connector-curvature="0" />
    <path
       style="fill:#ffffff;fill-rule:evenodd;stroke:none;stroke-width:1px;stroke-linecap:butt;stroke-linejoin:miter;stroke-opacity:1"
       d="m 2013.5657,1655.9885 c 19.8871,-34.8024 68.3618,-47.2318 79.5483,-47.2318 11.1865,0 98.1924,7.4576 114.3506,7.4576 16.1583,0 49.7177,-7.4576 68.3618,-4.9717 18.6442,2.4859 53.4465,0 68.3618,24.8588 14.9153,24.8588 26.1018,79.5483 22.373,103.1642 -3.7288,23.6159 4.9718,54.6894 -11.1865,90.7347 -16.1582,36.0453 -22.3729,49.7177 -45.9888,60.9042 -23.6159,11.1865 -135.4807,6.2147 -160.3395,2.4859 -24.8589,-3.7289 -73.3336,0 -94.4636,-6.2147 -21.13,-6.2148 -54.6894,-27.3448 -49.7177,-53.4465 4.9718,-26.1018 -8.7006,-49.7177 -2.4859,-94.4636 6.2148,-44.7459 11.1865,-83.2771 11.1865,-83.2771 z"
       id="path1349"
       inkscape:connector-curvature="0" />
    <path
       style="fill:#ffffff;fill-rule:evenodd;stroke:none;stroke-width:0.89122576px;stroke-linecap:butt;stroke-linejoin:miter;stroke-opacity:1"
       d="m 113.99812,2400.2082 c 0,-35.8207 20.55021,-41.7908 33.95251,-41.7908 13.40231,0 57.18317,-4.7762 63.43759,-4.7762 6.25441,0 52.71574,7.1642 60.75713,13.1343 8.04138,5.9701 20.55019,10.7462 18.76323,32.2386 -1.78698,21.4925 0,33.4327 -17.86974,39.4028 -17.86975,5.9702 -87.56175,8.3582 -100.07057,7.1642 -12.50882,-1.194 -31.27205,-10.7463 -40.20692,-17.9104 -8.93487,-7.1641 -20.55021,-9.5522 -18.76323,-27.4625 z"
       id="path1351"
       inkscape:connector-curvature="0" />
    <path
       style="fill:#ffffff;fill-rule:evenodd;stroke:none;stroke-width:0.94794756px;stroke-linecap:butt;stroke-linejoin:miter;stroke-opacity:1"
       d="m 309.0166,2416.9778 c 51.45192,-11.2481 87.82686,-8.5798 103.04141,-6.9111 16.01183,1.7561 56.58274,12.1289 69.28499,21.2194 12.70223,9.0905 28.90043,27.5079 27.74568,38.4164 -1.15475,10.9087 7.38739,40.8823 6.23263,55.4271 -1.15475,14.5447 -13.46151,64.5672 -21.54476,85.4754 -8.08325,20.908 -27.714,45.4523 -114.32022,49.9976 -86.60622,4.5452 -139.7247,2.7272 -173.21244,-4.5453 -33.48774,-7.2723 -76.21349,-11.8176 -87.76099,-46.3614 -11.5475,-34.5438 -15.01174,-73.6329 -11.5475,-89.9957 3.46426,-16.3629 6.92851,-52.7248 11.5475,-59.0882 4.619,-6.3633 18.5711,-31.144 28.96385,-36.5982 10.39274,-5.4543 161.56985,-7.036 161.56985,-7.036 z"
       id="path1353"
       inkscape:connector-curvature="0"
       sodipodi:nodetypes="csssscscsscsc" />
    <path
       style="fill:#ffffff;fill-rule:evenodd;stroke:none;stroke-width:0.97341722px;stroke-linecap:butt;stroke-linejoin:miter;stroke-opacity:1"
       d="m 526.28498,2538.3904 c 1.12574,-17.6985 14.63464,-50.1459 34.898,-56.0454 20.26335,-5.8995 76.55044,-5.8995 87.80786,-2.9497 11.25742,2.9497 29.2693,24.5813 33.77226,33.4306 4.50297,8.8493 16.88614,40.3133 -3.37722,53.0956 -20.26335,12.7823 -40.52671,22.6149 -61.91581,21.6315 -21.3891,-0.9832 -64.16729,-7.8659 -74.29897,-19.665 -10.13168,-11.799 -16.88612,-29.4976 -16.88612,-29.4976 z"
       id="path1355"
       inkscape:connector-curvature="0" />
    <path
       style="fill:#ffffff;fill-rule:evenodd;stroke:none;stroke-width:1px;stroke-linecap:butt;stroke-linejoin:miter;stroke-opacity:1"
       d="m 368.84724,2646.9704 c 0,0 10.62431,7.3553 12.25882,23.7003 1.63451,16.3451 -0.81725,35.142 -13.89333,54.7561 28.60391,-32.6902 43.31449,-55.5733 34.32469,-83.36 -8.9898,-27.7866 -32.69018,4.9036 -32.69018,4.9036 z"
       id="path1357"
       inkscape:connector-curvature="0" />
    <path
       style="fill:#ffffff;fill-rule:evenodd;stroke:none;stroke-width:1px;stroke-linecap:butt;stroke-linejoin:miter;stroke-opacity:1"
       d="m 609.41023,2578.6689 c 0,0 17.16235,24.5177 9.80706,38.411 -7.35529,13.8933 -8.9898,18.7968 -25.33489,35.1419 26.9694,-17.9796 37.5937,-31.0556 40.86272,-43.3145 3.26902,-12.2588 5.72078,-35.9592 5.72078,-42.4972 0,-6.538 -31.05567,12.2588 -31.05567,12.2588 z"
       id="path1359"
       inkscape:connector-curvature="0" />
    <path
       style="fill:#ffffff;fill-rule:evenodd;stroke:none;stroke-width:1.03840244px;stroke-linecap:butt;stroke-linejoin:miter;stroke-opacity:1"
       d="m 721.7991,2510.6937 c -9.39843,-42.5634 -7.51874,-84.1134 4.69921,-95.2608 4.75927,-26.065 60.0674,-65.3013 81.7663,-59.7915 16.91717,-4.0536 108.0819,-25.3353 125.93891,-23.3084 17.85701,2.0267 118.32618,4.6109 137.12298,22.8524 18.7969,18.2414 34.2573,28.5276 45.5355,47.7825 11.2781,19.2548 17.716,57.2071 23.3551,63.2875 5.639,6.0806 3.5713,36.3309 -1.1279,53.5589 -4.6992,17.2281 -21.6164,31.4159 -46.0523,37.4963 -24.4359,6.0806 -57.3304,14.1878 -78.9468,15.2013 -21.61634,1.0134 -71.428,1.0134 -109.0217,-2.0268 -44.76237,-9.5027 -72.61993,-9.7453 -117.26947,-14.0847 -8.45859,-1.0133 -64.12015,-18.3446 -65.99983,-45.7067 z"
       id="path1361"
       inkscape:connector-curvature="0"
       sodipodi:nodetypes="ccccccccccccc" />
    <path
       style="fill:#ffffff;fill-rule:evenodd;stroke:none;stroke-width:1px;stroke-linecap:butt;stroke-linejoin:miter;stroke-opacity:1"
       d="m 1048.8643,2539.6614 c 40.4132,37.5937 65.789,69.5483 47.932,102.4428 29.1351,-35.714 14.0976,-69.5483 -24.4359,-117.4803 -38.5336,-47.932 -23.4961,15.0375 -23.4961,15.0375 z"
       id="path1363"
       inkscape:connector-curvature="0" />
    <path
       style="fill:#ffffff;fill-rule:evenodd;stroke:none;stroke-width:1px;stroke-linecap:butt;stroke-linejoin:miter;stroke-opacity:1"
       d="m 1362.7766,2499.8218 c -0.8172,-27.7867 20.4314,-32.6902 31.8729,-34.3247 11.4416,-1.6345 58.8423,-9.807 76.8219,3.269 17.9796,13.0761 22.8832,35.142 14.7106,43.3145 -8.1725,8.1726 -34.3247,20.4314 -50.6698,21.2486 -16.345,0.8173 -51.487,-4.0862 -62.9285,-15.5278 -11.4416,-11.4416 -9.8071,-17.9796 -9.8071,-17.9796 z"
       id="path1365"
       inkscape:connector-curvature="0" />
    <path
       style="fill:#ffffff;fill-rule:evenodd;stroke:none;stroke-width:1px;stroke-linecap:butt;stroke-linejoin:miter;stroke-opacity:1"
       d="m 1445.7231,2523.112 c 0,0 19.6141,10.6243 24.5176,19.6141 4.9035,8.9898 13.0761,31.0556 8.9898,45.7662 13.0761,-26.1521 8.1725,-42.4972 4.9035,-49.8525 -3.269,-7.3553 -23.7004,-34.3247 -23.7004,-34.3247 z"
       id="path1367"
       inkscape:connector-curvature="0" />
    <path
       style="fill:#ffffff;fill-rule:evenodd;stroke:none;stroke-width:1px;stroke-linecap:butt;stroke-linejoin:miter;stroke-opacity:1"
       d="m 1811.2557,2452.444 c 4.5211,-52.9602 32.7775,-69.1724 51.992,-76.7382 19.2144,-7.5657 98.3326,-18.3739 125.4588,-17.2931 27.1262,1.0808 127.7194,11.889 144.6733,12.9698 16.9539,1.0809 59.9037,25.9397 63.2945,32.4246 3.3908,6.4849 18.0842,23.778 13.5631,43.2328 -4.521,19.4547 -30.517,45.3944 -55.3828,55.1217 -24.8657,9.7274 -124.3284,17.2931 -143.5429,15.1315 -19.2144,-2.1616 -51.9919,-5.4041 -71.2064,-5.4041 -19.2144,0 -80.2484,-1.0808 -96.0721,-12.9698 -15.8236,-11.889 -32.7775,-46.4752 -32.7775,-46.4752 z"
       id="path1369"
       inkscape:connector-curvature="0" />
    <path
       style="fill:#ffffff;fill-rule:evenodd;stroke:none;stroke-width:1.05892491px;stroke-linecap:butt;stroke-linejoin:miter;stroke-opacity:1"
       d="m 1991.0104,2507.5657 c 17.5787,24.1512 6.9109,34.5534 -22.8391,35.6671 23.0094,9.9586 51.7307,15.5923 45.6781,47.556 25.5457,-0.375 41.7062,-19.937 82.4743,10.8082 24.1079,-25.3561 48.2157,-13.281 72.3237,-2.1617 11.563,-11.3113 32.8526,-12.0311 77.399,-6.4849 -3.4399,-25.0109 24.5148,-36.1565 50.7535,-44.3136 -22.2165,-13.1763 -42.2279,-27.5479 -27.9145,-60.5258 -32.2847,7.2773 -59.4338,6.6803 -74.8613,-11.889 -32.0301,4.157 -56.0895,21.8927 -100.2381,5.4041 -23.7741,19.9279 -50.2729,21.2885 -77.399,18.3739 6.1818,17.7643 -1.1154,21.4958 -25.3766,7.5657 z"
       id="path1371"
       inkscape:connector-curvature="0"
       sodipodi:nodetypes="cccccccccccc" />
    <path
       style="fill:#ffffff;fill-rule:evenodd;stroke:none;stroke-width:1px;stroke-linecap:butt;stroke-linejoin:miter;stroke-opacity:1"
       d="m 2153.0046,2557.4208 c -3.2425,28.1012 8.6465,79.9806 34.5862,113.4859 -3.2425,16.2123 1.0808,33.5054 15.1315,47.5561 -12.9699,-29.1821 -7.5658,-36.7479 -1.0809,-50.7985 -12.9698,-20.5356 -31.3437,-69.1724 -34.5862,-109.1627 -3.2424,-39.9903 -14.0506,-1.0808 -14.0506,-1.0808 z"
       id="path1373"
       inkscape:connector-curvature="0" />
  </g>
  <g
     inkscape:groupmode="layer"
     id="layer1"
     inkscape:label="txt">
    <text
       xml:space="preserve"
       style="font-style:normal;font-variant:normal;font-weight:normal;font-stretch:normal;line-height:0%;font-family:'Rounded M+ 1c';-inkscape-font-specification:'Rounded M+ 1c, Medium';text-align:center;letter-spacing:0px;word-spacing:0px;text-anchor:middle;fill:#000000;fill-opacity:1;stroke:none"
       x="324.61392"
       y="193.67375"
       id="text4246"><tspan
         sodipodi:role="line"
         style="font-size:45px;line-height:1.20000005"
         x="324.61392"
         y="193.67375"
         id="tspan4252">わかるでしょ...</tspan></text>
    <text
       xml:space="preserve"
       style="font-style:normal;font-variant:normal;font-weight:normal;font-stretch:normal;line-height:0%;font-family:'Rounded M+ 1c';-inkscape-font-specification:'Rounded M+ 1c, Medium';text-align:center;letter-spacing:0px;word-spacing:0px;text-anchor:middle;fill:#000000;fill-opacity:1;stroke:none"
       x="524.04688"
       y="265.45801"
       id="text4246-3"><tspan
         sodipodi:role="line"
         style="font-size:45px;line-height:1.20000005"
         x="524.04688"
         y="265.45801"
         id="tspan841">安全のことを</tspan><tspan
         sodipodi:role="line"
         style="font-size:45px;line-height:1.20000005"
         x="524.04688"
         y="319.45801"
         id="tspan154">考えているの...</tspan></text>
    <text
       xml:space="preserve"
       style="font-style:normal;font-variant:normal;font-weight:normal;font-stretch:normal;line-height:0%;font-family:'Rounded M+ 1c';-inkscape-font-specification:'Rounded M+ 1c, Medium';text-align:center;letter-spacing:0px;word-spacing:0px;text-anchor:middle;fill:#000000;fill-opacity:1;stroke:none"
       x="1207.0967"
       y="169.41882"
       id="text4246-3-7"><tspan
         sodipodi:role="line"
         style="font-size:45px;line-height:1.20000005"
         x="1207.0967"
         y="169.41882"
         id="tspan872">若い王も女王も</tspan><tspan
         sodipodi:role="line"
         style="font-size:45px;line-height:1.20000005"
         x="1207.0967"
         y="223.41882"
         id="tspan181">戴冠式で殺されるって</tspan><tspan
         sodipodi:role="line"
         style="font-size:45px;line-height:1.20000005"
         x="1207.0967"
         y="277.41882"
         id="tspan183">ことがあまりにも</tspan><tspan
         sodipodi:role="line"
         style="font-size:45px;line-height:1.20000005"
         x="1207.0967"
         y="331.41882"
         id="tspan185">起こりすぎてるのよ</tspan></text>
    <text
       xml:space="preserve"
       style="font-style:normal;font-variant:normal;font-weight:normal;font-stretch:normal;line-height:0%;font-family:'Rounded M+ 1c';-inkscape-font-specification:'Rounded M+ 1c, Medium';text-align:center;letter-spacing:0px;word-spacing:0px;text-anchor:middle;fill:#000000;fill-opacity:1;stroke:none"
       x="1222.4489"
       y="442.28085"
       id="text4246-3-7-7"><tspan
         sodipodi:role="line"
         style="font-size:45px;line-height:1.20000005"
         x="1222.4489"
         y="442.28085"
         id="tspan746">私の家の歴史でも</tspan><tspan
         sodipodi:role="line"
         style="font-size:45px;line-height:1.20000005"
         x="1222.4489"
         y="496.28085"
         id="tspan161">何度も起こってる</tspan></text>
    <text
       xml:space="preserve"
       style="font-style:normal;font-variant:normal;font-weight:normal;font-stretch:normal;line-height:0%;font-family:'Rounded M+ 1c';-inkscape-font-specification:'Rounded M+ 1c, Medium';text-align:center;letter-spacing:0px;word-spacing:0px;text-anchor:middle;fill:#000000;fill-opacity:1;stroke:none"
       x="1961.5282"
       y="176.76515"
       id="text4246-3-7-7-6"><tspan
         sodipodi:role="line"
         style="font-size:45px;line-height:1.20000005"
         x="1961.5282"
         y="176.76515"
         id="tspan996">それなのにあと数時間で</tspan><tspan
         sodipodi:role="line"
         style="font-size:45px;line-height:1.20000005"
         x="1961.5282"
         y="230.76515"
         id="tspan201">世界中から数千人ものゲストが</tspan><tspan
         sodipodi:role="line"
         style="font-size:45px;line-height:1.20000005"
         x="1961.5282"
         y="284.76517"
         id="tspan203">来てその注目の中心に</tspan><tspan
         sodipodi:role="line"
         style="font-size:45px;line-height:1.20000005"
         x="1961.5282"
         y="338.76517"
         id="tspan205">なってしまう</tspan></text>
    <text
       xml:space="preserve"
       style="font-style:normal;font-variant:normal;font-weight:normal;font-stretch:normal;line-height:0%;font-family:'Rounded M+ 1c';-inkscape-font-specification:'Rounded M+ 1c, Medium';text-align:center;letter-spacing:0px;word-spacing:0px;text-anchor:middle;fill:#000000;fill-opacity:1;stroke:none"
       x="1063.9795"
       y="1447.2626"
       id="text4246-3-7-7-6-7"><tspan
         sodipodi:role="line"
         style="font-size:45px;line-height:1.20000005"
         x="1063.9795"
         y="1447.2626"
         id="tspan1067">コリアンダー</tspan><tspan
         sodipodi:role="line"
         style="font-size:45px;line-height:1.20000005"
         x="1063.9795"
         y="1501.2626"
         id="tspan127">大丈夫！</tspan></text>
    <text
       xml:space="preserve"
       style="font-style:normal;font-variant:normal;font-weight:normal;font-stretch:normal;line-height:0%;font-family:'Rounded M+ 1c';-inkscape-font-specification:'Rounded M+ 1c, Medium';text-align:center;letter-spacing:0px;word-spacing:0px;text-anchor:middle;fill:#000000;fill-opacity:1;stroke:none"
       x="1951.1415"
       y="434.91132"
       id="text4246-3-7-7-6-7-7"><tspan
         sodipodi:role="line"
         style="font-size:45px;line-height:1.20000005"
         x="1951.1415"
         y="434.91132"
         id="tspan1042-9">本当に 本当に</tspan><tspan
         sodipodi:role="line"
         style="font-size:45px;line-height:1.20000005"
         x="1951.1415"
         y="488.91135"
         id="tspan165">怖いのよ</tspan></text>
    <text
       xml:space="preserve"
       style="font-style:normal;font-variant:normal;font-weight:normal;font-stretch:normal;line-height:0%;font-family:'Rounded M+ 1c';-inkscape-font-specification:'Rounded M+ 1c, Medium';text-align:center;letter-spacing:0px;word-spacing:0px;text-anchor:middle;fill:#000000;fill-opacity:1;stroke:none"
       x="2123.6199"
       y="1549.4426"
       id="text4246-3-7-7-6-7-2"><tspan
         sodipodi:role="line"
         style="font-size:45px;line-height:1.20000005"
         x="2123.6199"
         y="1549.4426"
         id="tspan131">計画がある</tspan><tspan
         sodipodi:role="line"
         style="font-size:45px;line-height:1.20000005"
         x="2123.6199"
         y="1603.4426"
         id="tspan135">でしょ</tspan></text>
    <text
       xml:space="preserve"
       style="font-style:normal;font-variant:normal;font-weight:normal;font-stretch:normal;line-height:0%;font-family:'Rounded M+ 1c';-inkscape-font-specification:'Rounded M+ 1c, Medium';text-align:center;letter-spacing:0px;word-spacing:0px;text-anchor:middle;fill:#000000;fill-opacity:1;stroke:none"
       x="2186.6404"
       y="1691.4915"
       id="text4246-3-7-7-6-7-2-9"><tspan
         sodipodi:role="line"
         style="font-size:45px;line-height:1.20000005"
         x="2186.6404"
         y="1691.4915"
         id="tspan1121">シチミと私で</tspan><tspan
         sodipodi:role="line"
         style="font-size:45px;line-height:1.20000005"
         x="2186.6404"
         y="1745.4915"
         id="tspan146">身辺警護を</tspan><tspan
         sodipodi:role="line"
         style="font-size:45px;line-height:1.20000005"
         x="2186.6404"
         y="1799.4915"
         id="tspan148">するんだから</tspan><tspan
         sodipodi:role="line"
         style="font-size:45px;line-height:1.20000005"
         x="2186.6404"
         y="1853.4915"
         id="tspan150">安心して</tspan></text>
    <text
       xml:space="preserve"
       style="font-style:normal;font-variant:normal;font-weight:normal;font-stretch:normal;line-height:0%;font-family:'Rounded M+ 1c';-inkscape-font-specification:'Rounded M+ 1c, Medium';text-align:center;letter-spacing:0px;word-spacing:0px;text-anchor:middle;fill:#000000;fill-opacity:1;stroke:none"
       x="202.46329"
       y="2410.8396"
       id="text4246-3-7-7-6-7-2-9-6"><tspan
         sodipodi:role="line"
         style="font-size:45px;line-height:1.20000005"
         x="202.46329"
         y="2410.8396"
         id="tspan1121-3">ええ</tspan></text>
    <text
       xml:space="preserve"
       style="font-style:normal;font-variant:normal;font-weight:normal;font-stretch:normal;line-height:0%;font-family:'Rounded M+ 1c';-inkscape-font-specification:'Rounded M+ 1c, Medium';text-align:center;letter-spacing:0px;word-spacing:0px;text-anchor:middle;fill:#000000;fill-opacity:1;stroke:none"
       x="306.79276"
       y="2471.5852"
       id="text4246-3-7-7-6-7-2-9-6-1"><tspan
         sodipodi:role="line"
         style="font-size:45px;line-height:1.20000005"
         x="306.79276"
         y="2471.5852"
         id="tspan1183">きっと他の</tspan><tspan
         sodipodi:role="line"
         style="font-size:45px;line-height:1.20000005"
         x="306.79276"
         y="2525.5852"
         id="tspan119">ことを考えて</tspan><tspan
         sodipodi:role="line"
         style="font-size:45px;line-height:1.20000005"
         x="306.79276"
         y="2579.5852"
         id="tspan121">心を休めたほうが</tspan><tspan
         sodipodi:role="line"
         style="font-size:45px;line-height:1.20000005"
         x="306.79276"
         y="2633.5852"
         id="tspan123">いいと思う</tspan></text>
    <text
       xml:space="preserve"
       style="font-style:normal;font-variant:normal;font-weight:normal;font-stretch:normal;line-height:0%;font-family:'Rounded M+ 1c';-inkscape-font-specification:'Rounded M+ 1c, Medium';text-align:center;letter-spacing:0px;word-spacing:0px;text-anchor:middle;fill:#000000;fill-opacity:1;stroke:none"
       x="606.38666"
       y="2549.9514"
       id="text4246-3-7-7-6-7-2-9-6-1-4"><tspan
         sodipodi:role="line"
         style="font-size:45px;line-height:1.20000005"
         x="606.38666"
         y="2549.9514"
         id="tspan1183-0">そうね</tspan></text>
    <text
       xml:space="preserve"
       style="font-style:normal;font-variant:normal;font-weight:normal;font-stretch:normal;line-height:0%;font-family:'Rounded M+ 1c';-inkscape-font-specification:'Rounded M+ 1c, Medium';text-align:center;letter-spacing:0px;word-spacing:0px;text-anchor:middle;fill:#000000;fill-opacity:1;stroke:none"
       x="931.8302"
       y="2422.0254"
       id="text4246-3-7-7-6-7-2-9-6-1-4-3"><tspan
         sodipodi:role="line"
         style="font-size:45px;line-height:1.20000005"
         x="931.8302"
         y="2422.0254"
         id="tspan1249">あっ！それなら</tspan><tspan
         sodipodi:role="line"
         style="font-size:45px;line-height:1.20000005"
         x="931.8302"
         y="2476.0254"
         id="tspan101">私の最新の発明を</tspan><tspan
         sodipodi:role="line"
         style="font-size:45px;line-height:1.20000005"
         x="931.8302"
         y="2530.0254"
         id="tspan103">見てみない？</tspan></text>
    <text
       xml:space="preserve"
       style="font-style:normal;font-variant:normal;font-weight:normal;font-stretch:normal;line-height:0%;font-family:'Rounded M+ 1c';-inkscape-font-specification:'Rounded M+ 1c, Medium';text-align:center;letter-spacing:0px;word-spacing:0px;text-anchor:middle;fill:#000000;fill-opacity:1;stroke:none"
       x="1429.6105"
       y="2501.0703"
       id="text4246-3-7-7-6-7-2-9-6-1-4-3-1"><tspan
         sodipodi:role="line"
         style="font-size:45px;line-height:1.20000005"
         x="1429.6105"
         y="2501.0703"
         id="tspan1249-3">...</tspan></text>
    <text
       xml:space="preserve"
       style="font-style:normal;font-variant:normal;font-weight:normal;font-stretch:normal;line-height:0%;font-family:'Rounded M+ 1c';-inkscape-font-specification:'Rounded M+ 1c, Medium';text-align:center;letter-spacing:0px;word-spacing:0px;text-anchor:middle;fill:#000000;fill-opacity:1;stroke:none"
       x="2014.7648"
       y="2425.7151"
       id="text4246-3-7-7-6-7-2-9-6-1-4-3-1-2"><tspan
         sodipodi:role="line"
         style="font-size:45px;line-height:1.20000005"
         x="2014.7648"
         y="2425.7151"
         id="tspan1298">下の階の</tspan><tspan
         sodipodi:role="line"
         style="font-size:45px;line-height:1.20000005"
         x="2014.7648"
         y="2479.7151"
         id="tspan94">工房にあるの</tspan></text>
    <text
       xml:space="preserve"
       style="font-style:normal;font-variant:normal;font-weight:normal;font-stretch:normal;line-height:0%;font-family:'Rounded M+ 1c';-inkscape-font-specification:'Rounded M+ 1c, Medium';text-align:center;letter-spacing:0px;word-spacing:0px;text-anchor:middle;fill:#000000;fill-opacity:1;stroke:none"
       x="2133.5588"
       y="2553.5225"
       id="text4246-3-7-7-6-7-2-9-6-1-4-3-1-2-6"><tspan
         sodipodi:role="line"
         style="font-size:45px;line-height:1.20000005"
         x="2133.5588"
         y="2553.5225"
         id="tspan1298-5">ついてきて</tspan></text>
  </g>
</svg>
