<?xml version="1.0" encoding="UTF-8" standalone="no"?>
<!-- Created With Inkscape (http://www.inkscape.org/) -->

<svg
   xmlns:dc="http://purl.org/dc/elements/1.1/"
   xmlns:cc="http://creativecommons.org/ns#"
   xmlns:rdf="http://www.w3.org/1999/02/22-rdf-syntax-ns#"
   xmlns:svg="http://www.w3.org/2000/svg"
   xmlns="http://www.w3.org/2000/svg"
   xmlns:xlink="http://www.w3.org/1999/xlink"
   xmlns:sodipodi="http://sodipodi.sourceforge.net/DTD/sodipodi-0.dtd"
   xmlns:inkscape="http://www.inkscape.org/namespaces/inkscape"
   id="svg2"
   version="1.1"
   inkscape:version="0.92.1 r15371"
   width="2646.3999"
   height="3736.5334"
   sodipodi:docname="E08P03.svg"
   viewBox="0 0 2481 3503">
  <metadata
     id="metadata8">
    <rdf:RDF>
      <cc:Work
         rdf:about="">
        <dc:format>image/svg+xml</dc:format>
        <dc:type
           rdf:resource="http://purl.org/dc/dcmitype/StillImage" />
        <dc:title />
      </cc:Work>
    </rdf:RDF>
  </metadata>
  <defs
     id="defs6" />
  <sodipodi:namedview
     pagecolor="#ffffff"
     bordercolor="#666666"
     borderopacity="1"
     objecttolerance="10"
     gridtolerance="10"
     guidetolerance="10"
     inkscape:pageopacity="0"
     inkscape:pageshadow="2"
     inkscape:window-width="1218"
     inkscape:window-height="777"
     id="namedview4"
     showgrid="false"
     inkscape:zoom="0.48912285"
     inkscape:cx="1503.7138"
     inkscape:cy="159.01586"
     inkscape:window-x="54"
     inkscape:window-y="-8"
     inkscape:window-maximized="1"
     inkscape:current-layer="layer3" />
  <g
     inkscape:groupmode="layer"
     id="layer2"
     inkscape:label="artwork"
     sodipodi:insensitive="true">
    <image
       sodipodi:absref="../gfx_Pepper-and-Carrot_by-David-Revoy_E08P03.png"
       xlink:href="../gfx_Pepper-and-Carrot_by-David-Revoy_E08P03.png"
       y="0"
       x="0"
       id="image10"
       height="3503"
       width="2481" />
  </g>
  <g
     inkscape:groupmode="layer"
     id="layer3"
     inkscape:label="speechbubbles">
    <path
       style="color:#000000;display:inline;overflow:visible;visibility:visible;fill:#ffffff;fill-opacity:1;fill-rule:nonzero;stroke:none;stroke-width:1px;marker:none;enable-background:accumulate"
       d="m 1467.6646,1583.8686 c -88.3305,-1.3222 -184.1466,-30.2149 -231.598,-89.0042 -47.4512,-58.7892 -42.3871,-81.1544 -43.0636,-91.0814 13.7547,-5.531 40.3424,-6.2989 47.0978,-3.8471 -11.4268,-16.3542 -28.3674,-78.5916 -20.1052,-111.4771 8.2622,-32.8854 35.4059,-28.2952 35.4059,-28.2952 0,0 -14.9824,116.4211 21.5009,168.3881 -18.0633,-4.4515 -52.3739,-13.3265 -55.7166,-6.3316 -3.3425,6.9949 26.3386,57.473 48.3442,78.8968 25.2532,24.5856 87.1776,64.3351 198.1346,82.7517 z"
       id="path3923"
       inkscape:connector-curvature="0"
       sodipodi:nodetypes="csccscccsc" />
    <path
       style="color:#000000;display:inline;overflow:visible;visibility:visible;fill:#ffffff;fill-opacity:1;fill-rule:nonzero;stroke:none;stroke-width:0.81508964px;marker:none;enable-background:accumulate"
       d="m 977.99265,415.7064 c -6.51053,-48.28628 70.37665,-66.94778 162.64465,-65.60801 92.2676,1.33977 177.6109,17.63281 174.7781,60.12308 -2.8328,42.49026 -85.9283,58.80637 -165.926,56.87326 -79.9981,-1.93312 -164.98624,-3.10207 -171.49675,-51.38833 z"
       id="path3565"
       inkscape:connector-curvature="0"
       sodipodi:nodetypes="zszsz" />
    <path
       style="color:#000000;display:inline;overflow:visible;visibility:visible;fill:#ffffff;fill-opacity:1;fill-rule:nonzero;stroke:none;stroke-width:1px;marker:none;enable-background:accumulate"
       d="m 1158.7934,397.40013 c 5.7117,86.91786 68.8277,109.43702 88.3216,119.33143 -44.6303,-5.79913 -74.2922,-11.16768 -120.7776,-82.41875 -31.0276,-47.55784 32.456,-36.91268 32.456,-36.91268 z"
       id="path4480"
       inkscape:connector-curvature="0"
       sodipodi:nodetypes="ccsc"
       inkscape:transform-center-x="21.975756"
       inkscape:transform-center-y="53.063166" />
    <flowRoot
       xml:space="preserve"
       id="flowRoot2987-4-9-3"
       style="font-style:normal;font-variant:normal;font-weight:normal;font-stretch:normal;line-height:0.01%;font-family:Lavi;-inkscape-font-specification:Lavi;text-align:center;letter-spacing:0px;word-spacing:0px;text-anchor:middle;fill:#000000;fill-opacity:1;stroke:none"
       transform="translate(712.30388,112.8275)"><flowRegion
         id="flowRegion2989-5-4-5"><rect
           id="rect2991-7-9-6"
           width="602.40173"
           height="310.73996"
           x="120.55251"
           y="265.53046"
           style="font-style:normal;font-variant:normal;font-weight:normal;font-stretch:normal;font-family:Lavi;-inkscape-font-specification:Lavi;text-align:center;text-anchor:middle" /></flowRegion><flowPara
         style="font-size:48px;line-height:1.25;text-align:center;text-anchor:middle"
         id="flowPara3030-8">.i ca'e cfari</flowPara></flowRoot>    <path
       style="fill:#ffffff;stroke:none"
       d="m 893.18204,1249.4794 c -1.31625,-92.8012 48.93756,-123.2246 328.94306,-122.581 247.802,0.5694 304.9078,25.9815 303.803,115.0131 -1.4771,119.0323 -97.3249,131.0323 -297.3708,132.9095 -200.046,1.8773 -332.34479,4.0749 -335.37526,-125.3416 z"
       id="path3270"
       inkscape:connector-curvature="0"
       sodipodi:nodetypes="csssc" />
    <flowRoot
       xml:space="preserve"
       id="flowRoot2987-4-9-3-1"
       style="font-style:normal;font-variant:normal;font-weight:normal;font-stretch:normal;line-height:0.01%;font-family:Lavi;-inkscape-font-specification:Lavi;text-align:center;letter-spacing:0px;word-spacing:0px;text-anchor:middle;fill:#000000;fill-opacity:1;stroke:none"
       transform="translate(787.16728,892.37923)"><flowRegion
         id="flowRegion2989-5-4-5-6"><rect
           id="rect2991-7-9-6-4"
           width="602.40173"
           height="310.73996"
           x="120.55251"
           y="265.53046"
           style="font-style:normal;font-variant:normal;font-weight:normal;font-stretch:normal;font-family:Lavi;-inkscape-font-specification:Lavi;text-align:center;text-anchor:middle" /></flowRegion><flowPara
         style="font-size:48px;line-height:1.25;text-align:center;text-anchor:middle"
         id="flowPara3030-8-1">.i ro da bredi .i sa'u ca</flowPara><flowPara
         style="font-size:48px;line-height:1.25;text-align:center;text-anchor:middle"
         id="flowPara3065">sarcu fa le nu mi'a denpa le nu le te makfa cu klama</flowPara></flowRoot>  </g>
  <g
     inkscape:groupmode="layer"
     id="layer1"
     inkscape:label="txt" />
</svg>
