<?xml version="1.0" encoding="UTF-8" standalone="no"?>
<!-- Created with Inkscape (http://www.inkscape.org/) -->

<svg
   xmlns:dc="http://purl.org/dc/elements/1.1/"
   xmlns:cc="http://creativecommons.org/ns#"
   xmlns:rdf="http://www.w3.org/1999/02/22-rdf-syntax-ns#"
   xmlns:svg="http://www.w3.org/2000/svg"
   xmlns="http://www.w3.org/2000/svg"
   xmlns:xlink="http://www.w3.org/1999/xlink"
   xmlns:sodipodi="http://sodipodi.sourceforge.net/DTD/sodipodi-0.dtd"
   xmlns:inkscape="http://www.inkscape.org/namespaces/inkscape"
   id="svg2"
   version="1.1"
   inkscape:version="0.91 r13725"
   width="2481"
   height="3503"
   sodipodi:docname="E24P04.svg">
  <metadata
     id="metadata8">
    <rdf:RDF>
      <cc:Work
         rdf:about="">
        <dc:format>image/svg+xml</dc:format>
        <dc:type
           rdf:resource="http://purl.org/dc/dcmitype/StillImage" />
        <dc:title />
      </cc:Work>
    </rdf:RDF>
  </metadata>
  <defs
     id="defs6">
    <filter
       style="color-interpolation-filters:sRGB"
       id="filter4375-4-1-1-1-9-5-8"
       inkscape:label="Drop Shadow">
      <feFlood
         id="feFlood4377-7-9-0-8-1-7-3"
         flood-opacity="1"
         flood-color="rgb(200,55,55)"
         result="flood" />
      <feComposite
         id="feComposite4379-3-8-8-2-77-4-1"
         in2="SourceGraphic"
         in="flood"
         operator="in"
         result="composite1" />
      <feMorphology
         id="feMorphology4393-1-0-49-8-9-3-0"
         operator="dilate"
         radius="6.2000000000000002"
         result="result3" />
      <feComposite
         id="feComposite4385-9-5-7-0-8-8-7"
         in2="result3"
         in="SourceGraphic"
         operator="over"
         result="fbSourceGraphic" />
      <feColorMatrix
         result="fbSourceGraphicAlpha"
         in="fbSourceGraphic"
         values="0 0 0 -1 0 0 0 0 -1 0 0 0 0 -1 0 0 0 0 1 0"
         id="feColorMatrix4544" />
      <feTurbulence
         id="feTurbulence4546"
         type="fractalNoise"
         numOctaves="3"
         seed="37"
         baseFrequency="0.129 0.0050000000000000001"
         result="turbulence" />
      <feDisplacementMap
         id="feDisplacementMap4548"
         in2="turbulence"
         in="fbSourceGraphic"
         scale="6.6"
         yChannelSelector="G"
         xChannelSelector="R"
         result="fbSourceGraphic" />
      <feColorMatrix
         result="fbSourceGraphicAlpha"
         in="fbSourceGraphic"
         values="0 0 0 -1 0 0 0 0 -1 0 0 0 0 -1 0 0 0 0 1 0"
         id="feColorMatrix4670" />
      <feFlood
         id="feFlood4672"
         flood-opacity="1"
         flood-color="rgb(80,22,22)"
         result="flood"
         in="fbSourceGraphic" />
      <feComposite
         id="feComposite4674"
         in2="fbSourceGraphic"
         in="flood"
         operator="in"
         result="composite1" />
      <feGaussianBlur
         id="feGaussianBlur4676"
         in="composite1"
         stdDeviation="0"
         result="blur" />
      <feOffset
         id="feOffset4678"
         dx="6"
         dy="6"
         result="offset" />
      <feComposite
         id="feComposite4680"
         in2="offset"
         in="fbSourceGraphic"
         operator="over"
         result="composite2" />
    </filter>
    <filter
       style="color-interpolation-filters:sRGB"
       id="filter4375-4-1-1-1-9-5-8-0"
       inkscape:label="Drop Shadow">
      <feFlood
         id="feFlood4377-7-9-0-8-1-7-3-9"
         flood-opacity="1"
         flood-color="rgb(200,55,55)"
         result="flood" />
      <feComposite
         id="feComposite4379-3-8-8-2-77-4-1-3"
         in2="SourceGraphic"
         in="flood"
         operator="in"
         result="composite1" />
      <feMorphology
         id="feMorphology4393-1-0-49-8-9-3-0-6"
         operator="dilate"
         radius="6.2000000000000002"
         result="result3" />
      <feComposite
         id="feComposite4385-9-5-7-0-8-8-7-0"
         in2="result3"
         in="SourceGraphic"
         operator="over"
         result="fbSourceGraphic" />
      <feColorMatrix
         result="fbSourceGraphicAlpha"
         in="fbSourceGraphic"
         values="0 0 0 -1 0 0 0 0 -1 0 0 0 0 -1 0 0 0 0 1 0"
         id="feColorMatrix4544-6" />
      <feTurbulence
         id="feTurbulence4546-2"
         type="fractalNoise"
         numOctaves="3"
         seed="37"
         baseFrequency="0.129 0.0050000000000000001"
         result="turbulence" />
      <feDisplacementMap
         id="feDisplacementMap4548-6"
         in2="turbulence"
         in="fbSourceGraphic"
         scale="6.6"
         yChannelSelector="G"
         xChannelSelector="R"
         result="fbSourceGraphic" />
      <feColorMatrix
         result="fbSourceGraphicAlpha"
         in="fbSourceGraphic"
         values="0 0 0 -1 0 0 0 0 -1 0 0 0 0 -1 0 0 0 0 1 0"
         id="feColorMatrix4670-1" />
      <feFlood
         id="feFlood4672-8"
         flood-opacity="1"
         flood-color="rgb(80,22,22)"
         result="flood"
         in="fbSourceGraphic" />
      <feComposite
         id="feComposite4674-7"
         in2="fbSourceGraphic"
         in="flood"
         operator="in"
         result="composite1" />
      <feGaussianBlur
         id="feGaussianBlur4676-9"
         in="composite1"
         stdDeviation="0"
         result="blur" />
      <feOffset
         id="feOffset4678-2"
         dx="6"
         dy="6"
         result="offset" />
      <feComposite
         id="feComposite4680-0"
         in2="offset"
         in="fbSourceGraphic"
         operator="over"
         result="composite2" />
    </filter>
    <filter
       style="color-interpolation-filters:sRGB"
       id="filter4375-4-1-1-1-9-5-8-0-9"
       inkscape:label="Drop Shadow">
      <feFlood
         id="feFlood4377-7-9-0-8-1-7-3-9-2"
         flood-opacity="1"
         flood-color="rgb(200,55,55)"
         result="flood" />
      <feComposite
         id="feComposite4379-3-8-8-2-77-4-1-3-2"
         in2="SourceGraphic"
         in="flood"
         operator="in"
         result="composite1" />
      <feMorphology
         id="feMorphology4393-1-0-49-8-9-3-0-6-8"
         operator="dilate"
         radius="6.2000000000000002"
         result="result3" />
      <feComposite
         id="feComposite4385-9-5-7-0-8-8-7-0-9"
         in2="result3"
         in="SourceGraphic"
         operator="over"
         result="fbSourceGraphic" />
      <feColorMatrix
         result="fbSourceGraphicAlpha"
         in="fbSourceGraphic"
         values="0 0 0 -1 0 0 0 0 -1 0 0 0 0 -1 0 0 0 0 1 0"
         id="feColorMatrix4544-6-7" />
      <feTurbulence
         id="feTurbulence4546-2-3"
         type="fractalNoise"
         numOctaves="3"
         seed="37"
         baseFrequency="0.129 0.0050000000000000001"
         result="turbulence" />
      <feDisplacementMap
         id="feDisplacementMap4548-6-6"
         in2="turbulence"
         in="fbSourceGraphic"
         scale="6.6"
         yChannelSelector="G"
         xChannelSelector="R"
         result="fbSourceGraphic" />
      <feColorMatrix
         result="fbSourceGraphicAlpha"
         in="fbSourceGraphic"
         values="0 0 0 -1 0 0 0 0 -1 0 0 0 0 -1 0 0 0 0 1 0"
         id="feColorMatrix4670-1-1" />
      <feFlood
         id="feFlood4672-8-2"
         flood-opacity="1"
         flood-color="rgb(80,22,22)"
         result="flood"
         in="fbSourceGraphic" />
      <feComposite
         id="feComposite4674-7-9"
         in2="fbSourceGraphic"
         in="flood"
         operator="in"
         result="composite1" />
      <feGaussianBlur
         id="feGaussianBlur4676-9-3"
         in="composite1"
         stdDeviation="0"
         result="blur" />
      <feOffset
         id="feOffset4678-2-1"
         dx="6"
         dy="6"
         result="offset" />
      <feComposite
         id="feComposite4680-0-9"
         in2="offset"
         in="fbSourceGraphic"
         operator="over"
         result="composite2" />
    </filter>
  </defs>
  <sodipodi:namedview
     pagecolor="#ffffff"
     bordercolor="#666666"
     borderopacity="1"
     objecttolerance="10"
     gridtolerance="10"
     guidetolerance="10"
     inkscape:pageopacity="0"
     inkscape:pageshadow="2"
     inkscape:window-width="960"
     inkscape:window-height="1017"
     id="namedview4"
     showgrid="false"
     inkscape:zoom="0.40000002"
     inkscape:cx="1234.8721"
     inkscape:cy="2145.8787"
     inkscape:window-x="0"
     inkscape:window-y="30"
     inkscape:window-maximized="0"
     inkscape:current-layer="layer1"
     inkscape:snap-global="false" />
  <g
     inkscape:groupmode="layer"
     id="layer2"
     inkscape:label="artwork"
     sodipodi:insensitive="true">
    <image
       sodipodi:absref="/home/nightlock/peppercarrot/webcomics/ep24_The-Unity-Tree/lang/kr/../gfx_Pepper-and-Carrot_by-David-Revoy_E24P04.png"
       xlink:href="../gfx_Pepper-and-Carrot_by-David-Revoy_E24P04.png"
       width="2481"
       height="3503"
       id="image10"
       x="0"
       y="0" />
  </g>
  <g
     inkscape:groupmode="layer"
     id="layer3"
     inkscape:label="speechbubbles"
     style="display:inline">
    <path
       style="color:#000000;display:inline;overflow:visible;visibility:visible;fill:#ffffff;fill-opacity:1;fill-rule:nonzero;stroke:none;stroke-width:1px;marker:none;enable-background:accumulate"
       d="m 265.25234,182.72729 c -6.67187,16.93993 -44.30216,18.36041 -58.15491,14.91707 27.92393,18.95043 26.95044,30.72464 -10.96241,32.5528 63.5805,34.15363 11.62337,28.98539 1.37519,37.64577 49.92246,11.77009 27.58664,26.41828 18.69871,41.00027 57.38092,0.50087 38.60276,23.87533 41.02127,42.49159 4.8645,-8.73557 27.97449,-35.33054 29.36501,-5.71884 37.95414,-28.25116 83.66894,-46.5 87.29883,2.93965 15.29236,-24.87174 30.53883,-35.38355 29.36502,-5.71884 37.88968,-38.58269 71.93881,-24.69473 106.18972,-13.78981 8.99583,-11.64517 10.04402,-29.53552 39.14763,-25.34301 -4.08067,-11.54246 5.74592,-19.4767 27.93765,-24.18838 -29.48928,-6.97246 -34.92405,-14.1644 19.83091,-21.90403 -41.66531,-0.74864 -80.51852,-2.28244 -31.63602,-28.67684 -15.33579,-0.63867 -51.72159,21.38554 -34.75709,-43.0688 -26.37076,20.63409 -54.506,32.02265 -89.79012,-11.2005 -16.69824,21.59342 -45.66095,32.27872 -58.26116,5.30681 -4.52877,11.4986 -23.30748,15.82303 -39.2492,16.34747 -6.16469,-4.56747 -12.52285,-10.77125 -19.15788,-18.89919 -10.84442,17.06653 -27.06647,28.5925 -58.26115,5.30681 z"
       id="path3549-3-7"
       inkscape:connector-curvature="0"
       sodipodi:nodetypes="cccccccccccccccccccc" />
    <path
       style="fill:#ffffff;fill-opacity:1;stroke:none;stroke-width:1"
       d="M 187.93717,483.31933 C 181.14573,340.6295 251.05816,267.73321 439.86035,274.21912 628.66253,280.7049 644.40956,337.52641 672.53071,385.2047 698.57493,471.69365 666.61573,570.67343 549.80288,625.80364 432.99002,680.93363 291.3955,636.73877 248.25429,596.20185 215.75999,565.66912 189.29545,520.61318 187.93717,483.31933 Z"
       id="path3238"
       inkscape:connector-curvature="0"
       sodipodi:nodetypes="csccsc" />
    <path
       style="color:#000000;display:inline;overflow:visible;visibility:visible;fill:#ffffff;fill-opacity:1;fill-rule:nonzero;stroke:none;stroke-width:0.99999994px;marker:none;enable-background:accumulate"
       d="M 596.21217,741.80339 C 501.79196,722.52725 437.83691,642.18346 443.09216,578.88932 l -19.71491,23.41057 c -31.12393,-38.05864 -21.85913,123.01364 172.83492,139.5035 z"
       id="path3072-1"
       inkscape:connector-curvature="0"
       sodipodi:nodetypes="cccc" />
    <path
       style="fill:#ffffff;fill-opacity:1;stroke:none;stroke-width:0.99999994"
       d="m 2318.3619,1747.9316 c 2.3138,68.9684 -41.3001,105.8216 -212.7057,107.4166 -107.7686,1.0027 -180.1756,-38.8541 -197.6094,-86.5465 -17.4337,-47.6925 -28.8447,-111.9626 76.7553,-149.5261 105.6001,-37.5633 252.8973,-5.7154 292.3493,20.8181 29.7156,19.9853 38.8968,38.8697 41.2105,107.8379 z"
       id="path3238-4"
       inkscape:connector-curvature="0"
       sodipodi:nodetypes="zszcsz" />
    <path
       style="color:#000000;display:inline;overflow:visible;visibility:visible;fill:#ffffff;fill-opacity:1;fill-rule:nonzero;stroke:none;stroke-width:0.99999994px;marker:none;enable-background:accumulate"
       d="m 1974.4716,1474.8738 c 77.6678,42.426 102.483,122.4068 71.5737,169.065 l 27.5491,-12.0352 c 12.5064,38.13 70.6344,-87.2598 -99.1228,-157.0298 z"
       id="path3072-1-7"
       inkscape:connector-curvature="0"
       sodipodi:nodetypes="cccc" />
    <path
       style="color:#000000;display:inline;overflow:visible;visibility:visible;fill:#ffffff;fill-opacity:1;fill-rule:nonzero;stroke:none;stroke-width:0.99999988px;marker:none;enable-background:accumulate"
       d="m 48.993156,2091.4839 c 8.179721,-72.6882 76.787474,-123.3761 249.482194,-102.7661 92.5046,11.0398 201.29374,23.3994 190.38748,129.9254 -10.90636,106.5258 -178.25133,91.1194 -209.60705,92.3726 -31.35573,1.2534 -186.773425,3.5971 -213.874978,-33.8656 -16.964948,-23.4506 -17.750916,-63.1078 -16.387646,-85.6663 z"
       id="path4546"
       inkscape:connector-curvature="0"
       sodipodi:nodetypes="cssssc" />
    <path
       style="fill:#ffffff;fill-opacity:1;fill-rule:evenodd;stroke:none;stroke-width:1px;stroke-linecap:butt;stroke-linejoin:miter;stroke-opacity:1"
       d="m 802.16108,3297.9669 c -8.30805,-8.3218 2.00641,-18.7638 10.2302,-22.4599 9.21954,-6.8744 21.06487,-6.8194 32.13543,-6.3027 11.01274,1.352 19.08607,-5.27 26.23697,-12.1154 11.31831,-8.8817 27.7524,-11.9296 41.10856,-5.4527 9.92641,4.415 21.40504,9.8428 32.28533,4.778 12.97519,-5.1258 29.49108,-9.611 42.01538,-1.1515 8.90933,9.8244 23.70125,5.6471 34.60055,1.7701 13.9993,-4.5481 29.3209,-7.3093 43.7806,-2.8986 9.5874,2.5816 21.4775,3.8416 26.2074,13.568 5.709,10.6522 11.8508,23.368 25.2211,26.5604 9.4639,2.7568 23.0778,4.4272 25.4603,15.516 -0.2773,9.8954 -5.2882,19.6529 -9.8455,28.2714 -13.4738,11.1665 -34.1398,2.5793 -51.251,5.6713 -11.1882,1.9912 -21.714,6.3681 -30.9791,12.6071 -15.1122,7.2786 -32.5126,1.3595 -48.232,6.1031 -18.53807,4.4331 -38.43222,3.7873 -55.99666,11.7691 -20.00077,7.417 -43.53182,5.0132 -61.08157,-6.9075 -7.53207,-5.9244 -17.07327,-8.1452 -26.66438,-7.0123 -12.81142,0.3998 -19.38422,2.3025 -28.84715,-7.8758 -7.58587,-7.2593 -5.54522,-4.964 -10.59824,-13.0375 -5.28281,-7.9711 -17.55245,-9.7059 -21.24066,-19.1363 -2.82508,-7.794 6.97177,-14.1129 5.45444,-22.2643 z"
       id="path4367"
       inkscape:connector-curvature="0"
       sodipodi:nodetypes="ccccccccccccccccccccccc" />
    <path
       style="fill:#ffffff;fill-rule:evenodd;stroke:none;stroke-width:1px;stroke-linecap:butt;stroke-linejoin:miter;stroke-opacity:1"
       d="m 1605.781,3246.9359 c -12.1699,11.4769 -25.5961,24.3584 -44.149,28 -15.0876,1.9565 -26.6269,-9.6392 -31.8499,-20.2344 -1.6743,-3.1554 -3.121,-6.3912 -4.5318,-9.6347 -4.3835,12.0165 -10.4423,26.6343 -25.943,31.1093 -5.8489,1.0411 -12.17,-2.367 -16.2972,-4.0683 -12.9761,32.1359 -20.5531,22.5138 -37.6411,7.2398 9.7459,26.7848 -8.7248,38.1323 -22.4919,36.7289 -1.5723,0.1445 -5.6942,-1.4271 -3.1543,0.8223 27.2929,6.283 26.4234,19.5504 4.1608,31.2285 11.7003,-3.697 28.1689,-3.7176 35.2871,6.4297 3.0388,4.2736 3.893,9.3395 4.3416,14.2246 9.228,-7.8534 25.3137,-13.4118 36.9616,-5.9141 8.2073,4.4462 12.6326,13.5829 16.5987,19.5371 7.5025,-10.2823 17.9903,-22.6899 33.8933,-22.6679 6.8044,0.7087 12.0382,5.1892 15.453,9.8965 7.2131,-10.2342 23.7533,-17.3179 37.029,-10.8789 6.8467,2.7743 12.2215,7.4356 17.735,11.7148 0.3084,-11.3584 11.0988,-23.4604 25.6323,-22.4121 2.9443,-0.216 7.3525,0.6738 9.1446,0.5058 -9.9464,-9.5522 -12.8035,-25.0864 -2.5464,-35.2578 0.8637,-1.9073 6.3619,-5.1257 4.52,-5.8379 -18.0864,1.5435 -36.2989,-5.929 -23.227,-22.4257 -24.643,5.429 -36.8577,-12.8191 -26.8102,-40.1485 -0.7051,0.681 -1.4101,1.362 -2.1152,2.043 z"
       id="path1331"
       inkscape:connector-curvature="0"
       sodipodi:nodetypes="ccccccccccccccccccccccccc" />
    <path
       style="display:inline;fill:#ffffff;fill-rule:evenodd;stroke:none;stroke-width:1px;stroke-linecap:butt;stroke-linejoin:miter;stroke-opacity:1"
       d="m 1898.8851,3219.6412 c 50.5554,19.8456 79.3523,11.7752 78.4846,-34.3555 24.1197,49.8498 40.8577,60.9989 50.7843,36.4376 31.9328,21.1114 51.8776,15.1895 67.7123,0 5.902,19.5348 18.559,11.6518 29.5129,10.6814 3.6078,4.4196 -8.7834,15.3999 41.2772,0.7704 3.2428,5.8498 7.6108,10.8875 36.9339,-2.0822 7.5967,23.7438 31.9703,-1.3158 56.94,-28.109 -15.5567,32.9398 -9.106,37.5923 10.7724,24.9858 -9.0883,13.5648 -14.5239,24.0657 20.0059,1.0411 -11.8213,25.038 19.1918,7.852 69.2512,-28.1089 -25.0405,26.5821 -91.4422,71.3841 -47.7063,67.6696 -6.0992,7.8365 -27.8549,14.6642 36.9339,27.0678 -12.0952,5.3178 -49.0215,-2.453 -18.2183,20.0623 4.127,2.6318 -9.6893,4.2389 16.6794,11.1699 -15.5657,-0.4715 -25.1117,1.2131 -10.7724,11.4518 -28.4131,-0.5536 -17.7821,10.2126 3.0778,23.9447 -41.1462,-17.6143 -43.4105,-11.2125 -44.6287,-4.1643 -51.5681,-24.0142 -54.5952,-16.4535 -61.5564,-11.4518 -25.1357,0.1874 -50.2714,-2.8367 -75.4071,23.9446 -6.5826,-16.6574 -19.7801,-29.4791 -75.4067,-17.6981 24.4244,-21.191 -10.3225,-7.6901 -36.9339,1.041 14.5729,-26.4729 -22.4114,-9.0988 -69.2514,16.6571 26.2303,-29.2334 -3.5611,-18.6736 -47.7063,2.0822 16.6793,-28.7189 -10.4847,-42.6077 -75.407,-43.725 31.0738,-10.3592 49.1942,-23.3961 16.9281,-46.8484 36.3732,6.9057 47.2228,0.4914 21.5449,-24.9855 39.6734,20.9112 21.6353,-9.4197 6.1557,-37.4786 z"
       id="path4508"
       inkscape:connector-curvature="0"
       sodipodi:nodetypes="cccccccccccccccccccccccccccc" />
    <path
       style="fill:#ffffff;stroke:none;stroke-width:1"
       d="m 1864.5318,2287.2927 c -1.3098,-30.402 22.7422,-103.1204 204.0495,-109.7658 184.4587,-6.7609 268.3119,49.2394 272.2682,103.3145 6.2589,85.5453 -99.5672,81.6161 -236.6967,84.9466 -141.3657,3.4335 -231.8898,-1.599 -239.621,-78.4953 z"
       id="path3280"
       inkscape:connector-curvature="0"
       sodipodi:nodetypes="csssc" />
    <path
       style="fill:#ffffff;stroke:none;stroke-width:1"
       d="m 272.46442,2324.1509 c -54.38249,-17.8219 -66.33148,-52.9511 -74.01784,-123.2551 -4.65716,-42.5973 9.48134,-57.6606 9.48134,-57.6606 l -35.68519,18.4405 -0.11203,17.0646 c 0,0 -15.3368,56.7167 16.55537,100.1244 15.1088,20.5643 40.81747,38.1415 83.77835,45.2862 z"
       id="path3063"
       inkscape:connector-curvature="0"
       sodipodi:nodetypes="cscccsc" />
  </g>
  <g
     inkscape:groupmode="layer"
     id="layer1"
     inkscape:label="txt"
     style="display:inline">
    <text
       xml:space="preserve"
       style="font-style:normal;font-variant:normal;font-weight:normal;font-stretch:normal;font-size:70px;line-height:0%;font-family:'Nanum Pen Script OTF';-inkscape-font-specification:'Nanum Pen Script OTF';text-align:center;letter-spacing:0px;word-spacing:0px;text-anchor:middle;fill:#000000;fill-opacity:1;stroke:none;stroke-width:1;"
       x="381.57074"
       y="275.12958"
       id="text4246"
       sodipodi:linespacing="0%"><tspan
         sodipodi:role="line"
         style="font-size:70px;line-height:1.25;stroke-width:1;-inkscape-font-specification:'Nanum Pen Script OTF';font-family:'Nanum Pen Script OTF';font-weight:normal;font-style:normal;font-stretch:normal;font-variant:normal;"
         x="381.57074"
         y="275.12958"
         id="tspan4252">정말 멋지다!</tspan></text>
    <text
       xml:space="preserve"
       style="font-style:normal;font-variant:normal;font-weight:normal;font-stretch:normal;line-height:0%;font-family:Lavi;-inkscape-font-specification:Lavi;text-align:center;letter-spacing:0px;word-spacing:0px;text-anchor:middle;fill:#000000;fill-opacity:1;stroke:none"
       x="432.78906"
       y="372.84122"
       id="text4246-3"
       sodipodi:linespacing="100%"><tspan
         sodipodi:role="line"
         style="font-size:60px;line-height:100%;-inkscape-font-specification:'Nanum Pen Script OTF';font-family:'Nanum Pen Script OTF';font-weight:normal;font-style:normal;font-stretch:normal;font-variant:normal"
         x="432.78906"
         y="372.84122"
         id="tspan855">딱 내가 필요한</tspan><tspan
         sodipodi:role="line"
         style="font-size:60px;line-height:100%;-inkscape-font-specification:'Nanum Pen Script OTF';font-family:'Nanum Pen Script OTF';font-weight:normal;font-style:normal;font-stretch:normal;font-variant:normal"
         x="432.78906"
         y="432.37469"
         id="tspan3464">서재 부분만 있는</tspan><tspan
         sodipodi:role="line"
         style="font-size:60px;line-height:100%;-inkscape-font-specification:'Nanum Pen Script OTF';font-family:'Nanum Pen Script OTF';font-weight:normal;font-style:normal;font-stretch:normal;font-variant:normal"
         x="432.78906"
         y="491.9082"
         id="tspan3466">창고 같네. 거기다</tspan><tspan
         sodipodi:role="line"
         style="font-size:60px;line-height:100%;-inkscape-font-specification:'Nanum Pen Script OTF';font-family:'Nanum Pen Script OTF';font-weight:normal;font-style:normal;font-stretch:normal;font-variant:normal"
         x="432.78906"
         y="551.44171"
         id="tspan3458">현실 세계와도 완전히</tspan><tspan
         sodipodi:role="line"
         style="font-size:60px;line-height:100%;-inkscape-font-specification:'Nanum Pen Script OTF';font-family:'Nanum Pen Script OTF';font-weight:normal;font-style:normal;font-stretch:normal;font-variant:normal"
         x="432.78906"
         y="610.97516"
         id="tspan3460">분리되어 있고.</tspan></text>
    <text
       xml:space="preserve"
       style="font-style:normal;font-variant:normal;font-weight:normal;font-stretch:normal;line-height:100%;font-family:'Nanum Pen Script OTF';-inkscape-font-specification:'Nanum Pen Script OTF';text-align:center;letter-spacing:0px;word-spacing:0px;text-anchor:middle;fill:#000000;fill-opacity:1;stroke:none;font-size:60px;"
       x="2111.3555"
       y="1687.1895"
       id="text4246-3-7"
       sodipodi:linespacing="100%"><tspan
         sodipodi:role="line"
         style="font-size:60px;line-height:100%;-inkscape-font-specification:'Nanum Pen Script OTF';font-family:'Nanum Pen Script OTF';font-weight:normal;font-style:normal;font-stretch:normal;font-variant:normal;"
         x="2111.3555"
         y="1687.1895"
         id="tspan907">주문 연습하기에</tspan><tspan
         sodipodi:role="line"
         style="font-size:60px;line-height:100%;-inkscape-font-specification:'Nanum Pen Script OTF';font-family:'Nanum Pen Script OTF';font-weight:normal;font-style:normal;font-stretch:normal;font-variant:normal;"
         x="2111.3555"
         y="1746.7229"
         id="tspan3475">딱 좋은</tspan><tspan
         sodipodi:role="line"
         style="font-size:60px;line-height:100%;-inkscape-font-specification:'Nanum Pen Script OTF';font-family:'Nanum Pen Script OTF';font-weight:normal;font-style:normal;font-stretch:normal;font-variant:normal;"
         x="2111.3555"
         y="1806.2565"
         id="tspan3477">연습장 같다.</tspan></text>
    <text
       xml:space="preserve"
       style="font-style:normal;font-variant:normal;font-weight:normal;font-stretch:normal;font-size:19.94460678px;line-height:100%;font-family:'Nanum Pen Script OTF';-inkscape-font-specification:'Nanum Pen Script OTF';text-align:center;letter-spacing:0px;word-spacing:0px;text-anchor:middle;fill:#000000;fill-opacity:1;stroke:none"
       x="276.26492"
       y="2089.708"
       id="text4246-3-7-9"
       sodipodi:linespacing="100%"><tspan
         sodipodi:role="line"
         style="font-style:normal;font-variant:normal;font-weight:normal;font-stretch:normal;font-size:74.79227448px;line-height:100%;font-family:'Nanum Pen Script OTF';-inkscape-font-specification:'Nanum Pen Script OTF'"
         x="276.26492"
         y="2089.708"
         id="tspan940">이제 걸작품을</tspan><tspan
         sodipodi:role="line"
         style="font-style:normal;font-variant:normal;font-weight:normal;font-stretch:normal;font-size:74.79227448px;line-height:100%;font-family:'Nanum Pen Script OTF';-inkscape-font-specification:'Nanum Pen Script OTF'"
         x="276.26492"
         y="2164.5002"
         id="tspan3443">만들어야지!</tspan></text>
    <text
       xml:space="preserve"
       style="font-style:normal;font-variant:normal;font-weight:normal;font-stretch:normal;font-size:70.00000103px;line-height:0.01%;font-family:'Nanum Pen Script OTF';-inkscape-font-specification:'Nanum Pen Script OTF';letter-spacing:0.0088361px;word-spacing:0px;display:inline;fill:#faedf6;fill-opacity:1;stroke:#fff3fb;stroke-width:0.69993973;stroke-miterlimit:4;stroke-dasharray:none;stroke-opacity:1;"
       x="1308.5319"
       y="3636.3977"
       id="text1105"
       transform="matrix(1.1211525,-0.41389973,-0.28840838,0.99841201,0,0)"
       sodipodi:linespacing="0.0099999997%"><tspan
         sodipodi:role="line"
         x="1308.5319"
         y="3636.3977"
         id="tspan1103"
         style="font-style:normal;font-variant:normal;font-weight:normal;font-stretch:normal;font-family:'Nanum Pen Script OTF';-inkscape-font-specification:'Nanum Pen Script OTF';fill:#faedf6;fill-opacity:1;stroke:#fff3fb;stroke-width:0.69993973;stroke-miterlimit:4;stroke-dasharray:none;stroke-opacity:1;font-size:70.00000103px;">쉬이잉</tspan></text>
    <text
       xml:space="preserve"
       style="font-style:normal;font-variant:normal;font-weight:normal;font-stretch:normal;line-height:100%;font-family:'Nanum Pen Script OTF';-inkscape-font-specification:'Nanum Pen Script OTF';letter-spacing:0px;word-spacing:0px;fill:#ffffff;fill-opacity:1;stroke:#c83761;stroke-width:0.28027242;stroke-miterlimit:4;stroke-dasharray:none;stroke-opacity:1;filter:url(#filter4375-4-1-1-1-9-5-8)"
       x="787.65729"
       y="1584.5073"
       id="text4580-6-0"
       transform="matrix(1.2449428,-0.2206897,-0.60966201,1.3222038,841.37841,262.86941)"
       sodipodi:linespacing="100%"><tspan
         sodipodi:role="line"
         id="tspan4582-1-1"
         x="787.65729"
         y="1584.5073"
         style="font-style:normal;font-variant:normal;font-weight:normal;font-stretch:normal;font-size:70px;line-height:100%;font-family:'Nanum Pen Script OTF';-inkscape-font-specification:'Nanum Pen Script OTF';fill:#ffffff;fill-opacity:1;stroke:#c83761;stroke-width:0.28027242;stroke-opacity:1"><tspan
           style="font-style:normal;font-variant:normal;font-weight:normal;font-stretch:normal;font-size:93.14950562px;line-height:100%;font-family:'Nanum Pen Script OTF';-inkscape-font-specification:'Nanum Pen Script OTF';fill:#ffffff;fill-opacity:1;stroke:#c83761;stroke-width:0.28027242;stroke-opacity:1"
           id="tspan4315-8">푸웅!</tspan><tspan
           style="font-style:normal;font-variant:normal;font-weight:normal;font-stretch:normal;font-size:114.73223114px;line-height:100%;font-family:'Nanum Pen Script OTF';-inkscape-font-specification:'Nanum Pen Script OTF';fill:#ffffff;fill-opacity:1;stroke:#c83761;stroke-width:0.28027242;stroke-opacity:1"
           id="tspan4313-2">!</tspan></tspan></text>
    <text
       xml:space="preserve"
       style="font-style:normal;font-variant:normal;font-weight:normal;font-stretch:normal;line-height:0%;font-family:'Nanum Pen Script OTF';-inkscape-font-specification:'Nanum Pen Script OTF';letter-spacing:0px;word-spacing:0px;fill:#ffffff;fill-opacity:1;stroke:#c83737;stroke-width:0.99236238;stroke-miterlimit:4;stroke-dasharray:none;stroke-opacity:1;filter:url(#filter4375-4-1-1-1-9-5-8-0)"
       x="787.65729"
       y="1584.5073"
       id="text4580-6-0-2"
       transform="matrix(1.0870873,-0.19270682,-0.53235844,1.1545517,1361.4721,483.01889)"
       sodipodi:linespacing="0%"><tspan
         sodipodi:role="line"
         id="tspan4582-1-1-3"
         x="787.65729"
         y="1584.5073"
         style="font-style:normal;font-variant:normal;font-weight:normal;font-stretch:normal;font-size:70px;line-height:1.25;font-family:'Nanum Pen Script OTF';-inkscape-font-specification:'Nanum Pen Script OTF';fill:#ffffff;fill-opacity:1;stroke:#c83737;stroke-opacity:1"><tspan
           style="font-style:normal;font-variant:normal;font-weight:normal;font-stretch:normal;font-size:93.14950562px;font-family:'Nanum Pen Script OTF';-inkscape-font-specification:'Nanum Pen Script OTF';fill:#ffffff;fill-opacity:1;stroke:#c83737;stroke-opacity:1"
           id="tspan4315-8-7">두와앙!</tspan><tspan
           style="font-style:normal;font-variant:normal;font-weight:normal;font-stretch:normal;font-size:114.73223114px;font-family:'Nanum Pen Script OTF';-inkscape-font-specification:'Nanum Pen Script OTF';fill:#ffffff;fill-opacity:1;stroke:#c83737;stroke-opacity:1"
           id="tspan4313-2-5">!</tspan></tspan></text>
    <text
       xml:space="preserve"
       style="font-style:normal;font-variant:normal;font-weight:normal;font-stretch:normal;line-height:0%;font-family:'Nanum Pen Script OTF';-inkscape-font-specification:'Nanum Pen Script OTF';letter-spacing:0px;word-spacing:0px;fill:#ffffff;fill-opacity:1;stroke:#c83737;stroke-width:0.99236238;stroke-miterlimit:4;stroke-dasharray:none;stroke-opacity:1;filter:url(#filter4375-4-1-1-1-9-5-8-0-9)"
       x="787.65729"
       y="1584.5073"
       id="text4580-6-0-2-4"
       transform="matrix(1.1911149,-0.21114769,-0.58330191,1.2650353,1945.3724,313.52943)"
       sodipodi:linespacing="0%"><tspan
         sodipodi:role="line"
         id="tspan4582-1-1-3-7"
         x="787.65729"
         y="1584.5073"
         style="font-style:normal;font-variant:normal;font-weight:normal;font-stretch:normal;font-size:70px;line-height:1.25;font-family:'Nanum Pen Script OTF';-inkscape-font-specification:'Nanum Pen Script OTF';fill:#ffffff;fill-opacity:1;stroke:#c83737;stroke-opacity:1"><tspan
           style="font-style:normal;font-variant:normal;font-weight:normal;font-stretch:normal;font-size:93.14950562px;font-family:'Nanum Pen Script OTF';-inkscape-font-specification:'Nanum Pen Script OTF';fill:#ffffff;fill-opacity:1;stroke:#c83737;stroke-opacity:1"
           id="tspan4315-8-7-8">치잉!</tspan><tspan
           style="font-style:normal;font-variant:normal;font-weight:normal;font-stretch:normal;font-size:114.73223114px;font-family:'Nanum Pen Script OTF';-inkscape-font-specification:'Nanum Pen Script OTF';fill:#ffffff;fill-opacity:1;stroke:#c83737;stroke-opacity:1"
           id="tspan4313-2-5-4">!</tspan></tspan></text>
    <text
       xml:space="preserve"
       style="font-style:normal;font-variant:normal;font-weight:normal;font-stretch:normal;font-size:70px;line-height:0%;font-family:'Nanum Pen Script OTF';-inkscape-font-specification:'Nanum Pen Script OTF';text-align:center;letter-spacing:0px;word-spacing:0px;text-anchor:middle;fill:#000000;fill-opacity:1;stroke:none"
       x="970.4834"
       y="3337.2639"
       id="text4246-3-7-9-5"
       sodipodi:linespacing="0%"><tspan
         sodipodi:role="line"
         style="font-style:normal;font-variant:normal;font-weight:normal;font-stretch:normal;font-size:70px;line-height:1.25;font-family:'Nanum Pen Script OTF';-inkscape-font-specification:'Nanum Pen Script OTF'"
         x="970.4834"
         y="3337.2639"
         id="tspan1157">하. 음, 아니야.</tspan></text>
    <text
       xml:space="preserve"
       style="font-style:normal;font-variant:normal;font-weight:normal;font-stretch:normal;font-size:80px;line-height:0%;font-family:'Nanum Pen Script OTF';-inkscape-font-specification:'Nanum Pen Script OTF';text-align:center;letter-spacing:0px;word-spacing:0px;text-anchor:middle;fill:#000000;fill-opacity:1;stroke:none"
       x="1547.7905"
       y="3343.6245"
       id="text4246-3-7-9-5-1"
       sodipodi:linespacing="0%"><tspan
         sodipodi:role="line"
         style="font-style:normal;font-variant:normal;font-weight:normal;font-stretch:normal;font-size:80px;line-height:1.25;font-family:'Nanum Pen Script OTF';-inkscape-font-specification:'Nanum Pen Script OTF'"
         x="1547.7905"
         y="3343.6245"
         id="tspan1157-0">으으으!</tspan></text>
    <text
       xml:space="preserve"
       style="font-style:normal;font-variant:normal;font-weight:normal;font-stretch:normal;font-size:60px;line-height:100%;font-family:'Nanum Pen Script OTF';-inkscape-font-specification:'Nanum Pen Script OTF';text-align:center;letter-spacing:0px;word-spacing:0px;text-anchor:middle;fill:#000000;fill-opacity:1;stroke:none"
       x="2102.2458"
       y="2264.156"
       id="text4246-3-7-9-5-1-6"
       sodipodi:linespacing="100%"><tspan
         sodipodi:role="line"
         style="font-style:normal;font-variant:normal;font-weight:normal;font-stretch:normal;font-size:60px;line-height:100%;font-family:'Nanum Pen Script OTF';-inkscape-font-specification:'Nanum Pen Script OTF'"
         x="2102.2458"
         y="2264.156"
         id="tspan1197">좋아! 모양은 괜잖은데,</tspan><tspan
         sodipodi:role="line"
         style="font-style:normal;font-variant:normal;font-weight:normal;font-stretch:normal;font-size:60px;line-height:100%;font-family:'Nanum Pen Script OTF';-inkscape-font-specification:'Nanum Pen Script OTF'"
         x="2102.2458"
         y="2324.156"
         id="tspan3436">너무 작네...</tspan></text>
    <text
       xml:space="preserve"
       style="font-style:normal;font-variant:normal;font-weight:normal;font-stretch:normal;font-size:76.30184937px;line-height:0%;font-family:'Nanum Pen Script OTF';-inkscape-font-specification:'Nanum Pen Script OTF';text-align:center;letter-spacing:0px;word-spacing:0px;text-anchor:middle;fill:#000000;fill-opacity:1;stroke:#000000;stroke-width:1.96204746;stroke-miterlimit:4;stroke-dasharray:none;stroke-opacity:1"
       x="2707.1436"
       y="3276.3855"
       id="text4246-3-7-9-5-1-6-2"
       transform="matrix(0.98783599,0,-0.17384645,1.0123138,0,0)"
       sodipodi:linespacing="0%"><tspan
         sodipodi:role="line"
         style="font-style:normal;font-variant:normal;font-weight:normal;font-stretch:normal;font-size:76.30184937px;line-height:1.25;font-family:'Nanum Pen Script OTF';-inkscape-font-specification:'Nanum Pen Script OTF';stroke:#000000;stroke-width:1.96204746;stroke-miterlimit:4;stroke-dasharray:none;stroke-opacity:1"
         x="2707.1436"
         y="3276.3855"
         id="tspan1222">당근! 만지지 마!</tspan></text>
    <text
       xml:space="preserve"
       style="font-style:normal;font-variant:normal;font-weight:normal;font-stretch:normal;font-size:70.00000098px;line-height:0%;font-family:'Nanum Pen Script OTF';-inkscape-font-specification:'Nanum Pen Script OTF';text-align:center;letter-spacing:0px;word-spacing:0px;text-anchor:middle;fill:#f49474;fill-opacity:1;stroke:none;stroke-width:1;"
       x="2459.8232"
       y="3396.968"
       id="text4246-3-7-9-5-1-6-2-1"
       transform="matrix(1.0600479,-0.23035956,-0.08957656,0.9628195,0,0)"><tspan
         sodipodi:role="line"
         style="font-size:70.00000098px;line-height:1.25;fill:#f49474;fill-opacity:1;stroke-width:0.82425153;-inkscape-font-specification:'Nanum Pen Script OTF';font-family:'Nanum Pen Script OTF';font-weight:normal;font-style:normal;font-stretch:normal;font-variant:normal;"
         x="2459.8232"
         y="3396.968"
         id="tspan1222-5">?</tspan></text>
  </g>
</svg>
