<?xml version="1.0" encoding="UTF-8" standalone="no"?>
<!-- Created with Inkscape (http://www.inkscape.org/) -->

<svg
   xmlns:dc="http://purl.org/dc/elements/1.1/"
   xmlns:cc="http://creativecommons.org/ns#"
   xmlns:rdf="http://www.w3.org/1999/02/22-rdf-syntax-ns#"
   xmlns:svg="http://www.w3.org/2000/svg"
   xmlns="http://www.w3.org/2000/svg"
   xmlns:xlink="http://www.w3.org/1999/xlink"
   xmlns:sodipodi="http://sodipodi.sourceforge.net/DTD/sodipodi-0.dtd"
   xmlns:inkscape="http://www.inkscape.org/namespaces/inkscape"
   id="svg2"
   version="1.1"
   inkscape:version="0.92.2 2405546, 2018-03-11"
   width="2481"
   height="3503"
   sodipodi:docname="E06P03.svg">
  <metadata
     id="metadata8">
    <rdf:RDF>
      <cc:Work
         rdf:about="">
        <dc:format>image/svg+xml</dc:format>
        <dc:type
           rdf:resource="http://purl.org/dc/dcmitype/StillImage" />
        <dc:title />
      </cc:Work>
    </rdf:RDF>
  </metadata>
  <defs
     id="defs6">
    <filter
       inkscape:collect="always"
       id="filter3815">
      <feGaussianBlur
         inkscape:collect="always"
         stdDeviation="0.76455738"
         id="feGaussianBlur3817" />
    </filter>
  </defs>
  <sodipodi:namedview
     pagecolor="#ffffff"
     bordercolor="#666666"
     borderopacity="1"
     objecttolerance="10"
     gridtolerance="10"
     guidetolerance="10"
     inkscape:pageopacity="0"
     inkscape:pageshadow="2"
     inkscape:window-width="1920"
     inkscape:window-height="1033"
     id="namedview4"
     showgrid="false"
     inkscape:zoom="0.69565222"
     inkscape:cx="1050.8166"
     inkscape:cy="822.45074"
     inkscape:window-x="0"
     inkscape:window-y="47"
     inkscape:window-maximized="0"
     inkscape:current-layer="layer3" />
  <g
     inkscape:groupmode="layer"
     id="layer2"
     inkscape:label="artwork"
     sodipodi:insensitive="true">
    <image
       sodipodi:absref="/home/midgard/git/peppercarrot/comics/ep06_The-Potion-Contest/lang/nl/../gfx_Pepper-and-Carrot_by-David-Revoy_E06P03.png"
       xlink:href="../gfx_Pepper-and-Carrot_by-David-Revoy_E06P03.png"
       y="0"
       x="0"
       id="image10"
       height="3503"
       width="2481" />
  </g>
  <g
     inkscape:groupmode="layer"
     id="layer3"
     inkscape:label="speechbubbles">
    <path
       style="fill:#ffffff;stroke:none;stroke-width:1"
       d="m 523.80266,2860.1814 c -4.40003,-40.8765 -8.80014,-124.2815 0,-142.4489 5.60011,0 14.80032,-0.4128 14.80032,-0.4128 l -8.80015,-22.2964 16.00027,5.3677 8.00017,-7.4323 -5.20008,-12.3866 14.40027,5.7804 7.20012,-11.9739 12.00022,8.6708 6.00019,-12.3869 13.20022,9.9096 24.40049,-5.3677 c 59.87616,-2.188 119.08274,-5.5276 182.00353,-2.4773 l 19.20041,-7.8451 5.60013,11.5611 10.00014,0.4128 9.60017,-4.9547 9.60027,5.3676 32.00058,-3.716 10.40021,10.7353 12.40029,-9.0837 4.00001,11.9739 12.40027,-7.4321 1.99999,7.8449 29.60063,-9.0837 -4.4001,18.5802 c 0,0 22.00046,8.2581 37.60079,2.0646 1.6001,4.129 -0.79994,11.5612 -0.79994,11.5612 l 8.00002,4.1288 v 10.7353 c 0,0 16.0004,14.0384 17.6004,17.7545 1.6,3.716 5.2,105.2883 -0.3999,121.3912 4.4,0 7.2,2.4774 6.8001,4.9549 -0.4001,2.4772 -3.6001,9.4964 -3.6001,9.4964 0,0 4.4,6.6064 3.2,8.6709 -1.2,2.0644 -3.6001,4.9546 -3.6001,4.9546 0,0 4.0002,5.3677 2.8,7.0194 -1.1999,1.6514 -8,4.5418 -10.8002,6.1933 3.2002,3.3031 6.0002,10.3224 3.6002,11.974 -2.4,1.6516 -8.0003,2.8902 -8.0003,2.8902 l -2,4.129 c 0,0 -0.7998,8.258 -2.7999,8.6709 -2.0002,0.4129 -10.40025,-4.129 -11.60032,-3.3034 -1.19998,0.8258 -4.40012,7.4323 -6.40012,7.4323 -2.00002,0 -8.40026,-7.8451 -8.40026,-7.8451 -0.85472,1.7647 -106.49148,4.7264 -115.20224,2.8903 -8.76354,-1.8472 -43.20085,2.4774 -48.00093,2.4774 -4.80008,0 -24.80047,-1.2386 -27.60049,-2.0644 -2.8001,-0.8259 -14.00028,-3.7161 -18.0004,-3.3033 -4.00004,0.4128 -11.60023,4.542 -16.00024,4.542 -4.40011,0 -29.60066,-2.4774 -34.40073,-2.0646 -4.80008,0.4129 -26.80052,2.0646 -30.40059,2.0646 -3.60006,0 -44.0008,-4.542 -48.40092,-4.9548 -4.4001,-0.4131 -23.60046,4.129 -27.20053,3.7161 -3.60014,-0.413 -24.00051,-4.1292 -30.40067,-3.7161 -6.40009,0.4128 -30.4006,-5.3676 -32.00059,-4.9548 -1.60001,0.4129 -4.01624,0.825 -18.80035,0 7.60017,-6.1934 5.20006,-11.5611 5.20006,-11.5611 l -5.60006,-3.3032 0.79998,-3.716 -11.60024,-6.1933 1.60007,-4.542 0.79997,-7.432 -11.60015,-5.7806 18.4003,-16.5157 z"
       id="path3894"
       inkscape:connector-curvature="0"
       sodipodi:nodetypes="cccccccccccccccccccccccccccccccscscccccsccssscssssssssssscccccccccc" />
    <path
       style="color:#000000;fill:#ffffff;fill-opacity:1;fill-rule:nonzero;stroke:none;stroke-width:1px;marker:none;visibility:visible;display:inline;overflow:visible;enable-background:accumulate"
       d="m 545.68385,2106.5543 c 0.92924,31.6909 15.53852,52.2214 23.60836,57.7317 8.06969,5.51 27.8159,19.9977 35.99606,27.9012 6.72231,6.5597 18.9915,14.5098 11.58161,18.2799 -7.40991,3.7703 -64.31872,11.3007 -65.81902,32.4013 -1.50054,21.1007 11.5192,27.961 33.86857,35.7108 22.34948,7.7502 51.41871,18.1603 52.37837,34.1408 0.95967,15.9804 -17.4603,25.021 -28.62018,26.9411 -11.15987,1.92 -81.38866,5.9308 -97.19855,13.2011 -15.8097,7.2704 -56.57965,35.8615 -42.75027,55.352 15.84012,-22.9807 24.99248,-33.4609 40.95221,-37.3811 15.95994,-3.9202 44.06732,-13.061 64.49678,-9.9711 20.42968,3.09 60.65877,11.58 73.49859,3.4995 12.83999,-8.0803 35.67019,-33.2912 30.75053,-50.3518 -4.91949,-17.0604 -21.35891,-34.7809 -56.00807,-44.2309 -22.3493,-7.7501 -32.60899,-13.0302 -32.33902,-17.9203 0.27015,-4.8901 18.69012,-13.9306 41.15957,-14.4208 22.46963,-0.4902 39.26943,-7.4905 37.82979,-17.8109 -1.43987,-10.3202 -25.01304,-34.7164 -28.85289,-44.0368 -3.83969,-9.3202 -32.82382,-61.3059 -32.82382,-61.3059 z"
       id="path5058"
       inkscape:connector-curvature="0"
       sodipodi:nodetypes="cscsssssscssssccscccc" />
    <path
       style="color:#000000;display:inline;overflow:visible;visibility:visible;fill:#ffffff;fill-opacity:1;fill-rule:nonzero;stroke:none;stroke-width:1px;marker:none;enable-background:accumulate"
       d="m 1085.5696,1055.7663 14.4337,0.9355 -5.6926,-20.0842 c 22.3111,-3.0801 34.7416,2.2868 51.0607,4.3294 l -28.0541,-23.9979 3.3295,-7.6448 c -4.555,-3.8978 -11.0212,-6.2608 -13.1928,-12.0724 10.9071,-4.70046 19.0573,-5.41511 28.2672,-7.66184 -9.3896,-4.14516 -17.3914,-9.19329 -23.3676,-15.55979 l 28.6844,-14.28675 -28.7039,-7.76522 c 18.7678,-18.57356 43.5693,-31.42836 66.2765,-46.2682 l -85.2481,13.38248 11.8326,-14.27438 c -9.376,-6.06255 -8.227,-2.7544 -12.2676,-4.06687 -2.4421,-4.74179 26.6115,-27.9073 24.0017,-25.63766 -3.2525,1.02143 -31.2784,6.42817 -31.2784,6.42817 0,0 22.6698,-22.57978 19.3331,-22.28618 -3.3368,0.29358 -30.2759,7.81027 -30.2759,7.81027 l 6.9045,-20.45739 -34.608,14.07285 12.1909,-25.75396 c -9.1662,2.25852 -15.1297,3.29012 -12.7939,-5.49754 0.8928,-17.02633 23.0354,-53.94468 41.3494,-91.11956 -33.6652,35.33422 -55.8627,62.45962 -68.4157,65.25621 -51.0254,39.27269 -39.60284,14.12742 -29.46335,-14.31663 l -30.42287,28.40816 -7.85854,-16.95286 -22.50159,24.03531 -2.60809,-22.56113 c -15.34805,2.94537 -21.72067,16.86691 -29.50459,29.06257 l -12.26185,-84.2018 -45.97718,76.09302 -14.29397,-28.88463 -5.14491,28.3895 -5.19476,-23.06864 -19.7395,33.34955 -20.79914,-26.84181 -13.65504,27.66786 c -18.5766,-27.30792 -43.18125,-48.17694 -70.80889,-65.81702 6.91735,29.06917 13.15397,57.34241 14.25967,79.61496 -9.18738,3.13947 -19.17505,-0.64419 -29.372,-6.23774 l 7.2767,19.20959 -36.55028,-10.01718 19.38316,29.17203 c -53.36783,5.68512 -43.2379,-0.50528 -55.89776,-2.43341 l 12.28188,18.76919 -38.4711,-12.05372 c 11.90673,15.37868 27.11528,31.85195 35.6677,46.11859 l -38.79326,-0.26245 c 16.54921,11.75862 36.5649,19.81449 49.05296,35.91102 l -33.41313,4.61798 34.22316,19.04412 -23.59527,14.57423 20.35693,1.1491 -30.33871,29.1359 44.46442,-1.7069 -47.91943,52.0031 60.55188,-15.6205 -1.05073,34.6459 31.34101,-27.7539 -24.27392,88.8871 c 24.08199,-33.1493 42.52997,-59.6218 77.44067,-85.0546 l 13.04237,7.5641 12.82488,-5.64 -0.50054,24.8273 45.76758,-34.1693 -3.40666,14.2683 13.50104,-14.4212 -1.2333,18.4879 23.33573,-24.1085 -0.18178,19.2326 10.94929,-13.5636 5.19733,11.6171 13.65957,-8.8652 c 8.01954,31.152 4.14966,63.3503 2.59531,95.3449 12.8933,-37.6042 30.79224,-72.1683 56.46372,-102.0118 l 10.77401,13.0153 9.96357,-13.7885 13.46687,15.505 15.11777,-21.274 c 15.4987,13.83 24.57806,22.34 31.71386,36.9059 -4.2913,-13.8621 -7.3212,-23.1613 -5.2334,-39.0263 53.5425,19.2973 52.2669,21.5506 72.8025,33.081 3.2472,-17.4285 7.7847,-23.5354 9.2244,-36.8355 z"
       id="path4024"
       inkscape:connector-curvature="0"
       sodipodi:nodetypes="cccccccccccccccccscccccccccccccccccccccccccccccccccccccccccccccccccccccccccccccccccccc" />
    <path
       style="color:#000000;fill:#ffffff;fill-opacity:1;fill-rule:nonzero;stroke:none;stroke-width:1px;marker:none;visibility:visible;display:inline;overflow:visible;enable-background:accumulate"
       d="m 1218.5434,1215.8472 c -17.1936,-41.8333 -41.081,-81.504 -50.4971,-125.8497 l -12.6066,38.3698 c -11.8734,-13.9727 -14.0263,-33.3359 -19.4799,-50.8688 l -11.8198,22.4071 c -27.61,-33.3215 -37.27,-72.0345 -55.6059,-108.14156 l -17.4063,40.70596 c 22.9228,34.3264 51.2492,64.5082 68.0938,103.4964 l 13.8358,-20.7022 c 7.7408,12.6408 14.9797,25.6123 19.9766,40.0614 l 14.9982,-27.5356 z"
       id="path4032"
       inkscape:connector-curvature="0"
       sodipodi:nodetypes="cccccccccccc" />
    <path
       style="fill:#ffffff;stroke:none;stroke-width:0.99999988"
       d="m 377.12318,2024.9428 c 13.41716,-80.023 37.58804,-94.3945 99.03149,-120.7176 52.03055,-22.2904 263.5351,-13.6959 323.96881,-8.5571 77.67617,6.6048 142.01396,41.6486 169.95629,85.2363 27.94248,43.5877 -20.51291,160.2666 -91.37763,185.0193 -70.86445,24.7529 -217.75879,32.2752 -320.29251,23.7972 -62.03787,-5.1296 -197.90434,-51.7234 -181.28645,-164.7781 z"
       id="path3021"
       inkscape:connector-curvature="0"
       sodipodi:nodetypes="csssssc" />
    <flowRoot
       xml:space="preserve"
       id="flowRoot2987-4-9-1"
       style="font-style:normal;font-variant:normal;font-weight:normal;font-stretch:normal;line-height:0.01%;font-family:Lavi;-inkscape-font-specification:Lavi;text-align:center;letter-spacing:0px;word-spacing:0px;text-anchor:middle;fill:#000000;fill-opacity:1;stroke:none"
       transform="translate(306.28199,1662.4075)"><flowRegion
         id="flowRegion2989-5-4-3"><rect
           id="rect2991-7-9-5"
           width="494.15793"
           height="267.9024"
           x="120.55251"
           y="265.53046"
           style="font-style:normal;font-variant:normal;font-weight:normal;font-stretch:normal;font-family:Lavi;-inkscape-font-specification:Lavi;text-align:center;text-anchor:middle" /></flowRegion><flowPara
         style="font-size:48px;line-height:1.25;text-align:center;text-anchor:middle"
         id="flowPara3030-3">Als de burgemeester</flowPara><flowPara
         style="font-size:48px;line-height:1.25;text-align:center;text-anchor:middle"
         id="flowPara4488">van Komona, verklaar ik de wedstrijd voor geopend!</flowPara></flowRoot>    <path
       style="color:#000000;display:inline;overflow:visible;visibility:visible;fill:#ffffff;fill-opacity:1;fill-rule:nonzero;stroke:none;stroke-width:0.99999994px;marker:none;enable-background:accumulate"
       d="m 235.69463,2433.5362 c 8.25538,-71.3752 52.62777,-131.0973 102.15984,-142.7503 49.53194,-11.6532 458.17093,8.7396 489.12849,26.2193 30.95745,17.4799 78.42567,30.5893 65.01083,152.9469 -13.41504,122.3578 -72.23424,148.5771 -131.05354,151.4905 -58.81919,2.9131 -417.26397,26.1427 -466.79605,-40.8625 -49.53183,-67.0053 -60.5133,-66.9287 -58.44957,-147.0439 z"
       id="path4010"
       inkscape:connector-curvature="0"
       sodipodi:nodetypes="ccccccc" />
    <flowRoot
       transform="translate(78.657004,2067.22)"
       style="font-style:normal;font-variant:normal;font-weight:normal;font-stretch:normal;line-height:0.01%;font-family:Lavi;-inkscape-font-specification:Lavi;text-align:center;letter-spacing:0px;word-spacing:0px;text-anchor:middle;fill:#000000;fill-opacity:1;stroke:none"
       id="flowRoot3827"
       xml:space="preserve"><flowRegion
         id="flowRegion3829"><rect
           style="font-style:normal;font-variant:normal;font-weight:normal;font-stretch:normal;font-family:Lavi;-inkscape-font-specification:Lavi;text-align:center;text-anchor:middle"
           y="265.53046"
           x="120.55251"
           height="285.1524"
           width="727.03296"
           id="rect3831" /></flowRegion><flowPara
         style="font-size:48px;line-height:1.25;text-align:center;text-anchor:middle"
         id="flowPara4494">Ik voel me vereerd om</flowPara><flowPara
         style="font-size:48px;line-height:1.25;text-align:center;text-anchor:middle"
         id="flowPara4197">maar liefst vier heksen</flowPara><flowPara
         style="font-size:48px;line-height:1.25;text-align:center;text-anchor:middle"
         id="flowPara4199">te mogen verwelkomen</flowPara><flowPara
         style="font-size:48px;line-height:1.25;text-align:center;text-anchor:middle"
         id="flowPara4201">voor deze eerste editie.</flowPara></flowRoot>    <path
       style="color:#000000;fill:#ffffff;fill-opacity:1;fill-rule:nonzero;stroke:none;stroke-width:1px;marker:none;visibility:visible;display:inline;overflow:visible;filter:url(#filter4386);enable-background:accumulate"
       d="m 780.52613,2602.899 c 67.39048,-7.2879 57.08568,151.5067 86.26978,173.1099 9.7929,7.2493 31.4834,20.8279 44.6537,19.302 22.2217,-2.5742 36.1996,-31.978 105.26509,76.2516 14.5484,25.3304 64.6014,14.081 89.3863,-17.682 11.6551,-10.1772 41.1802,-16.077 77.8516,61.4689 13.8568,19.6534 45.1883,26.7156 63.2855,13.7581 9.1413,-7.2854 37.1244,-12.8074 54.186,9.6305 -28.6245,-35.0226 -70.9102,-17.2346 -84.2354,-19.4809 -16.2432,-3.961 -39.3841,-48.3247 -56.7917,-73.6014 -17.4077,-25.2767 -61.1235,-10.7157 -74.7267,-4.7692 -13.6034,5.9465 -27.7891,23.6628 -43.1211,15.4175 -15.3327,-8.246 -44.74689,-68.4598 -71.29649,-86.4517 -26.549,-17.9912 -54.1793,2.8818 -77.8695,-15.1637 -23.6905,-18.0456 -25.59,-113.7737 -41.9733,-143.1837 -15.9411,-32.6468 -53.5462,-54.4535 -53.5462,-54.4535 z"
       id="path3153"
       inkscape:connector-curvature="0"
       sodipodi:nodetypes="cssccccccsscssccc" />
    <flowRoot
       xml:space="preserve"
       id="flowRoot3849"
       style="font-style:normal;font-variant:normal;font-weight:normal;font-stretch:normal;line-height:0.01%;font-family:Lavi;-inkscape-font-specification:Lavi;text-align:center;letter-spacing:0px;word-spacing:0px;text-anchor:middle;fill:#000000;fill-opacity:1;stroke:none"
       transform="matrix(1.169845,0,0,1.169845,267.51768,2397.6267)"><flowRegion
         id="flowRegion3851"><rect
           id="rect3853"
           width="617.78296"
           height="319.6524"
           x="120.55251"
           y="265.53046"
           style="font-style:normal;font-variant:normal;font-weight:normal;font-stretch:normal;font-family:Lavi;-inkscape-font-specification:Lavi;text-align:center;text-anchor:middle" /></flowRegion><flowPara
         style="font-size:48px;line-height:1.14999998;text-align:center;text-anchor:middle"
         id="flowPara3855">Geef alstublieft</flowPara><flowPara
         style="font-weight:bold;font-size:54.70810318px;line-height:1.14999998;text-align:center;text-anchor:middle"
         id="flowPara55"><flowSpan
   id="flowSpan63"
   style="font-weight:normal;font-size:48px;line-height:1.14999998;text-align:center;text-anchor:middle">een </flowSpan>gigantisch</flowPara><flowPara
         style="font-size:48px;line-height:1.14999998;text-align:center;text-anchor:middle"
         id="flowPara57">applaus voor:</flowPara></flowRoot>    <flowRoot
       xml:space="preserve"
       id="flowRoot2987-4-9-3"
       style="font-style:normal;font-variant:normal;font-weight:normal;font-stretch:normal;line-height:0.01%;font-family:Lavi;-inkscape-font-specification:Lavi;text-align:center;letter-spacing:0px;word-spacing:0px;text-anchor:middle;opacity:0.61395347;fill:#000000;fill-opacity:1;stroke:#000000;stroke-width:1.96720004;stroke-miterlimit:4;stroke-dasharray:none;stroke-opacity:1;filter:url(#filter3815)"
       transform="matrix(1.4723003,-0.14586732,0.04498111,1.8950157,1026.6716,2024.5444)"
       inkscape:transform-center-x="-8.5765829"
       inkscape:transform-center-y="-12.960708"><flowRegion
         id="flowRegion2989-5-4-8"><rect
           id="rect2991-7-9-0"
           width="826.12402"
           height="65.224297"
           x="120.55251"
           y="265.53046"
           style="font-style:normal;font-variant:normal;font-weight:normal;font-stretch:normal;font-family:Lavi;-inkscape-font-specification:Lavi;text-align:center;text-anchor:middle;stroke:#000000;stroke-width:1.96720004;stroke-miterlimit:4;stroke-dasharray:none;stroke-opacity:1" /></flowRegion><flowPara
         style="font-size:41.85847092px;line-height:1.25;text-align:center;text-anchor:middle;fill:#ffffff;fill-opacity:1;stroke:#959595;stroke-width:1.96720004;stroke-miterlimit:4;stroke-dasharray:none;stroke-opacity:1"
         id="flowPara3030-2">Toverdrankwedstrijd van Komona</flowPara></flowRoot>    <text
       xml:space="preserve"
       style="font-style:normal;font-variant:normal;font-weight:bold;font-stretch:normal;font-size:113.33333588px;line-height:0.01%;font-family:Lavi;-inkscape-font-specification:'Lavi, Bold';font-variant-ligatures:normal;font-variant-caps:normal;font-variant-numeric:normal;font-feature-settings:normal;text-align:center;letter-spacing:0px;word-spacing:0px;writing-mode:lr-tb;text-anchor:middle;fill:#000000;fill-opacity:1;stroke:none;stroke-width:1.96720004;stroke-miterlimit:4;stroke-dasharray:none;stroke-opacity:1"
       x="864.50012"
       y="999.73712"
       id="text53"><tspan
         sodipodi:role="line"
         id="tspan51"
         x="864.50012"
         y="999.73712">WAT?!!</tspan></text>
  </g>
  <g
     inkscape:groupmode="layer"
     id="layer1"
     inkscape:label="txt" />
</svg>
