<?xml version="1.0" encoding="UTF-8" standalone="no"?>
<!-- Created with Inkscape (http://www.inkscape.org/) -->

<svg
   xmlns:dc="http://purl.org/dc/elements/1.1/"
   xmlns:cc="http://creativecommons.org/ns#"
   xmlns:rdf="http://www.w3.org/1999/02/22-rdf-syntax-ns#"
   xmlns:svg="http://www.w3.org/2000/svg"
   xmlns="http://www.w3.org/2000/svg"
   xmlns:xlink="http://www.w3.org/1999/xlink"
   xmlns:sodipodi="http://sodipodi.sourceforge.net/DTD/sodipodi-0.dtd"
   xmlns:inkscape="http://www.inkscape.org/namespaces/inkscape"
   id="svg2"
   version="1.1"
   inkscape:version="0.91 r13725"
   width="2481"
   height="2479"
   sodipodi:docname="E07P06.svg">
  <metadata
     id="metadata8">
    <rdf:RDF>
      <cc:Work
         rdf:about="">
        <dc:format>image/svg+xml</dc:format>
        <dc:type
           rdf:resource="http://purl.org/dc/dcmitype/StillImage" />
        <dc:title />
      </cc:Work>
    </rdf:RDF>
  </metadata>
  <defs
     id="defs6" />
  <sodipodi:namedview
     pagecolor="#ffffff"
     bordercolor="#666666"
     borderopacity="1"
     objecttolerance="10"
     gridtolerance="10"
     guidetolerance="10"
     inkscape:pageopacity="0"
     inkscape:pageshadow="2"
     inkscape:window-width="1438"
     inkscape:window-height="840"
     id="namedview4"
     showgrid="false"
     inkscape:zoom="0.30245747"
     inkscape:cx="196.81836"
     inkscape:cy="1720.8423"
     inkscape:window-x="0"
     inkscape:window-y="0"
     inkscape:window-maximized="1"
     inkscape:current-layer="layer2"
     inkscape:object-nodes="true" />
  <g
     inkscape:groupmode="layer"
     id="layer1"
     inkscape:label="artwork"
     style="display:inline"
     sodipodi:insensitive="true">
    <image
       sodipodi:absref="/home/jorge/Quellcode/webcomics/ep07_The-Wish/lang/eo/../gfx_Pepper-and-Carrot_by-David-Revoy_E07P06.png"
       xlink:href="../gfx_Pepper-and-Carrot_by-David-Revoy_E07P06.png"
       width="2481"
       height="2479"
       id="image10"
       x="0"
       y="0" />
  </g>
  <g
     inkscape:groupmode="layer"
     id="layer3"
     inkscape:label="speechbubbles"
     style="display:inline">
    <path
       style="fill:#ffffff;stroke:none"
       d="m -2021.8885,646.19917 c 1.0628,-51.0158 26.5707,-103.09442 170.0526,-112.65988 143.4819,-9.56546 203.0004,48.89014 207.2517,90.34047 4.2513,41.45033 -82.9007,96.71744 -162.6129,97.78027 -79.7121,1.06282 -214.6914,-11.69112 -214.6914,-75.46086 z"
       id="path4279"
       inkscape:connector-curvature="0" />
    <path
       style="fill:#ffffff;stroke:none"
       d="m -1788.0661,898.08964 c 70.1467,-44.63882 88.2148,-124.35099 45.7016,-190.24639 -42.5132,-65.8954 -82.9007,-54.20428 -82.9007,-54.20428 l 35.0734,41.45033 c 0,0 97.7803,97.78027 2.1257,203.00034 z"
       id="path4281"
       inkscape:connector-curvature="0"
       sodipodi:nodetypes="csccc" />
  </g>
  <g
     inkscape:groupmode="layer"
     id="layer2"
     inkscape:label="text"
     style="display:inline">
    <flowRoot
       xml:space="preserve"
       id="flowRoot3027"
       style="font-style:normal;font-variant:normal;font-weight:normal;font-stretch:normal;font-size:12px;line-height:125%;font-family:Arial;-inkscape-font-specification:Arial;text-align:center;letter-spacing:0px;word-spacing:0px;text-anchor:middle;display:inline;fill:#000000;fill-opacity:1;stroke:none"
       transform="matrix(1.2334095,0,0,1.2851851,-454.16129,-191.16449)"><flowRegion
         id="flowRegion3029"><rect
           id="rect3031"
           width="2475.8752"
           height="241.27675"
           x="135.21135"
           y="219.33444"
           style="text-align:center;text-anchor:middle" /></flowRegion><flowPara
         id="flowPara3033" /><flowPara
         id="flowPara3035"
         style="font-style:normal;font-variant:normal;font-weight:normal;font-stretch:normal;font-size:48px;font-family:Lavi;-inkscape-font-specification:Lavi;text-align:center;text-anchor:middle">Pepper&amp;Carrot estas tute libera, senpaga kaj subtenita</flowPara><flowPara
         style="font-style:normal;font-variant:normal;font-weight:normal;font-stretch:normal;font-size:48px;font-family:Lavi;-inkscape-font-specification:Lavi;text-align:center;text-anchor:middle"
         id="flowPara3044">de mecenataj legantoj. Por ĉi tiu rakontaĵo, dankon al la 273 Mecenatoj:</flowPara></flowRoot>    <flowRoot
       xml:space="preserve"
       id="flowRoot3027-8-8"
       style="font-size:12px;font-style:normal;font-variant:normal;font-weight:normal;font-stretch:normal;text-align:center;line-height:125%;letter-spacing:0px;word-spacing:0px;text-anchor:middle;fill:#a72f14;fill-opacity:1;stroke:none;display:inline;font-family:Arial;-inkscape-font-specification:Arial"
       transform="matrix(1.2234224,0,0,1.2506407,-289.19377,1682.5299)"><flowRegion
         id="flowRegion3029-9-3"><rect
           id="rect3031-9-1"
           width="2230.314"
           height="376.21677"
           x="135.21135"
           y="219.33444"
           style="text-align:center;text-anchor:middle;fill:#a72f14;fill-opacity:1" /></flowRegion><flowPara
         id="flowPara3033-3-0" /><flowPara
         style="font-size:48px;font-style:normal;font-variant:normal;font-weight:normal;font-stretch:normal;text-align:center;text-anchor:middle;fill:#a72f14;fill-opacity:1;font-family:Lavi;-inkscape-font-specification:Lavi"
         id="flowPara3067-4">https://www.patreon.com/davidrevoy</flowPara></flowRoot>    <flowRoot
       xml:space="preserve"
       id="flowRoot3027-8-8-2"
       style="font-size:12px;font-style:normal;font-variant:normal;font-weight:normal;font-stretch:normal;text-align:center;line-height:125%;letter-spacing:0px;word-spacing:0px;text-anchor:middle;fill:#000000;fill-opacity:1;stroke:none;display:inline;font-family:Arial;-inkscape-font-specification:Arial"
       transform="matrix(0.91226779,0,0,0.94129239,100.20803,1725.1068)"><flowRegion
         id="flowRegion3029-9-3-5"><rect
           id="rect3031-9-1-6"
           width="2230.314"
           height="376.21677"
           x="135.21135"
           y="219.33444"
           style="text-align:center;text-anchor:middle" /></flowRegion><flowPara
         style="font-size:48px;font-style:normal;font-variant:normal;font-weight:normal;font-stretch:normal;text-align:center;text-anchor:middle;font-family:Lavi;-inkscape-font-specification:Lavi"
         id="flowPara3055">Vi ankaŭ fariĝu mecenato, subtenante la sekvonton rakontaĵon de Pepper&amp;Carrot:</flowPara></flowRoot>    <flowRoot
       xml:space="preserve"
       id="flowRoot3027-8-8-2-8"
       style="font-size:12px;font-style:normal;font-variant:normal;font-weight:normal;font-stretch:normal;text-align:center;line-height:125%;letter-spacing:0px;word-spacing:0px;text-anchor:middle;fill:#000000;fill-opacity:1;stroke:none;display:inline;font-family:Arial;-inkscape-font-specification:Arial"
       transform="matrix(0.78840156,0,0,0.8341601,254.1111,2049.1031)"><flowRegion
         id="flowRegion3029-9-3-5-1"><rect
           id="rect3031-9-1-6-8"
           width="2230.314"
           height="376.21677"
           x="135.21135"
           y="219.33444"
           style="text-align:center;text-anchor:middle" /></flowRegion><flowPara
         id="flowPara3033-3-0-2-4" /><flowPara
         style="font-size:48px;font-style:normal;font-variant:normal;font-weight:normal;font-stretch:normal;text-align:center;text-anchor:middle;font-family:Lavi;-inkscape-font-specification:Lavi"
         id="flowPara3231-9">Iloj: Tiu rakontaĵo estis verkita cent elcente per liberaj programaroj </flowPara><flowPara
         style="font-size:48px;font-style:normal;font-variant:normal;font-weight:normal;font-stretch:normal;text-align:center;text-anchor:middle;font-family:Lavi;-inkscape-font-specification:Lavi"
         id="flowPara3279">Krita sur Linux Mint</flowPara><flowPara
         style="font-size:48px;font-style:normal;font-variant:normal;font-weight:normal;font-stretch:normal;text-align:center;text-anchor:middle;font-family:Lavi;-inkscape-font-specification:Lavi"
         id="flowPara3233-6" /></flowRoot>    <flowRoot
       xml:space="preserve"
       id="flowRoot3027-8-8-2-8-6"
       style="font-size:12px;font-style:normal;font-variant:normal;font-weight:normal;font-stretch:normal;text-align:center;line-height:125%;letter-spacing:0px;word-spacing:0px;text-anchor:middle;fill:#000000;fill-opacity:1;stroke:none;display:inline;font-family:Arial;-inkscape-font-specification:Arial"
       transform="matrix(0.78840156,0,0,0.81820527,254.19425,1955.3339)"><flowRegion
         id="flowRegion3029-9-3-5-1-2"><rect
           id="rect3031-9-1-6-8-7"
           width="2230.314"
           height="376.21677"
           x="135.21135"
           y="219.33444"
           style="text-align:center;text-anchor:middle" /></flowRegion><flowPara
         id="flowPara3033-3-0-2-4-3" /><flowPara
         style="font-size:48px;font-style:normal;font-variant:normal;font-weight:normal;font-stretch:normal;text-align:center;text-anchor:middle;font-family:Lavi;-inkscape-font-specification:Lavi"
         id="flowPara3279-7">La permisilo disponebligas al vi ĉiujn verkajn fontojn: la tiparoj</flowPara><flowPara
         style="font-size:48px;font-style:normal;font-variant:normal;font-weight:normal;font-stretch:normal;text-align:center;text-anchor:middle;font-family:Lavi;-inkscape-font-specification:Lavi"
         id="flowPara3278">kaj la dosieroj enhavantaj la tavolojn estas elŝuteblaj de la oficiala TTT-ejo.</flowPara><flowPara
         style="font-size:48px;font-style:normal;font-variant:normal;font-weight:normal;font-stretch:normal;text-align:center;text-anchor:middle;font-family:Lavi;-inkscape-font-specification:Lavi"
         id="flowPara3233-6-14" /></flowRoot>    <flowRoot
       xml:space="preserve"
       id="flowRoot3027-8-8-2-8-6-3"
       style="font-size:12px;font-style:normal;font-variant:normal;font-weight:normal;font-stretch:normal;text-align:center;line-height:125%;letter-spacing:0px;word-spacing:0px;text-anchor:middle;fill:#000000;fill-opacity:1;stroke:none;display:inline;font-family:Arial;-inkscape-font-specification:Arial"
       transform="matrix(0.78840156,0,0,0.83353067,254.68392,1855.5952)"><flowRegion
         id="flowRegion3029-9-3-5-1-2-8"><rect
           id="rect3031-9-1-6-8-7-4"
           width="2230.314"
           height="376.21677"
           x="135.21135"
           y="219.33444"
           style="text-align:center;text-anchor:middle" /></flowRegion><flowPara
         id="flowPara3033-3-0-2-4-3-2" /><flowPara
         style="font-size:48px;font-style:normal;font-variant:normal;font-weight:normal;font-stretch:normal;text-align:center;text-anchor:middle;font-family:Lavi;-inkscape-font-specification:Lavi"
         id="flowPara3278-7">Libera Permisilo: Krea Komunaĵo Atribute (CC-By) al David Revoy</flowPara><flowPara
         style="font-size:48px;font-style:normal;font-variant:normal;font-weight:normal;font-stretch:normal;text-align:center;text-anchor:middle;font-family:Lavi;-inkscape-font-specification:Lavi"
         id="flowPara3318">Tiun verkon vi rajtas ŝanĝi, redisdoni, vendi, ktp.</flowPara><flowPara
         style="font-size:48px;font-style:normal;font-variant:normal;font-weight:normal;font-stretch:normal;text-align:center;text-anchor:middle;font-family:Lavi;-inkscape-font-specification:Lavi"
         id="flowPara3233-6-14-6" /></flowRoot>    <flowRoot
       xml:space="preserve"
       id="flowRoot2987"
       style="font-size:12px;font-style:normal;font-variant:normal;font-weight:normal;font-stretch:normal;text-align:justify;line-height:125%;letter-spacing:0px;word-spacing:0px;text-anchor:start;fill:#000000;fill-opacity:1;stroke:none;display:inline;font-family:Arial;-inkscape-font-specification:Arial"
       transform="matrix(0.77545721,0,0,0.80077696,188.5295,-46.434387)"><flowRegion
         id="flowRegion2989"><rect
           id="rect2991"
           width="2996.0627"
           height="2440.8586"
           x="-141.0901"
           y="266.68515"
           style="text-align:justify;text-anchor:start" /></flowRegion><flowPara
         style="font-size:47.11256409px;font-style:normal;font-variant:normal;font-weight:normal;font-stretch:normal;text-align:justify;line-height:150%;writing-mode:lr-tb;text-anchor:start;font-family:Lavi;-inkscape-font-specification:Lavi"
         id="flowPara3241" /><flowPara
         style="font-size:47.11256409px;font-style:normal;font-variant:normal;font-weight:normal;font-stretch:normal;text-align:justify;line-height:120.00000477%;writing-mode:lr-tb;text-anchor:start;font-family:Lavi;-inkscape-font-specification:Lavi"
         id="flowPara3095" /><flowPara
         style="font-size:47.11256409px;font-style:normal;font-variant:normal;font-weight:normal;font-stretch:normal;text-align:center;line-height:120.00000477%;writing-mode:lr-tb;text-anchor:middle;font-family:Lavi;-inkscape-font-specification:Lavi"
         id="flowPara3111">Addison Lewis ❀ A Distinguished Robot ❀ Adrian Lord ❀ Ahmad Ali ❀ Aina Reich ❀ Alandran ❀ Alan Hardman ❀ Albert Westra ❀ Alcide</flowPara><flowPara
         style="font-size:47.11256409px;font-style:normal;font-variant:normal;font-weight:normal;font-stretch:normal;text-align:center;line-height:120.00000477%;writing-mode:lr-tb;text-anchor:middle;font-family:Lavi;-inkscape-font-specification:Lavi"
         id="flowPara3034">Alex ❀ Alexander Bülow Tomassen ❀ Alexander Sopicki ❀ Alexandra Jordan ❀ Alexey Golubev ❀ Alex Flores ❀ Alex Lusco ❀ Alex Silver</flowPara><flowPara
         style="font-size:47.11256409px;font-style:normal;font-variant:normal;font-weight:normal;font-stretch:normal;text-align:center;line-height:120.00000477%;writing-mode:lr-tb;text-anchor:middle;font-family:Lavi;-inkscape-font-specification:Lavi"
         id="flowPara3036">Alex Vandiver ❀ Alfredo ❀ Ali Poulton (Aunty Pol) ❀ Allan Zieser ❀ Andreas Rieger ❀ Andreas Ulmer ❀ Andrej Kwadrin ❀ Andrew</flowPara><flowPara
         style="font-size:47.11256409px;font-style:normal;font-variant:normal;font-weight:normal;font-stretch:normal;text-align:center;line-height:120.00000477%;writing-mode:lr-tb;text-anchor:middle;font-family:Lavi;-inkscape-font-specification:Lavi"
         id="flowPara3038">Andrew Godfrey ❀ Andrey Alekseenko ❀ Angela K ❀ Anna Orlova ❀ anonymous ❀ Antan Karmola ❀ Anthony Edlin ❀ Antoine</flowPara><flowPara
         style="font-size:47.11256409px;font-style:normal;font-variant:normal;font-weight:normal;font-stretch:normal;text-align:center;line-height:120.00000477%;writing-mode:lr-tb;text-anchor:middle;font-family:Lavi;-inkscape-font-specification:Lavi"
         id="flowPara3040">Antonio Mendoza ❀ Antonio Parisi ❀ Ardash Crowfoot ❀ Arjun Chennu ❀ Arne Brix ❀ Arturo J. Pérez ❀ Aslak Kjølås-Sæverud </flowPara><flowPara
         style="font-size:47.11256409px;font-style:normal;font-variant:normal;font-weight:normal;font-stretch:normal;text-align:center;line-height:120.00000477%;writing-mode:lr-tb;text-anchor:middle;font-family:Lavi;-inkscape-font-specification:Lavi"
         id="flowPara3042">Axel Bordelon ❀ Axel Philipsenburg ❀ barbix ❀ BataMoth ❀ Ben Evans ❀ Bernd ❀ Betsy Luntao ❀ Birger Tuer Thorvaldsen</flowPara><flowPara
         style="font-size:47.11256409px;font-style:normal;font-variant:normal;font-weight:normal;font-stretch:normal;text-align:center;line-height:120.00000477%;writing-mode:lr-tb;text-anchor:middle;font-family:Lavi;-inkscape-font-specification:Lavi"
         id="flowPara3044-7">Boonsak Watanavisit ❀ Boris Fauret ❀ Boudewijn Rempt ❀ BoxBoy ❀ Brent Houghton ❀ Brett Smith ❀ Brian Behnke ❀ Bryan Butler</flowPara><flowPara
         style="font-size:47.11256409px;font-style:normal;font-variant:normal;font-weight:normal;font-stretch:normal;text-align:center;line-height:120.00000477%;writing-mode:lr-tb;text-anchor:middle;font-family:Lavi;-inkscape-font-specification:Lavi"
         id="flowPara3046">BS ❀ Bui Dang Hai Trieu ❀ BXS ❀ carlos levischi ❀ Carola Hänggi ❀ Cedric Wohlleber ❀ Charlotte Lacombe-bar ❀ Chris Radcliff</flowPara><flowPara
         style="font-size:47.11256409px;font-style:normal;font-variant:normal;font-weight:normal;font-stretch:normal;text-align:center;line-height:120.00000477%;writing-mode:lr-tb;text-anchor:middle;font-family:Lavi;-inkscape-font-specification:Lavi"
         id="flowPara3048">Chris Sakkas ❀ Christian Gruenwaldner ❀ Christophe Carré ❀ Christopher Bates ❀ Clara Dexter ❀ codl ❀ Colby Driedger</flowPara><flowPara
         style="font-size:47.11256409px;font-style:normal;font-variant:normal;font-weight:normal;font-stretch:normal;text-align:center;line-height:120.00000477%;writing-mode:lr-tb;text-anchor:middle;font-family:Lavi;-inkscape-font-specification:Lavi"
         id="flowPara3050">Conway Scott Smith ❀ Coppin Olivier ❀ Cuthbert Williams ❀ Cyol ❀ Cyrille Largillier ❀ Cyril Paciullo ❀ Damien ❀ Daniel</flowPara><flowPara
         style="font-size:47.11256409px;font-style:normal;font-variant:normal;font-weight:normal;font-stretch:normal;text-align:center;line-height:120.00000477%;writing-mode:lr-tb;text-anchor:middle;font-family:Lavi;-inkscape-font-specification:Lavi"
         id="flowPara3052">Daniel Björkman ❀ Danny Grimm ❀ David ❀ David Tang ❀ DiCola Jamn ❀ Dmitry ❀ Donald Hayward ❀ Duke ❀ Eitan Goldshtrom</flowPara><flowPara
         style="font-size:47.11256409px;font-style:normal;font-variant:normal;font-weight:normal;font-stretch:normal;text-align:center;line-height:120.00000477%;writing-mode:lr-tb;text-anchor:middle;font-family:Lavi;-inkscape-font-specification:Lavi"
         id="flowPara3054">Enrico Billich ❀ epsilon ❀ Eric Schulz ❀ Faolan Grady ❀ Francois Schnell ❀ freecultureftw ❀ Garret Patterson ❀ Ginny Hendricks</flowPara><flowPara
         style="font-size:47.11256409px;font-style:normal;font-variant:normal;font-weight:normal;font-stretch:normal;text-align:center;line-height:120.00000477%;writing-mode:lr-tb;text-anchor:middle;font-family:Lavi;-inkscape-font-specification:Lavi"
         id="flowPara3056">GreenAngel5 ❀ Grigory Petrov ❀ G. S. Davis ❀ Guillaume ❀ Guillaume Ballue ❀ Gustav Strömbom ❀ Happy Mimic ❀ Helmar Suschka</flowPara><flowPara
         style="font-size:47.11256409px;font-style:normal;font-variant:normal;font-weight:normal;font-stretch:normal;text-align:center;line-height:120.00000477%;writing-mode:lr-tb;text-anchor:middle;font-family:Lavi;-inkscape-font-specification:Lavi"
         id="flowPara3058">Henning Döscher ❀ Henry Ståhle ❀ Ilyas ❀ Irina Rempt ❀ Ivan Korotkov ❀ James Frazier ❀ Jamie Sutherland ❀ Janusz ❀ Jared Tritsch</flowPara><flowPara
         style="font-size:47.11256409px;font-style:normal;font-variant:normal;font-weight:normal;font-stretch:normal;text-align:center;line-height:120.00000477%;writing-mode:lr-tb;text-anchor:middle;font-family:Lavi;-inkscape-font-specification:Lavi"
         id="flowPara3060">JDB ❀ Jean-Baptiste Hebbrecht ❀ Jean-Gabriel LOQUET ❀ Jeffrey Schneider ❀ Jessey Wright ❀ Jim ❀ Jim Street ❀ Jiska</flowPara><flowPara
         style="font-size:47.11256409px;font-style:normal;font-variant:normal;font-weight:normal;font-stretch:normal;text-align:center;line-height:120.00000477%;writing-mode:lr-tb;text-anchor:middle;font-family:Lavi;-inkscape-font-specification:Lavi"
         id="flowPara3062">JoÃ£o Luiz Machado Junior ❀ Joerg Raidt ❀ Joern Konopka ❀ joe rutledge ❀ John ❀ John ❀ John Urquhart Ferguson ❀ Jónatan Nilsson</flowPara><flowPara
         style="font-size:47.11256409px;font-style:normal;font-variant:normal;font-weight:normal;font-stretch:normal;text-align:center;line-height:120.00000477%;writing-mode:lr-tb;text-anchor:middle;font-family:Lavi;-inkscape-font-specification:Lavi"
         id="flowPara3064">Jonathan Leroy ❀ Jonathan Ringstad ❀ Jon Brake ❀ Jorge Bernal ❀ Joseph Bowman ❀ Juju Mendivil ❀ Julien Duroure ❀ Justus Kat</flowPara><flowPara
         style="font-size:47.11256409px;font-style:normal;font-variant:normal;font-weight:normal;font-stretch:normal;text-align:center;line-height:120.00000477%;writing-mode:lr-tb;text-anchor:middle;font-family:Lavi;-inkscape-font-specification:Lavi"
         id="flowPara3066">Kai-Ting (Danil) Ko ❀ Kasper Hansen ❀ Kate ❀ Kathryn Wuerstl ❀ Ken Mingyuan Xia ❀ Kingsquee ❀ Kroet ❀ Lars Ivar Igesund</flowPara><flowPara
         style="font-size:47.11256409px;font-style:normal;font-variant:normal;font-weight:normal;font-stretch:normal;text-align:center;line-height:120.00000477%;writing-mode:lr-tb;text-anchor:middle;font-family:Lavi;-inkscape-font-specification:Lavi"
         id="flowPara3068">Levi Kornelsen ❀ Liang ❀ Liselle ❀ Lise-Lotte Pesonen ❀ Lorentz Grip ❀ Louis Yung ❀ L S ❀ Luc Stepniewski ❀ Luke Hochrein ❀ MacCoy</flowPara><flowPara
         style="font-size:47.11256409px;font-style:normal;font-variant:normal;font-weight:normal;font-stretch:normal;text-align:center;line-height:120.00000477%;writing-mode:lr-tb;text-anchor:middle;font-family:Lavi;-inkscape-font-specification:Lavi"
         id="flowPara3070">Magnus Kronnäs ❀ Manuel ❀ Manu Järvinen ❀ Marc &amp; Rick ❀ marcus ❀ Martin Owens ❀ Mary Brownlee ❀ Masked Admirer</flowPara><flowPara
         style="font-size:47.11256409px;font-style:normal;font-variant:normal;font-weight:normal;font-stretch:normal;text-align:center;line-height:120.00000477%;writing-mode:lr-tb;text-anchor:middle;font-family:Lavi;-inkscape-font-specification:Lavi"
         id="flowPara3072">Mathias Stærk ❀ mefflin ross bullis-bates ❀ Michael ❀ Michael Gill ❀ Michael Pureka ❀ Michelle Pereira Garcia ❀ Mike Mosher</flowPara><flowPara
         style="font-size:47.11256409px;font-style:normal;font-variant:normal;font-weight:normal;font-stretch:normal;text-align:center;line-height:120.00000477%;writing-mode:lr-tb;text-anchor:middle;font-family:Lavi;-inkscape-font-specification:Lavi"
         id="flowPara3074">Miroslav ❀ mjkj ❀ Nazhif ❀ Nicholas DeLateur ❀ Nicholas Terranova ❀ Nicki Aya ❀ Nicola Angel ❀ Nicolae Berbece ❀ Nicole Heersema</flowPara><flowPara
         style="font-size:47.11256409px;font-style:normal;font-variant:normal;font-weight:normal;font-stretch:normal;text-align:center;line-height:120.00000477%;writing-mode:lr-tb;text-anchor:middle;font-family:Lavi;-inkscape-font-specification:Lavi"
         id="flowPara3076">Nielas Sinclair ❀ NinjaKnight Comics ❀ Noble Hays ❀ Noelia Calles Marcos ❀ Nora Czaykowski ❀ No Reward ❀ Nyx ❀ Olivier Amrein</flowPara><flowPara
         style="font-size:47.11256409px;font-style:normal;font-variant:normal;font-weight:normal;font-stretch:normal;text-align:center;line-height:120.00000477%;writing-mode:lr-tb;text-anchor:middle;font-family:Lavi;-inkscape-font-specification:Lavi"
         id="flowPara3078">Olivier Brun ❀ Olivier Gavrois ❀ Omar Willey ❀ Oscar Moreno ❀ Öykü Su Gürler ❀ Ozone S. ❀ Pablo Lopez Soriano ❀ Pat David</flowPara><flowPara
         style="font-size:47.11256409px;font-style:normal;font-variant:normal;font-weight:normal;font-stretch:normal;text-align:center;line-height:120.00000477%;writing-mode:lr-tb;text-anchor:middle;font-family:Lavi;-inkscape-font-specification:Lavi"
         id="flowPara3080">Patrick Gamblin ❀ Paul ❀ Paul ❀ Pavel Semenov ❀ Pet0r ❀ Peter ❀ Peter Moonen ❀ Petr Vlašic ❀ Philippe Jean Edward Bateman</flowPara><flowPara
         style="font-size:47.11256409px;font-style:normal;font-variant:normal;font-weight:normal;font-stretch:normal;text-align:center;line-height:120.00000477%;writing-mode:lr-tb;text-anchor:middle;font-family:Lavi;-inkscape-font-specification:Lavi"
         id="flowPara3082">Pierre Geier ❀ Pierre Vuillemin ❀ Pranab Shenoy ❀ Pyves &amp; Ran ❀ Raghavendra Kamath ❀ Rajul Gupta ❀ Reorx Meng ❀ Ret Samys</flowPara><flowPara
         style="font-size:47.11256409px;font-style:normal;font-variant:normal;font-weight:normal;font-stretch:normal;text-align:center;line-height:120.00000477%;writing-mode:lr-tb;text-anchor:middle;font-family:Lavi;-inkscape-font-specification:Lavi"
         id="flowPara3084">rictic ❀ RJ van der Weide ❀ Roberto Zaghis ❀ Robin Moussu ❀ Roman  Burdun ❀ Rumiko Hoshino ❀ Rustin Simons ❀ Sally Bridgewater</flowPara><flowPara
         style="font-size:47.11256409px;font-style:normal;font-variant:normal;font-weight:normal;font-stretch:normal;text-align:center;line-height:120.00000477%;writing-mode:lr-tb;text-anchor:middle;font-family:Lavi;-inkscape-font-specification:Lavi"
         id="flowPara3086">Sami T ❀ Samuel Mitson ❀ Scott Petrovic ❀ Sean Adams ❀ Shadefalcon ❀ ShadowMist ❀ shafak ❀ Shawn Meyer ❀ Simon Forster</flowPara><flowPara
         style="font-size:47.11256409px;font-style:normal;font-variant:normal;font-weight:normal;font-stretch:normal;text-align:center;line-height:120.00000477%;writing-mode:lr-tb;text-anchor:middle;font-family:Lavi;-inkscape-font-specification:Lavi"
         id="flowPara3088">Simon Isenberg ❀ Sonja Reimann-Klieber ❀ Sonny W. ❀ Soriac ❀ Stanislav Vodetskyi ❀ Stephanie Cheshire ❀ Stephen Bates</flowPara><flowPara
         style="font-size:47.11256409px;font-style:normal;font-variant:normal;font-weight:normal;font-stretch:normal;text-align:center;line-height:120.00000477%;writing-mode:lr-tb;text-anchor:middle;font-family:Lavi;-inkscape-font-specification:Lavi"
         id="flowPara3090">Stephen Smoogen ❀ Steven Bennett ❀ Stuart Dickson ❀ surt ❀ Sybille Marchetto ❀ TamaskanLEM ❀ tar8156 ❀ Terry Hancock</flowPara><flowPara
         style="font-size:47.11256409px;font-style:normal;font-variant:normal;font-weight:normal;font-stretch:normal;text-align:center;line-height:120.00000477%;writing-mode:lr-tb;text-anchor:middle;font-family:Lavi;-inkscape-font-specification:Lavi"
         id="flowPara3092">TheFaico ❀ thibhul ❀ Thomas Citharel ❀ Thomas Courbon ❀ Thomas Schwery ❀ Thornae ❀ Tim Burbank ❀ Tim J. ❀ Tomas Hajek</flowPara><flowPara
         style="font-size:47.11256409px;font-style:normal;font-variant:normal;font-weight:normal;font-stretch:normal;text-align:center;line-height:120.00000477%;writing-mode:lr-tb;text-anchor:middle;font-family:Lavi;-inkscape-font-specification:Lavi"
         id="flowPara3094">Tom Demian ❀ Tom Savage ❀ Tracey Reuben ❀ Travis Humble ❀ tree ❀ Tyson Tan ❀ Urm ❀ Victoria ❀ Victoria White</flowPara><flowPara
         style="font-size:47.11256409px;font-style:normal;font-variant:normal;font-weight:normal;font-stretch:normal;text-align:center;line-height:120.00000477%;writing-mode:lr-tb;text-anchor:middle;font-family:Lavi;-inkscape-font-specification:Lavi"
         id="flowPara3097">Vladislav Kurdyukov ❀ Vlad Tomash ❀ WakoTabacco ❀ Wander ❀ Westen Curry ❀ Witt N. Vest ❀ WoodChi ❀ Xavier Claude</flowPara><flowPara
         style="font-size:47.11256409px;font-style:normal;font-variant:normal;font-weight:normal;font-stretch:normal;text-align:center;line-height:120.00000477%;writing-mode:lr-tb;text-anchor:middle;font-family:Lavi;-inkscape-font-specification:Lavi"
         id="flowPara3099">Yalyn Vinkindo ❀ Yaroslav ❀ Zeni Pong ❀ Źmicier Kušnaroŭ ❀ Глеб Бузало ❀ 獨孤欣 &amp; 獨弧悦</flowPara><flowPara
         style="font-size:47.11256409px;font-style:normal;font-variant:normal;font-weight:normal;font-stretch:normal;text-align:justify;line-height:120.00000477%;writing-mode:lr-tb;text-anchor:start;font-family:Lavi;-inkscape-font-specification:Lavi"
         id="flowPara3113" /></flowRoot>  </g>
</svg>
