<?xml version="1.0" encoding="UTF-8" standalone="no"?>
<!-- Created with Inkscape (http://www.inkscape.org/) -->

<svg
   xmlns:dc="http://purl.org/dc/elements/1.1/"
   xmlns:cc="http://creativecommons.org/ns#"
   xmlns:rdf="http://www.w3.org/1999/02/22-rdf-syntax-ns#"
   xmlns:svg="http://www.w3.org/2000/svg"
   xmlns="http://www.w3.org/2000/svg"
   xmlns:xlink="http://www.w3.org/1999/xlink"
   xmlns:sodipodi="http://sodipodi.sourceforge.net/DTD/sodipodi-0.dtd"
   xmlns:inkscape="http://www.inkscape.org/namespaces/inkscape"
   id="svg2"
   version="1.1"
   inkscape:version="0.92.2 2405546, 2018-03-11"
   width="2481"
   height="3503"
   sodipodi:docname="E27P04.svg">
  <metadata
     id="metadata8">
    <rdf:RDF>
      <cc:Work
         rdf:about="">
        <dc:format>image/svg+xml</dc:format>
        <dc:type
           rdf:resource="http://purl.org/dc/dcmitype/StillImage" />
        <dc:title />
      </cc:Work>
    </rdf:RDF>
  </metadata>
  <defs
     id="defs6">
    <filter
       style="color-interpolation-filters:sRGB;"
       id="filter4375-4-1-1-1-9"
       inkscape:label="Roughen">
      <feFlood
         id="feFlood4377-7-9-0-8-1"
         flood-opacity="1"
         flood-color="rgb(0,0,0)"
         result="flood" />
      <feComposite
         id="feComposite4379-3-8-8-2-77"
         in2="SourceGraphic"
         in="flood"
         operator="in"
         result="composite1" />
      <feMorphology
         id="feMorphology4393-1-0-49-8-9"
         operator="dilate"
         radius="4"
         result="result3" />
      <feComposite
         id="feComposite4385-9-5-7-0-8"
         in2="result3"
         in="SourceGraphic"
         operator="over"
         result="fbSourceGraphic" />
      <feColorMatrix
         result="fbSourceGraphicAlpha"
         in="fbSourceGraphic"
         values="0 0 0 -1 0 0 0 0 -1 0 0 0 0 -1 0 0 0 0 1 0"
         id="feColorMatrix333" />
      <feTurbulence
         id="feTurbulence335"
         type="fractalNoise"
         numOctaves="5"
         seed="1"
         baseFrequency="0.013 0.013"
         result="turbulence"
         in="fbSourceGraphic" />
      <feDisplacementMap
         in2="turbulence"
         id="feDisplacementMap337"
         in="fbSourceGraphic"
         scale="6.6"
         yChannelSelector="G"
         xChannelSelector="R"
         result="fbSourceGraphic" />
      <feColorMatrix
         result="fbSourceGraphicAlpha"
         in="fbSourceGraphic"
         values="0 0 0 -1 0 0 0 0 -1 0 0 0 0 -1 0 0 0 0 1 0"
         id="feColorMatrix435" />
      <feTurbulence
         id="feTurbulence437"
         type="fractalNoise"
         numOctaves="5"
         seed="27"
         baseFrequency="0.001 0.4414"
         result="turbulence"
         in="fbSourceGraphic" />
      <feDisplacementMap
         in2="turbulence"
         id="feDisplacementMap439"
         in="fbSourceGraphic"
         scale="4.27461"
         yChannelSelector="G"
         xChannelSelector="R" />
    </filter>
    <filter
       style="color-interpolation-filters:sRGB"
       id="filter4375-4-1-1-1-9-7"
       inkscape:label="deevad outline effect">
      <feFlood
         id="feFlood4377-7-9-0-8-1-4"
         flood-opacity="1"
         flood-color="rgb(0,0,0)"
         result="flood" />
      <feComposite
         id="feComposite4379-3-8-8-2-77-7"
         in2="SourceGraphic"
         in="flood"
         operator="in"
         result="composite1" />
      <feMorphology
         id="feMorphology4393-1-0-49-8-9-3"
         operator="dilate"
         radius="4"
         result="result3" />
      <feComposite
         id="feComposite4385-9-5-7-0-8-0"
         in2="result3"
         in="SourceGraphic"
         operator="over"
         result="composite2" />
    </filter>
    <filter
       style="color-interpolation-filters:sRGB"
       id="filter4375-4-1-1-1-9-7-7"
       inkscape:label="deevad outline effect">
      <feFlood
         id="feFlood4377-7-9-0-8-1-4-8"
         flood-opacity="1"
         flood-color="rgb(0,0,0)"
         result="flood" />
      <feComposite
         id="feComposite4379-3-8-8-2-77-7-8"
         in2="SourceGraphic"
         in="flood"
         operator="in"
         result="composite1" />
      <feMorphology
         id="feMorphology4393-1-0-49-8-9-3-9"
         operator="dilate"
         radius="4"
         result="result3" />
      <feComposite
         id="feComposite4385-9-5-7-0-8-0-0"
         in2="result3"
         in="SourceGraphic"
         operator="over"
         result="composite2" />
    </filter>
    <filter
       style="color-interpolation-filters:sRGB"
       id="filter4375-4-1-1-1-9-7-7-0"
       inkscape:label="deevad outline effect">
      <feFlood
         id="feFlood4377-7-9-0-8-1-4-8-3"
         flood-opacity="1"
         flood-color="rgb(0,0,0)"
         result="flood" />
      <feComposite
         id="feComposite4379-3-8-8-2-77-7-8-1"
         in2="SourceGraphic"
         in="flood"
         operator="in"
         result="composite1" />
      <feMorphology
         id="feMorphology4393-1-0-49-8-9-3-9-0"
         operator="dilate"
         radius="4"
         result="result3" />
      <feComposite
         id="feComposite4385-9-5-7-0-8-0-0-3"
         in2="result3"
         in="SourceGraphic"
         operator="over"
         result="composite2" />
    </filter>
    <filter
       style="color-interpolation-filters:sRGB"
       id="filter4375-4-1-1-1-9-7-7-0-3"
       inkscape:label="deevad outline effect">
      <feFlood
         id="feFlood4377-7-9-0-8-1-4-8-3-2"
         flood-opacity="1"
         flood-color="rgb(0,0,0)"
         result="flood" />
      <feComposite
         id="feComposite4379-3-8-8-2-77-7-8-1-2"
         in2="SourceGraphic"
         in="flood"
         operator="in"
         result="composite1" />
      <feMorphology
         id="feMorphology4393-1-0-49-8-9-3-9-0-1"
         operator="dilate"
         radius="4"
         result="result3" />
      <feComposite
         id="feComposite4385-9-5-7-0-8-0-0-3-5"
         in2="result3"
         in="SourceGraphic"
         operator="over"
         result="composite2" />
    </filter>
    <filter
       style="color-interpolation-filters:sRGB"
       id="filter4375-4-1-1-1-9-7-7-0-3-7"
       inkscape:label="deevad outline effect">
      <feFlood
         id="feFlood4377-7-9-0-8-1-4-8-3-2-4"
         flood-opacity="1"
         flood-color="rgb(0,0,0)"
         result="flood" />
      <feComposite
         id="feComposite4379-3-8-8-2-77-7-8-1-2-6"
         in2="SourceGraphic"
         in="flood"
         operator="in"
         result="composite1" />
      <feMorphology
         id="feMorphology4393-1-0-49-8-9-3-9-0-1-4"
         operator="dilate"
         radius="4"
         result="result3" />
      <feComposite
         id="feComposite4385-9-5-7-0-8-0-0-3-5-9"
         in2="result3"
         in="SourceGraphic"
         operator="over"
         result="composite2" />
    </filter>
    <filter
       style="color-interpolation-filters:sRGB"
       id="filter4375-4-1-1-1-9-7-7-0-1"
       inkscape:label="deevad outline effect">
      <feFlood
         id="feFlood4377-7-9-0-8-1-4-8-3-23"
         flood-opacity="1"
         flood-color="rgb(0,0,0)"
         result="flood" />
      <feComposite
         id="feComposite4379-3-8-8-2-77-7-8-1-1"
         in2="SourceGraphic"
         in="flood"
         operator="in"
         result="composite1" />
      <feMorphology
         id="feMorphology4393-1-0-49-8-9-3-9-0-8"
         operator="dilate"
         radius="4"
         result="result3" />
      <feComposite
         id="feComposite4385-9-5-7-0-8-0-0-3-1"
         in2="result3"
         in="SourceGraphic"
         operator="over"
         result="composite2" />
    </filter>
    <filter
       style="color-interpolation-filters:sRGB"
       id="filter4375-4-1-1-1-9-7-7-3"
       inkscape:label="deevad outline effect">
      <feFlood
         id="feFlood4377-7-9-0-8-1-4-8-8"
         flood-opacity="1"
         flood-color="rgb(0,0,0)"
         result="flood" />
      <feComposite
         id="feComposite4379-3-8-8-2-77-7-8-9"
         in2="SourceGraphic"
         in="flood"
         operator="in"
         result="composite1" />
      <feMorphology
         id="feMorphology4393-1-0-49-8-9-3-9-2"
         operator="dilate"
         radius="4"
         result="result3" />
      <feComposite
         id="feComposite4385-9-5-7-0-8-0-0-4"
         in2="result3"
         in="SourceGraphic"
         operator="over"
         result="composite2" />
    </filter>
    <filter
       style="color-interpolation-filters:sRGB"
       id="filter4375-4-1-1-1-9-7-5"
       inkscape:label="deevad outline effect">
      <feFlood
         id="feFlood4377-7-9-0-8-1-4-1"
         flood-opacity="1"
         flood-color="rgb(0,0,0)"
         result="flood" />
      <feComposite
         id="feComposite4379-3-8-8-2-77-7-0"
         in2="SourceGraphic"
         in="flood"
         operator="in"
         result="composite1" />
      <feMorphology
         id="feMorphology4393-1-0-49-8-9-3-0"
         operator="dilate"
         radius="4"
         result="result3" />
      <feComposite
         id="feComposite4385-9-5-7-0-8-0-1"
         in2="result3"
         in="SourceGraphic"
         operator="over"
         result="composite2" />
    </filter>
    <filter
       style="color-interpolation-filters:sRGB"
       id="filter4375-4-1-1-1-9-3"
       inkscape:label="deevad outline effect">
      <feFlood
         id="feFlood4377-7-9-0-8-1-3"
         flood-opacity="1"
         flood-color="rgb(0,0,0)"
         result="flood" />
      <feComposite
         id="feComposite4379-3-8-8-2-77-0"
         in2="SourceGraphic"
         in="flood"
         operator="in"
         result="composite1" />
      <feMorphology
         id="feMorphology4393-1-0-49-8-9-0"
         operator="dilate"
         radius="3"
         result="result3" />
      <feComposite
         id="feComposite4385-9-5-7-0-8-02"
         in2="result3"
         in="SourceGraphic"
         operator="over"
         result="composite2" />
    </filter>
    <filter
       style="color-interpolation-filters:sRGB"
       id="filter4375-4-1-1-1-9-6"
       inkscape:label="Roughen">
      <feFlood
         id="feFlood4377-7-9-0-8-1-0"
         flood-opacity="1"
         flood-color="rgb(0,0,0)"
         result="flood" />
      <feComposite
         id="feComposite4379-3-8-8-2-77-6"
         in2="SourceGraphic"
         in="flood"
         operator="in"
         result="composite1" />
      <feMorphology
         id="feMorphology4393-1-0-49-8-9-2"
         operator="dilate"
         radius="4"
         result="result3" />
      <feComposite
         id="feComposite4385-9-5-7-0-8-6"
         in2="result3"
         in="SourceGraphic"
         operator="over"
         result="fbSourceGraphic" />
      <feColorMatrix
         result="fbSourceGraphicAlpha"
         in="fbSourceGraphic"
         values="0 0 0 -1 0 0 0 0 -1 0 0 0 0 -1 0 0 0 0 1 0"
         id="feColorMatrix333-1" />
      <feTurbulence
         id="feTurbulence335-8"
         type="fractalNoise"
         numOctaves="5"
         seed="1"
         baseFrequency="0.013 0.013"
         result="turbulence" />
      <feDisplacementMap
         in2="turbulence"
         id="feDisplacementMap337-7"
         in="fbSourceGraphic"
         scale="6.6"
         yChannelSelector="G"
         xChannelSelector="R"
         result="fbSourceGraphic" />
      <feColorMatrix
         result="fbSourceGraphicAlpha"
         in="fbSourceGraphic"
         values="0 0 0 -1 0 0 0 0 -1 0 0 0 0 -1 0 0 0 0 1 0"
         id="feColorMatrix435-9" />
      <feTurbulence
         id="feTurbulence437-2"
         type="fractalNoise"
         numOctaves="5"
         seed="27"
         baseFrequency="0.001 0.4414"
         result="turbulence" />
      <feDisplacementMap
         in2="turbulence"
         id="feDisplacementMap439-0"
         in="fbSourceGraphic"
         scale="4.27461"
         yChannelSelector="G"
         xChannelSelector="R" />
    </filter>
    <filter
       style="color-interpolation-filters:sRGB"
       id="filter4375-4-1-1-1-9-5"
       inkscape:label="Roughen">
      <feFlood
         id="feFlood4377-7-9-0-8-1-9"
         flood-opacity="1"
         flood-color="rgb(0,0,0)"
         result="flood" />
      <feComposite
         id="feComposite4379-3-8-8-2-77-2"
         in2="SourceGraphic"
         in="flood"
         operator="in"
         result="composite1" />
      <feMorphology
         id="feMorphology4393-1-0-49-8-9-28"
         operator="dilate"
         radius="4"
         result="result3" />
      <feComposite
         id="feComposite4385-9-5-7-0-8-9"
         in2="result3"
         in="SourceGraphic"
         operator="over"
         result="fbSourceGraphic" />
      <feColorMatrix
         result="fbSourceGraphicAlpha"
         in="fbSourceGraphic"
         values="0 0 0 -1 0 0 0 0 -1 0 0 0 0 -1 0 0 0 0 1 0"
         id="feColorMatrix333-7" />
      <feTurbulence
         id="feTurbulence335-3"
         type="fractalNoise"
         numOctaves="5"
         seed="1"
         baseFrequency="0.013 0.013"
         result="turbulence" />
      <feDisplacementMap
         in2="turbulence"
         id="feDisplacementMap337-6"
         in="fbSourceGraphic"
         scale="6.6"
         yChannelSelector="G"
         xChannelSelector="R"
         result="fbSourceGraphic" />
      <feColorMatrix
         result="fbSourceGraphicAlpha"
         in="fbSourceGraphic"
         values="0 0 0 -1 0 0 0 0 -1 0 0 0 0 -1 0 0 0 0 1 0"
         id="feColorMatrix435-1" />
      <feTurbulence
         id="feTurbulence437-29"
         type="fractalNoise"
         numOctaves="5"
         seed="27"
         baseFrequency="0.001 0.4414"
         result="turbulence" />
      <feDisplacementMap
         in2="turbulence"
         id="feDisplacementMap439-3"
         in="fbSourceGraphic"
         scale="4.27461"
         yChannelSelector="G"
         xChannelSelector="R" />
    </filter>
    <filter
       style="color-interpolation-filters:sRGB"
       id="filter4375-4-1-1-1-9-78"
       inkscape:label="Roughen">
      <feFlood
         id="feFlood4377-7-9-0-8-1-45"
         flood-opacity="1"
         flood-color="rgb(0,0,0)"
         result="flood" />
      <feComposite
         id="feComposite4379-3-8-8-2-77-03"
         in2="SourceGraphic"
         in="flood"
         operator="in"
         result="composite1" />
      <feMorphology
         id="feMorphology4393-1-0-49-8-9-6"
         operator="dilate"
         radius="4"
         result="result3" />
      <feComposite
         id="feComposite4385-9-5-7-0-8-1"
         in2="result3"
         in="SourceGraphic"
         operator="over"
         result="fbSourceGraphic" />
      <feColorMatrix
         result="fbSourceGraphicAlpha"
         in="fbSourceGraphic"
         values="0 0 0 -1 0 0 0 0 -1 0 0 0 0 -1 0 0 0 0 1 0"
         id="feColorMatrix333-0" />
      <feTurbulence
         id="feTurbulence335-6"
         type="fractalNoise"
         numOctaves="5"
         seed="1"
         baseFrequency="0.013 0.013"
         result="turbulence" />
      <feDisplacementMap
         in2="turbulence"
         id="feDisplacementMap337-3"
         in="fbSourceGraphic"
         scale="6.6"
         yChannelSelector="G"
         xChannelSelector="R"
         result="fbSourceGraphic" />
      <feColorMatrix
         result="fbSourceGraphicAlpha"
         in="fbSourceGraphic"
         values="0 0 0 -1 0 0 0 0 -1 0 0 0 0 -1 0 0 0 0 1 0"
         id="feColorMatrix435-2" />
      <feTurbulence
         id="feTurbulence437-0"
         type="fractalNoise"
         numOctaves="5"
         seed="27"
         baseFrequency="0.001 0.4414"
         result="turbulence" />
      <feDisplacementMap
         in2="turbulence"
         id="feDisplacementMap439-6"
         in="fbSourceGraphic"
         scale="4.27461"
         yChannelSelector="G"
         xChannelSelector="R" />
    </filter>
    <filter
       style="color-interpolation-filters:sRGB"
       id="filter4375-4-1-1-1-9-4"
       inkscape:label="Roughen">
      <feFlood
         id="feFlood4377-7-9-0-8-1-7"
         flood-opacity="1"
         flood-color="rgb(0,0,0)"
         result="flood" />
      <feComposite
         id="feComposite4379-3-8-8-2-77-65"
         in2="SourceGraphic"
         in="flood"
         operator="in"
         result="composite1" />
      <feMorphology
         id="feMorphology4393-1-0-49-8-9-69"
         operator="dilate"
         radius="4"
         result="result3" />
      <feComposite
         id="feComposite4385-9-5-7-0-8-3"
         in2="result3"
         in="SourceGraphic"
         operator="over"
         result="fbSourceGraphic" />
      <feColorMatrix
         result="fbSourceGraphicAlpha"
         in="fbSourceGraphic"
         values="0 0 0 -1 0 0 0 0 -1 0 0 0 0 -1 0 0 0 0 1 0"
         id="feColorMatrix333-74" />
      <feTurbulence
         id="feTurbulence335-5"
         type="fractalNoise"
         numOctaves="5"
         seed="1"
         baseFrequency="0.013 0.013"
         result="turbulence" />
      <feDisplacementMap
         in2="turbulence"
         id="feDisplacementMap337-2"
         in="fbSourceGraphic"
         scale="6.6"
         yChannelSelector="G"
         xChannelSelector="R"
         result="fbSourceGraphic" />
      <feColorMatrix
         result="fbSourceGraphicAlpha"
         in="fbSourceGraphic"
         values="0 0 0 -1 0 0 0 0 -1 0 0 0 0 -1 0 0 0 0 1 0"
         id="feColorMatrix435-5" />
      <feTurbulence
         id="feTurbulence437-4"
         type="fractalNoise"
         numOctaves="5"
         seed="27"
         baseFrequency="0.001 0.4414"
         result="turbulence" />
      <feDisplacementMap
         in2="turbulence"
         id="feDisplacementMap439-7"
         in="fbSourceGraphic"
         scale="4.27461"
         yChannelSelector="G"
         xChannelSelector="R" />
    </filter>
    <filter
       style="color-interpolation-filters:sRGB"
       id="filter4375-4-1-1-1-9-30"
       inkscape:label="Roughen">
      <feFlood
         id="feFlood4377-7-9-0-8-1-78"
         flood-opacity="1"
         flood-color="rgb(0,0,0)"
         result="flood" />
      <feComposite
         id="feComposite4379-3-8-8-2-77-68"
         in2="SourceGraphic"
         in="flood"
         operator="in"
         result="composite1" />
      <feMorphology
         id="feMorphology4393-1-0-49-8-9-8"
         operator="dilate"
         radius="4"
         result="result3" />
      <feComposite
         id="feComposite4385-9-5-7-0-8-4"
         in2="result3"
         in="SourceGraphic"
         operator="over"
         result="fbSourceGraphic" />
      <feColorMatrix
         result="fbSourceGraphicAlpha"
         in="fbSourceGraphic"
         values="0 0 0 -1 0 0 0 0 -1 0 0 0 0 -1 0 0 0 0 1 0"
         id="feColorMatrix333-3" />
      <feTurbulence
         id="feTurbulence335-1"
         type="fractalNoise"
         numOctaves="5"
         seed="1"
         baseFrequency="0.013 0.013"
         result="turbulence" />
      <feDisplacementMap
         in2="turbulence"
         id="feDisplacementMap337-4"
         in="fbSourceGraphic"
         scale="6.6"
         yChannelSelector="G"
         xChannelSelector="R"
         result="fbSourceGraphic" />
      <feColorMatrix
         result="fbSourceGraphicAlpha"
         in="fbSourceGraphic"
         values="0 0 0 -1 0 0 0 0 -1 0 0 0 0 -1 0 0 0 0 1 0"
         id="feColorMatrix435-92" />
      <feTurbulence
         id="feTurbulence437-06"
         type="fractalNoise"
         numOctaves="5"
         seed="27"
         baseFrequency="0.001 0.4414"
         result="turbulence" />
      <feDisplacementMap
         in2="turbulence"
         id="feDisplacementMap439-8"
         in="fbSourceGraphic"
         scale="4.27461"
         yChannelSelector="G"
         xChannelSelector="R" />
    </filter>
    <filter
       style="color-interpolation-filters:sRGB"
       id="filter4375-4-1-1-1-9-30-6"
       inkscape:label="Roughen">
      <feFlood
         id="feFlood4377-7-9-0-8-1-78-4"
         flood-opacity="1"
         flood-color="rgb(0,0,0)"
         result="flood" />
      <feComposite
         id="feComposite4379-3-8-8-2-77-68-9"
         in2="SourceGraphic"
         in="flood"
         operator="in"
         result="composite1" />
      <feMorphology
         id="feMorphology4393-1-0-49-8-9-8-5"
         operator="dilate"
         radius="4"
         result="result3" />
      <feComposite
         id="feComposite4385-9-5-7-0-8-4-0"
         in2="result3"
         in="SourceGraphic"
         operator="over"
         result="fbSourceGraphic" />
      <feColorMatrix
         result="fbSourceGraphicAlpha"
         in="fbSourceGraphic"
         values="0 0 0 -1 0 0 0 0 -1 0 0 0 0 -1 0 0 0 0 1 0"
         id="feColorMatrix333-3-4" />
      <feTurbulence
         id="feTurbulence335-1-8"
         type="fractalNoise"
         numOctaves="5"
         seed="1"
         baseFrequency="0.013 0.013"
         result="turbulence" />
      <feDisplacementMap
         in2="turbulence"
         id="feDisplacementMap337-4-7"
         in="fbSourceGraphic"
         scale="6.6"
         yChannelSelector="G"
         xChannelSelector="R"
         result="fbSourceGraphic" />
      <feColorMatrix
         result="fbSourceGraphicAlpha"
         in="fbSourceGraphic"
         values="0 0 0 -1 0 0 0 0 -1 0 0 0 0 -1 0 0 0 0 1 0"
         id="feColorMatrix435-92-1" />
      <feTurbulence
         id="feTurbulence437-06-7"
         type="fractalNoise"
         numOctaves="5"
         seed="27"
         baseFrequency="0.001 0.4414"
         result="turbulence" />
      <feDisplacementMap
         in2="turbulence"
         id="feDisplacementMap439-8-2"
         in="fbSourceGraphic"
         scale="4.27461"
         yChannelSelector="G"
         xChannelSelector="R" />
    </filter>
    <filter
       style="color-interpolation-filters:sRGB"
       id="filter4375-4-1-1-1-9-30-2"
       inkscape:label="Roughen">
      <feFlood
         id="feFlood4377-7-9-0-8-1-78-6"
         flood-opacity="1"
         flood-color="rgb(0,0,0)"
         result="flood" />
      <feComposite
         id="feComposite4379-3-8-8-2-77-68-1"
         in2="SourceGraphic"
         in="flood"
         operator="in"
         result="composite1" />
      <feMorphology
         id="feMorphology4393-1-0-49-8-9-8-0"
         operator="dilate"
         radius="4"
         result="result3" />
      <feComposite
         id="feComposite4385-9-5-7-0-8-4-6"
         in2="result3"
         in="SourceGraphic"
         operator="over"
         result="fbSourceGraphic" />
      <feColorMatrix
         result="fbSourceGraphicAlpha"
         in="fbSourceGraphic"
         values="0 0 0 -1 0 0 0 0 -1 0 0 0 0 -1 0 0 0 0 1 0"
         id="feColorMatrix333-3-1" />
      <feTurbulence
         id="feTurbulence335-1-5"
         type="fractalNoise"
         numOctaves="5"
         seed="1"
         baseFrequency="0.013 0.013"
         result="turbulence" />
      <feDisplacementMap
         in2="turbulence"
         id="feDisplacementMap337-4-9"
         in="fbSourceGraphic"
         scale="6.6"
         yChannelSelector="G"
         xChannelSelector="R"
         result="fbSourceGraphic" />
      <feColorMatrix
         result="fbSourceGraphicAlpha"
         in="fbSourceGraphic"
         values="0 0 0 -1 0 0 0 0 -1 0 0 0 0 -1 0 0 0 0 1 0"
         id="feColorMatrix435-92-4" />
      <feTurbulence
         id="feTurbulence437-06-9"
         type="fractalNoise"
         numOctaves="5"
         seed="27"
         baseFrequency="0.001 0.4414"
         result="turbulence" />
      <feDisplacementMap
         in2="turbulence"
         id="feDisplacementMap439-8-0"
         in="fbSourceGraphic"
         scale="4.27461"
         yChannelSelector="G"
         xChannelSelector="R" />
    </filter>
    <filter
       style="color-interpolation-filters:sRGB"
       id="filter4375-4-1-1-1-9-30-2-7"
       inkscape:label="Roughen">
      <feFlood
         id="feFlood4377-7-9-0-8-1-78-6-7"
         flood-opacity="1"
         flood-color="rgb(0,0,0)"
         result="flood" />
      <feComposite
         id="feComposite4379-3-8-8-2-77-68-1-1"
         in2="SourceGraphic"
         in="flood"
         operator="in"
         result="composite1" />
      <feMorphology
         id="feMorphology4393-1-0-49-8-9-8-0-1"
         operator="dilate"
         radius="4"
         result="result3" />
      <feComposite
         id="feComposite4385-9-5-7-0-8-4-6-5"
         in2="result3"
         in="SourceGraphic"
         operator="over"
         result="fbSourceGraphic" />
      <feColorMatrix
         result="fbSourceGraphicAlpha"
         in="fbSourceGraphic"
         values="0 0 0 -1 0 0 0 0 -1 0 0 0 0 -1 0 0 0 0 1 0"
         id="feColorMatrix333-3-1-9" />
      <feTurbulence
         id="feTurbulence335-1-5-7"
         type="fractalNoise"
         numOctaves="5"
         seed="1"
         baseFrequency="0.013 0.013"
         result="turbulence" />
      <feDisplacementMap
         in2="turbulence"
         id="feDisplacementMap337-4-9-7"
         in="fbSourceGraphic"
         scale="6.6"
         yChannelSelector="G"
         xChannelSelector="R"
         result="fbSourceGraphic" />
      <feColorMatrix
         result="fbSourceGraphicAlpha"
         in="fbSourceGraphic"
         values="0 0 0 -1 0 0 0 0 -1 0 0 0 0 -1 0 0 0 0 1 0"
         id="feColorMatrix435-92-4-6" />
      <feTurbulence
         id="feTurbulence437-06-9-7"
         type="fractalNoise"
         numOctaves="5"
         seed="27"
         baseFrequency="0.001 0.4414"
         result="turbulence" />
      <feDisplacementMap
         in2="turbulence"
         id="feDisplacementMap439-8-0-3"
         in="fbSourceGraphic"
         scale="4.27461"
         yChannelSelector="G"
         xChannelSelector="R" />
    </filter>
    <filter
       style="color-interpolation-filters:sRGB"
       id="filter4375-4-1-1-1-9-30-2-7-6"
       inkscape:label="Roughen">
      <feFlood
         id="feFlood4377-7-9-0-8-1-78-6-7-3"
         flood-opacity="1"
         flood-color="rgb(0,0,0)"
         result="flood" />
      <feComposite
         id="feComposite4379-3-8-8-2-77-68-1-1-9"
         in2="SourceGraphic"
         in="flood"
         operator="in"
         result="composite1" />
      <feMorphology
         id="feMorphology4393-1-0-49-8-9-8-0-1-4"
         operator="dilate"
         radius="4"
         result="result3" />
      <feComposite
         id="feComposite4385-9-5-7-0-8-4-6-5-8"
         in2="result3"
         in="SourceGraphic"
         operator="over"
         result="fbSourceGraphic" />
      <feColorMatrix
         result="fbSourceGraphicAlpha"
         in="fbSourceGraphic"
         values="0 0 0 -1 0 0 0 0 -1 0 0 0 0 -1 0 0 0 0 1 0"
         id="feColorMatrix333-3-1-9-1" />
      <feTurbulence
         id="feTurbulence335-1-5-7-2"
         type="fractalNoise"
         numOctaves="5"
         seed="1"
         baseFrequency="0.013 0.013"
         result="turbulence" />
      <feDisplacementMap
         in2="turbulence"
         id="feDisplacementMap337-4-9-7-9"
         in="fbSourceGraphic"
         scale="6.6"
         yChannelSelector="G"
         xChannelSelector="R"
         result="fbSourceGraphic" />
      <feColorMatrix
         result="fbSourceGraphicAlpha"
         in="fbSourceGraphic"
         values="0 0 0 -1 0 0 0 0 -1 0 0 0 0 -1 0 0 0 0 1 0"
         id="feColorMatrix435-92-4-6-3" />
      <feTurbulence
         id="feTurbulence437-06-9-7-9"
         type="fractalNoise"
         numOctaves="5"
         seed="27"
         baseFrequency="0.001 0.4414"
         result="turbulence" />
      <feDisplacementMap
         in2="turbulence"
         id="feDisplacementMap439-8-0-3-0"
         in="fbSourceGraphic"
         scale="4.27461"
         yChannelSelector="G"
         xChannelSelector="R" />
    </filter>
    <filter
       style="color-interpolation-filters:sRGB"
       id="filter4375-4-1-1-1-9-30-2-7-6-5"
       inkscape:label="Roughen">
      <feFlood
         id="feFlood4377-7-9-0-8-1-78-6-7-3-0"
         flood-opacity="1"
         flood-color="rgb(0,0,0)"
         result="flood" />
      <feComposite
         id="feComposite4379-3-8-8-2-77-68-1-1-9-9"
         in2="SourceGraphic"
         in="flood"
         operator="in"
         result="composite1" />
      <feMorphology
         id="feMorphology4393-1-0-49-8-9-8-0-1-4-6"
         operator="dilate"
         radius="4"
         result="result3" />
      <feComposite
         id="feComposite4385-9-5-7-0-8-4-6-5-8-3"
         in2="result3"
         in="SourceGraphic"
         operator="over"
         result="fbSourceGraphic" />
      <feColorMatrix
         result="fbSourceGraphicAlpha"
         in="fbSourceGraphic"
         values="0 0 0 -1 0 0 0 0 -1 0 0 0 0 -1 0 0 0 0 1 0"
         id="feColorMatrix333-3-1-9-1-8" />
      <feTurbulence
         id="feTurbulence335-1-5-7-2-5"
         type="fractalNoise"
         numOctaves="5"
         seed="1"
         baseFrequency="0.013 0.013"
         result="turbulence" />
      <feDisplacementMap
         in2="turbulence"
         id="feDisplacementMap337-4-9-7-9-6"
         in="fbSourceGraphic"
         scale="6.6"
         yChannelSelector="G"
         xChannelSelector="R"
         result="fbSourceGraphic" />
      <feColorMatrix
         result="fbSourceGraphicAlpha"
         in="fbSourceGraphic"
         values="0 0 0 -1 0 0 0 0 -1 0 0 0 0 -1 0 0 0 0 1 0"
         id="feColorMatrix435-92-4-6-3-1" />
      <feTurbulence
         id="feTurbulence437-06-9-7-9-1"
         type="fractalNoise"
         numOctaves="5"
         seed="27"
         baseFrequency="0.001 0.4414"
         result="turbulence" />
      <feDisplacementMap
         in2="turbulence"
         id="feDisplacementMap439-8-0-3-0-5"
         in="fbSourceGraphic"
         scale="4.27461"
         yChannelSelector="G"
         xChannelSelector="R" />
    </filter>
    <filter
       style="color-interpolation-filters:sRGB"
       id="filter4375-4-1-1-1-9-30-2-7-9"
       inkscape:label="Roughen">
      <feFlood
         id="feFlood4377-7-9-0-8-1-78-6-7-8"
         flood-opacity="1"
         flood-color="rgb(0,0,0)"
         result="flood" />
      <feComposite
         id="feComposite4379-3-8-8-2-77-68-1-1-4"
         in2="SourceGraphic"
         in="flood"
         operator="in"
         result="composite1" />
      <feMorphology
         id="feMorphology4393-1-0-49-8-9-8-0-1-8"
         operator="dilate"
         radius="4"
         result="result3" />
      <feComposite
         id="feComposite4385-9-5-7-0-8-4-6-5-1"
         in2="result3"
         in="SourceGraphic"
         operator="over"
         result="fbSourceGraphic" />
      <feColorMatrix
         result="fbSourceGraphicAlpha"
         in="fbSourceGraphic"
         values="0 0 0 -1 0 0 0 0 -1 0 0 0 0 -1 0 0 0 0 1 0"
         id="feColorMatrix333-3-1-9-0" />
      <feTurbulence
         id="feTurbulence335-1-5-7-3"
         type="fractalNoise"
         numOctaves="5"
         seed="1"
         baseFrequency="0.013 0.013"
         result="turbulence" />
      <feDisplacementMap
         in2="turbulence"
         id="feDisplacementMap337-4-9-7-0"
         in="fbSourceGraphic"
         scale="6.6"
         yChannelSelector="G"
         xChannelSelector="R"
         result="fbSourceGraphic" />
      <feColorMatrix
         result="fbSourceGraphicAlpha"
         in="fbSourceGraphic"
         values="0 0 0 -1 0 0 0 0 -1 0 0 0 0 -1 0 0 0 0 1 0"
         id="feColorMatrix435-92-4-6-4" />
      <feTurbulence
         id="feTurbulence437-06-9-7-4"
         type="fractalNoise"
         numOctaves="5"
         seed="27"
         baseFrequency="0.001 0.4414"
         result="turbulence" />
      <feDisplacementMap
         in2="turbulence"
         id="feDisplacementMap439-8-0-3-4"
         in="fbSourceGraphic"
         scale="4.27461"
         yChannelSelector="G"
         xChannelSelector="R" />
    </filter>
    <filter
       style="color-interpolation-filters:sRGB"
       id="filter4375-4-1-1-1-9-30-2-4"
       inkscape:label="Roughen">
      <feFlood
         id="feFlood4377-7-9-0-8-1-78-6-76"
         flood-opacity="1"
         flood-color="rgb(0,0,0)"
         result="flood" />
      <feComposite
         id="feComposite4379-3-8-8-2-77-68-1-3"
         in2="SourceGraphic"
         in="flood"
         operator="in"
         result="composite1" />
      <feMorphology
         id="feMorphology4393-1-0-49-8-9-8-0-17"
         operator="dilate"
         radius="4"
         result="result3" />
      <feComposite
         id="feComposite4385-9-5-7-0-8-4-6-59"
         in2="result3"
         in="SourceGraphic"
         operator="over"
         result="fbSourceGraphic" />
      <feColorMatrix
         result="fbSourceGraphicAlpha"
         in="fbSourceGraphic"
         values="0 0 0 -1 0 0 0 0 -1 0 0 0 0 -1 0 0 0 0 1 0"
         id="feColorMatrix333-3-1-6" />
      <feTurbulence
         id="feTurbulence335-1-5-2"
         type="fractalNoise"
         numOctaves="5"
         seed="1"
         baseFrequency="0.013 0.013"
         result="turbulence" />
      <feDisplacementMap
         in2="turbulence"
         id="feDisplacementMap337-4-9-1"
         in="fbSourceGraphic"
         scale="6.6"
         yChannelSelector="G"
         xChannelSelector="R"
         result="fbSourceGraphic" />
      <feColorMatrix
         result="fbSourceGraphicAlpha"
         in="fbSourceGraphic"
         values="0 0 0 -1 0 0 0 0 -1 0 0 0 0 -1 0 0 0 0 1 0"
         id="feColorMatrix435-92-4-7" />
      <feTurbulence
         id="feTurbulence437-06-9-8"
         type="fractalNoise"
         numOctaves="5"
         seed="27"
         baseFrequency="0.001 0.4414"
         result="turbulence" />
      <feDisplacementMap
         in2="turbulence"
         id="feDisplacementMap439-8-0-5"
         in="fbSourceGraphic"
         scale="4.27461"
         yChannelSelector="G"
         xChannelSelector="R" />
    </filter>
    <filter
       style="color-interpolation-filters:sRGB"
       id="filter4375-4-1-1-1-9-30-7"
       inkscape:label="Roughen">
      <feFlood
         id="feFlood4377-7-9-0-8-1-78-41"
         flood-opacity="1"
         flood-color="rgb(0,0,0)"
         result="flood" />
      <feComposite
         id="feComposite4379-3-8-8-2-77-68-8"
         in2="SourceGraphic"
         in="flood"
         operator="in"
         result="composite1" />
      <feMorphology
         id="feMorphology4393-1-0-49-8-9-8-59"
         operator="dilate"
         radius="4"
         result="result3" />
      <feComposite
         id="feComposite4385-9-5-7-0-8-4-7"
         in2="result3"
         in="SourceGraphic"
         operator="over"
         result="fbSourceGraphic" />
      <feColorMatrix
         result="fbSourceGraphicAlpha"
         in="fbSourceGraphic"
         values="0 0 0 -1 0 0 0 0 -1 0 0 0 0 -1 0 0 0 0 1 0"
         id="feColorMatrix333-3-5" />
      <feTurbulence
         id="feTurbulence335-1-3"
         type="fractalNoise"
         numOctaves="5"
         seed="1"
         baseFrequency="0.013 0.013"
         result="turbulence" />
      <feDisplacementMap
         in2="turbulence"
         id="feDisplacementMap337-4-8"
         in="fbSourceGraphic"
         scale="6.6"
         yChannelSelector="G"
         xChannelSelector="R"
         result="fbSourceGraphic" />
      <feColorMatrix
         result="fbSourceGraphicAlpha"
         in="fbSourceGraphic"
         values="0 0 0 -1 0 0 0 0 -1 0 0 0 0 -1 0 0 0 0 1 0"
         id="feColorMatrix435-92-8" />
      <feTurbulence
         id="feTurbulence437-06-3"
         type="fractalNoise"
         numOctaves="5"
         seed="27"
         baseFrequency="0.001 0.4414"
         result="turbulence" />
      <feDisplacementMap
         in2="turbulence"
         id="feDisplacementMap439-8-1"
         in="fbSourceGraphic"
         scale="4.27461"
         yChannelSelector="G"
         xChannelSelector="R" />
    </filter>
    <filter
       style="color-interpolation-filters:sRGB"
       id="filter4375-4-1-1-1-9-8"
       inkscape:label="Roughen">
      <feFlood
         id="feFlood4377-7-9-0-8-1-96"
         flood-opacity="1"
         flood-color="rgb(0,0,0)"
         result="flood" />
      <feComposite
         id="feComposite4379-3-8-8-2-77-4"
         in2="SourceGraphic"
         in="flood"
         operator="in"
         result="composite1" />
      <feMorphology
         id="feMorphology4393-1-0-49-8-9-33"
         operator="dilate"
         radius="4"
         result="result3" />
      <feComposite
         id="feComposite4385-9-5-7-0-8-38"
         in2="result3"
         in="SourceGraphic"
         operator="over"
         result="fbSourceGraphic" />
      <feColorMatrix
         result="fbSourceGraphicAlpha"
         in="fbSourceGraphic"
         values="0 0 0 -1 0 0 0 0 -1 0 0 0 0 -1 0 0 0 0 1 0"
         id="feColorMatrix333-6" />
      <feTurbulence
         id="feTurbulence335-0"
         type="fractalNoise"
         numOctaves="5"
         seed="1"
         baseFrequency="0.013 0.013"
         result="turbulence" />
      <feDisplacementMap
         in2="turbulence"
         id="feDisplacementMap337-48"
         in="fbSourceGraphic"
         scale="6.6"
         yChannelSelector="G"
         xChannelSelector="R"
         result="fbSourceGraphic" />
      <feColorMatrix
         result="fbSourceGraphicAlpha"
         in="fbSourceGraphic"
         values="0 0 0 -1 0 0 0 0 -1 0 0 0 0 -1 0 0 0 0 1 0"
         id="feColorMatrix435-8" />
      <feTurbulence
         id="feTurbulence437-8"
         type="fractalNoise"
         numOctaves="5"
         seed="27"
         baseFrequency="0.001 0.4414"
         result="turbulence" />
      <feDisplacementMap
         in2="turbulence"
         id="feDisplacementMap439-9"
         in="fbSourceGraphic"
         scale="4.27461"
         yChannelSelector="G"
         xChannelSelector="R" />
    </filter>
  </defs>
  <sodipodi:namedview
     pagecolor="#ffffff"
     bordercolor="#666666"
     borderopacity="1"
     objecttolerance="10"
     gridtolerance="10"
     guidetolerance="10"
     inkscape:pageopacity="0"
     inkscape:pageshadow="2"
     inkscape:window-width="1842"
     inkscape:window-height="1051"
     id="namedview4"
     showgrid="false"
     inkscape:zoom="0.42"
     inkscape:cx="1705.5571"
     inkscape:cy="2547.3119"
     inkscape:window-x="69"
     inkscape:window-y="-9"
     inkscape:window-maximized="1"
     inkscape:current-layer="layer3" />
  <g
     inkscape:groupmode="layer"
     id="layer2"
     inkscape:label="artwork"
     sodipodi:insensitive="true">
    <image
       sodipodi:absref="/home/midgard/git/peppercarrot/comics/ep27_Coriander-s-Invention/lang/id/../gfx_Pepper-and-Carrot_by-David-Revoy_E27P04.png"
       xlink:href="../gfx_Pepper-and-Carrot_by-David-Revoy_E27P04.png"
       y="0"
       x="0"
       id="image10"
       height="3503"
       width="2481" />
  </g>
  <g
     inkscape:groupmode="layer"
     id="layer3"
     inkscape:label="speechbubbles">
    <path
       style="fill:#ffffff;fill-rule:evenodd;stroke:none;stroke-width:0.96241331px;stroke-linecap:butt;stroke-linejoin:miter;stroke-opacity:1"
       d="m 876.54294,189.14731 c -1.03677,-36.25043 26.95638,-52.36173 33.1771,-56.38956 6.2207,-4.02782 15.55175,-3.02087 22.80924,-7.0487 7.25749,-4.02783 42.50815,-11.07652 65.31738,-11.07652 22.80934,0 50.80244,5.03479 58.05984,4.02783 7.2576,-1.00696 69.4646,-4.02783 85.0164,-1.00696 15.5518,3.02087 74.6483,4.02782 90.2001,11.07653 15.5517,7.04869 35.2507,32.2226 35.2507,41.28521 0,9.06261 5.1839,36.25044 -4.147,45.31305 -9.3312,9.0626 -5.184,12.08348 -20.7358,21.14609 -69.8719,27.34549 -88.2964,31.84897 -117.1566,38.26434 -31.1035,9.0626 -54.9495,9.06261 -72.5747,8.05565 -17.6255,-1.00695 -77.75897,-5.03478 -104.71535,-19.13217 -26.95639,-14.0974 -67.39095,-22.15305 -70.50131,-74.51479 z"
       id="path1279"
       inkscape:connector-curvature="0"
       sodipodi:nodetypes="cssscscssccssc" />
    <path
       style="fill:#ffffff;fill-rule:evenodd;stroke:none;stroke-width:1.1050719px;stroke-linecap:butt;stroke-linejoin:miter;stroke-opacity:1"
       d="m 1067.4306,318.88937 c 5.9492,-46.08889 22.6069,-55.30667 48.7834,-63.37223 26.1764,-8.06555 127.8096,-17.02785 155.176,-14.72339 27.3662,2.30444 99.9431,10.91435 117.7907,17.82767 17.8475,6.91335 45.9099,29.15794 41.1506,60.26795 -4.7594,31.11001 -14.2781,69.13334 -53.5427,81.80778 -39.2648,12.67445 -111.8448,13.82667 -151.1096,12.67445 -39.2646,-1.15223 -95.187,-11.52223 -129.6923,-40.32779 -34.5053,-28.80556 -28.5561,-54.15444 -28.5561,-54.15444 z"
       id="path1281"
       inkscape:connector-curvature="0"
       sodipodi:nodetypes="csscccssc" />
    <path
       style="fill:#ffffff;fill-rule:evenodd;stroke:none;stroke-width:1px;stroke-linecap:butt;stroke-linejoin:miter;stroke-opacity:1"
       d="m 1101.3545,305.93749 c 0,0 -38.9095,7.56573 -51.8793,10.80819 -12.9698,3.24246 -65.92994,18.37392 -72.41485,57.2834 41.07115,-39.9903 71.33405,-37.82866 95.11205,-37.82866 23.778,0 67.0108,5.40409 67.0108,5.40409 l -3.2425,-23.77801 z"
       id="path1283"
       inkscape:connector-curvature="0" />
    <path
       style="fill:#ffffff;fill-rule:evenodd;stroke:none;stroke-width:1px;stroke-linecap:butt;stroke-linejoin:miter;stroke-opacity:1"
       d="m 1973.0303,153.86655 c 4.9247,-32.11042 29.5477,-42.8139 47.2764,-46.02493 17.7287,-3.21105 75.8393,-3.21105 91.5981,9.63312 15.7587,12.84417 20.6833,36.39181 14.7738,43.88425 -5.9096,7.49242 -13.7889,29.96972 -35.4572,31.04006 -21.6685,1.07035 -67.9599,5.35174 -86.6735,-6.42207 -18.7136,-11.77383 -33.4874,-14.98487 -31.5176,-32.11043 z"
       id="path1285"
       inkscape:connector-curvature="0" />
    <path
       style="fill:#ffffff;fill-rule:evenodd;stroke:none;stroke-width:1.09276056px;stroke-linecap:butt;stroke-linejoin:miter;stroke-opacity:1"
       d="m 2003.9357,216.98909 c 0,-27.25544 87.7915,-60.14993 145.1486,-59.21009 57.3571,0.93985 119.3963,15.03748 131.102,33.83434 11.7055,18.79685 26.9226,29.13512 7.0232,47.93197 -19.8994,18.79685 -118.2258,19.73669 -148.6602,19.73669 -30.4344,0 -97.1558,-5.63905 -112.373,-17.85701 -15.2173,-12.21795 -22.2406,-24.4359 -22.2406,-24.4359 z"
       id="path1287"
       inkscape:connector-curvature="0" />
    <path
       style="fill:#ffffff;fill-rule:evenodd;stroke:none;stroke-width:1.0171957px;stroke-linecap:butt;stroke-linejoin:miter;stroke-opacity:1"
       d="m 1996.414,269.32292 c 37.9253,-29.13512 58.0143,-27.80614 98.8568,-30.62567 40.8426,-2.81953 141.6918,-9.16896 181.5619,-1.65022 39.8703,7.51874 77.7956,15.97732 87.52,26.31559 9.7244,10.33827 33.063,40.41323 33.063,53.57103 0,13.15779 13.6142,56.39055 -11.6693,84.58583 -25.2835,28.19528 -50.567,48.87181 -96.2719,47.93197 -45.7048,-0.93984 -108.9136,0 -139.0593,0.93984 -30.1457,0.93985 -122.5279,-11.27811 -139.0594,-35.71401 -16.5315,-24.43591 -39.8701,-61.08977 -35.9804,-81.76631 3.8898,-20.67654 21.0386,-63.58805 21.0386,-63.58805 z"
       id="path1289"
       inkscape:connector-curvature="0"
       sodipodi:nodetypes="csssssssscc" />
    <path
       style="fill:#ffffff;fill-rule:evenodd;stroke:none;stroke-width:1px;stroke-linecap:butt;stroke-linejoin:miter;stroke-opacity:1"
       d="m 2095.849,420.31633 c -15.0375,31.95465 -23.494,42.02103 -30.0729,48.59993 -6.5789,6.5789 -37.5958,15.30937 -55.4528,16.24921 39.4734,-14.09764 47.932,-23.49607 51.6913,-36.65386 3.7594,-13.1578 11.2781,-51.69134 11.2781,-51.69134 l 26.3156,20.67653 z"
       id="path1291"
       inkscape:connector-curvature="0"
       sodipodi:nodetypes="csccccc" />
    <path
       style="fill:#ffffff;fill-rule:evenodd;stroke:none;stroke-width:1px;stroke-linecap:butt;stroke-linejoin:miter;stroke-opacity:1"
       d="m 1777.4068,1044.4611 -33.5594,52.2035 57.1753,-23.6158 -62.1471,65.8759 59.6612,-26.1018 -53.4465,47.2318 69.6047,-12.4294 -59.6612,33.5594 32.3165,-3.7288 -23.6159,12.4294 67.1189,13.6723 -52.2036,6.2148 48.4748,17.4011 -47.2318,3.7289 72.0906,64.6329 -99.4353,-12.4294 23.6159,23.6159 -36.0454,-13.6723 17.4012,31.0735 -37.2882,-24.8588 7.4576,26.1017 -18.6441,-16.1582 1.2429,34.8024 -27.3447,-29.8306 2.4859,32.3165 -34.8024,-34.8024 1.243,29.8306 -17.4012,-31.0736 -7.4577,34.8024 -26.1017,-34.8024 2.4858,28.5877 -18.6441,-33.5594 -1.2429,73.3335 -37.2883,-85.7629 -6.2147,27.3447 -8.7006,-32.3165 -14.9153,31.0735 -7.4576,-29.8306 -13.6724,16.1583 -11.1865,-14.9153 -12.4294,19.887 -3.7288,-21.13 -8.7006,19.8871 -3.7288,-19.8871 -17.4012,33.5595 -4.9718,-18.6442 -19.8871,34.8024 -2.4858,-14.9153 -32.3165,67.1189 v -84.5201 l -41.0171,53.4465 4.9718,-28.5877 -22.373,28.5877 7.5012,-45.2782 -31.9795,27.005 14.2131,-33.4009 -61.1164,20.609 27.7156,-54.0098 -34.8221,10.6598 0.7106,-62.5377 18.4771,-9.9492 -14.9238,2.8426 36.9541,-27.0049 -48.3246,4.9746 45.482,-34.8221 -43.35,-6.3959 37.6647,-22.0304 -43.35,-24.8729 58.2738,-12.0812 -49.0353,-31.2689 v -20.609 z"
       id="path1293"
       inkscape:connector-curvature="0" />
    <path
       style="fill:#ffffff;fill-rule:evenodd;stroke:none;stroke-width:1px;stroke-linecap:butt;stroke-linejoin:miter;stroke-opacity:1"
       d="m 1640.2296,1293.9613 c 0,0 19.6141,33.5074 29.4212,50.6698 9.807,17.1623 21.2486,35.1419 27.7866,61.2941 -5.7208,-34.3247 -5.7208,-49.0353 -5.7208,-49.0353 0,0 26.4905,38.6087 30.8163,90.9145 2.2228,26.8777 -11.2021,67.6329 -21.8265,92.1505 17.1624,-24.5176 28.604,-44.1318 28.604,-44.1318 0,0 -0.8591,74.46 -22.1078,111.2364 -21.2486,36.7765 -31.0138,80.0012 -96.3941,102.8843 80.0909,-28.6039 94.6224,-64.6026 111.9236,-99.3249 24.4829,-49.1353 40.5245,-142.0849 41.3417,-172.3233 -14.7106,32.6901 -20.6507,41.3215 -20.6507,41.3215 0,0 8.7704,-25.4739 -3.4884,-75.3264 -12.2589,-49.8526 -51.4871,-113.5984 -60.4769,-121.771 -8.9898,-8.1725 -39.2282,11.4416 -39.2282,11.4416 z"
       id="path1295"
       inkscape:connector-curvature="0"
       sodipodi:nodetypes="ccccsccccsccccc" />
    <path
       style="fill:#ffffff;fill-rule:evenodd;stroke:none;stroke-width:1px;stroke-linecap:butt;stroke-linejoin:miter;stroke-opacity:1"
       d="m 2013.5657,1141.4106 c 4.3233,-30.263 22.6972,-45.3944 47.5561,-48.6369 24.8588,-3.2425 131.8599,-1.0808 145.9105,6.4849 14.0507,7.5657 43.2328,24.8588 30.263,60.5259 -12.9699,35.667 -58.3643,30.2629 -81.0615,30.2629 -22.6972,0 -109.1627,3.2425 -123.2133,-10.8082 -14.0507,-14.0506 -18.3739,-3.2424 -19.4548,-37.8286 z"
       id="path1297"
       inkscape:connector-curvature="0" />
    <path
       style="fill:#ffffff;fill-rule:evenodd;stroke:none;stroke-width:1.19421005px;stroke-linecap:butt;stroke-linejoin:miter;stroke-opacity:1"
       d="m 2228.4977,1151.7084 c 52.9241,5.9179 84.4534,14.7947 100.2179,32.5487 15.7647,17.7539 36.0334,29.5899 32.6553,71.0155 -3.3781,41.4257 2.2521,66.577 -11.2604,84.331 -13.5125,17.7538 -13.5125,32.5488 -41.6636,39.9462 -28.1512,7.3975 -167.7805,10.3565 -182.4192,10.3565 -14.6385,0 -154.268,1.4794 -166.6544,-1.4795 -12.3865,-2.959 -52.9241,-31.0694 -60.8064,-57.7001 -7.8823,-26.6309 -14.6386,-60.6591 -9.0084,-79.8926 5.6303,-19.2333 31.5293,-63.618 49.546,-69.536 18.0167,-5.9179 51.798,-19.2333 78.8231,-19.2333 27.025,0 154.268,-7.3975 154.268,-7.3975 z"
       id="path1299"
       inkscape:connector-curvature="0" />
    <path
       style="fill:#ffffff;fill-rule:evenodd;stroke:none;stroke-width:1.06786799px;stroke-linecap:butt;stroke-linejoin:miter;stroke-opacity:1"
       d="m 1861.7525,1391.0883 c 22.185,-28.1013 59.9165,-43.8908 80.8692,-46.0524 20.9525,-2.1617 246.1047,3.629 262.1272,0.3865 16.0226,-3.2425 134.3429,0 152.8304,8.6466 18.4875,8.6465 50.5326,37.8286 50.5326,61.6066 0,23.7781 -7.395,73.4957 -23.4175,91.8697 -21.2316,60.0458 -26.3049,46.6108 -59.1602,48.6368 -33.6495,2.075 -138.0404,4.3233 -138.0404,4.3233 0,0 -85.0427,6.4849 -104.7628,7.5657 -19.72,1.0808 -136.8078,1.5037 -158.9928,-7.1429 -22.1852,-8.6465 -72.9102,-8.9542 -76.6077,-37.0555 -3.6975,-28.1013 -1.4006,-104.6831 14.622,-132.7844 z"
       id="path1301"
       inkscape:connector-curvature="0"
       sodipodi:nodetypes="ccccscscsccc" />
    <path
       style="fill:#ffffff;fill-rule:evenodd;stroke:none;stroke-width:1px;stroke-linecap:butt;stroke-linejoin:miter;stroke-opacity:1"
       d="m 2013.1428,1505.015 c 0,0 15.9773,25.3757 20.6765,41.3531 1.8798,49.8116 -24.4358,62.0296 -23.496,75.1874 0.9399,21.6163 8.4586,31.9546 31.9546,49.8116 -30.0749,-14.0976 -49.8116,-25.3757 -50.7515,-46.9921 -0.9398,-21.6164 17.857,-48.8718 16.9172,-58.2702 -0.9398,-9.3985 -4.6992,-33.8344 -21.6164,-51.6914 -16.9171,-17.857 26.3156,-9.3984 26.3156,-9.3984 z"
       id="path1303"
       inkscape:connector-curvature="0"
       sodipodi:nodetypes="cccccccc" />
    <path
       style="fill:#ffffff;fill-rule:evenodd;stroke:none;stroke-width:1px;stroke-linecap:butt;stroke-linejoin:miter;stroke-opacity:1"
       d="m 486.36854,3108.5011 c -35.66703,-49.7177 -65.92996,-99.4354 -78.89979,-134.0216 19.45474,8.6466 34.58621,6.4849 44.31358,23.778 -7.56573,-51.8793 -62.6875,-153.4763 -82.14224,-189.1433 27.02047,67.0108 56.20258,129.6983 60.52586,150.2339 -27.02047,-15.1315 -44.31358,-15.1315 -63.76832,-15.1315 14.05065,29.1821 56.20259,139.4256 57.28341,168.6078 1.08081,29.1821 62.6875,-4.3233 62.6875,-4.3233 z"
       id="path1305"
       inkscape:connector-curvature="0" />
    <path
       style="fill:#ffffff;fill-rule:evenodd;stroke:none;stroke-width:1.20037425px;stroke-linecap:butt;stroke-linejoin:miter;stroke-opacity:1"
       d="m 358.79654,3074.2595 1.70337,-17.7869 c 0,0 11.92361,23.7158 27.25402,26.6804 15.33039,2.9644 98.79585,-27.6686 139.6769,-72.1359 -13.62703,39.5265 -5.11015,46.4436 5.11011,46.4436 10.22027,0 51.1013,-15.8106 51.1013,-15.8106 l -5.11012,370.5611 c 0,0 -422.43741,-3.9527 -466.7252,-3.9527 59.61818,-28.6567 37.30531,-26.5399 40.71204,-44.3268 -27.25401,10.8697 -47.69453,16.7987 -69.838419,22.7277 42.584409,-20.7514 51.101329,-47.4318 61.321559,-56.3253 -37.4743,9.8816 -52.63571,-20.8919 -79.88973,-14.9629 63.02494,-33.5975 68.13507,-62.2542 76.65193,-81.0293 -34.06751,5.929 -69.838453,27.6685 -61.321562,21.7396 23.847262,-19.7633 37.474302,-45.4556 42.584412,-64.2306 5.11016,-18.7751 -13.62699,-55.3372 -37.474248,-78.0649 30.660758,13.8342 37.474248,17.7869 51.101278,30.6331 -27.25402,-40.5147 -18.73714,-72.1359 -64.728333,-115.6151 54.508053,22.7278 105.609373,42.491 126.049913,60.2779 -6.81352,-34.5857 -23.84728,-43.4791 -42.58443,-55.3371 37.47427,13.8343 76.65194,29.6449 93.68572,49.4082 0,-16.7988 1.70337,-33.5976 1.70337,-33.5976 l 39.17766,34.5857 -3.40673,-19.7633 39.17763,26.6804 10.22028,-21.7395 z"
       id="path1307"
       inkscape:connector-curvature="0"
       sodipodi:nodetypes="ccccscccccccccscccccccccccc" />
    <path
       style="fill:#ffffff;fill-rule:evenodd;stroke:none;stroke-width:1.05335271px;stroke-linecap:butt;stroke-linejoin:miter;stroke-opacity:1"
       d="m 1212.58,2361.9794 37.7882,-34.8024 2.5192,31.0736 17.6343,-21.13 18.8941,47.2318 15.1152,-48.4748 16.3748,29.8306 6.298,-26.1017 25.1921,38.5312 1.2595,-37.2883 16.3749,18.6441 6.298,-21.13 27.7112,28.5877 -2.5192,-38.5312 30.2305,6.2147 -11.3365,-22.373 42.8264,7.4577 -26.4516,-22.373 39.0477,2.4859 -41.5669,-22.3729 36.5284,-23.6159 -54.1628,4.9717 39.0476,-44.7459 -66.7588,32.3165 17.6344,-22.3729 -39.0476,17.4012 12.596,-31.0736 -27.7112,-3.7288 -17.6345,28.5876 -1.2596,-18.6441 -18.894,23.6159 -7.5575,-26.1018 -10.077,24.8589 -11.3364,-42.26 -20.1535,38.5311 -6.2981,-24.8588 -7.5576,24.8588 -34.0092,-32.3164 5.0385,41.017 -27.7114,-24.8588 6.298,32.3165 -39.0475,-2.4859 30.2304,32.3165 -42.8265,27.3447 50.3841,-3.7288 -10.0769,16.1582 26.4516,-6.2147 -28.9707,65.8759 z"
       id="path1309"
       inkscape:connector-curvature="0" />
    <path
       style="fill:#ffffff;fill-rule:evenodd;stroke:none;stroke-width:1.22657418px;stroke-linecap:butt;stroke-linejoin:miter;stroke-opacity:1"
       d="m 1474.6757,2266.5431 60.1648,-58.3642 -13.0087,69.1724 19.513,-4.3233 -4.8783,8.6466 107.3211,-61.6067 -48.7823,70.2532 32.5215,-2.1616 -35.7738,16.2123 52.0346,11.889 -12.9178,12.3886 90.9694,5.9853 -102.4428,16.2123 65.0429,25.9396 -84.5559,-1.0808 73.1735,42.152 -131.7121,-24.8589 11.3825,11.889 -47.1562,-11.889 19.513,58.3642 -53.6606,-52.9601 -29.2693,22.6972 v -17.2931 l -39.0259,33.5054 4.8783,-50.7985 -42.278,10.8082 19.5129,-22.6972 -85.6941,-7.6738 71.0595,-12.8618 -74.7995,-25.6694 63.475,-9.3689 -35.4252,-6.7894 60.1583,-17.7761 1.226,-22.5384 37.3998,16.2123 -9.7564,-23.778 29.2693,16.2122 -40.6519,-57.2834 56.9127,48.6369 v -18.3739 z"
       id="path1311"
       inkscape:connector-curvature="0"
       sodipodi:nodetypes="ccccccccccccccccccccccccccccccccccccccccc" />
    <path
       style="fill:#ffffff;fill-rule:evenodd;stroke:none;stroke-width:1px;stroke-linecap:butt;stroke-linejoin:miter;stroke-opacity:1"
       d="m 1982.222,2329.2306 59.445,-70.2532 -16.2123,63.7683 56.2026,-57.2834 -27.0204,49.7177 69.1724,-59.4451 -30.263,77.819 29.1822,-22.6972 -14.0507,27.0205 38.9095,-10.8082 -29.1821,34.5862 h 69.1724 l -69.1724,34.5862 56.2026,10.8082 -56.2026,12.9698 46.4752,37.8287 -60.5259,-17.2931 29.1821,42.1519 -47.556,-22.6972 7.5657,79.9806 -91.8696,-78.8998 -5.4041,58.3642 -33.5054,-59.445 -30.2629,48.6368 1.0808,-44.3135 -51.8793,75.6573 3.2425,-87.5463 -69.1724,98.3545 22.6972,-19.4548 1.0808,17.2932 -22.6972,41.0711 23.778,-20.5356 1.0808,12.9698 -43.2327,97.2737 25.9396,-87.5463 -22.6972,30.2629 -4.3233,-27.0204 17.2931,-29.1821 -17.2931,11.889 -4.3232,-20.5356 37.8286,-92.9504 c 0,0 -61.6066,88.6271 -60.5258,84.3039 1.0808,-4.3233 15.1314,-91.8697 15.1314,-91.8697 l -50.7985,116.7285 -1.0808,-115.6476 -47.556,95.112 2.1616,-79.9806 -101.1151,59.0926 37.3468,-79.6281 -114.5668,60.5258 61.6067,-54.0409 -91.8696,44.3136 85.3847,-73.4957 -81.0615,6.4849 69.1725,-19.4548 -87.5464,-32.4245 103.7586,-8.6466 -48.6368,-43.2327 78.8998,12.9698 -61.6599,-67.5029 93.0036,57.7755 -35.667,-59.445 76.7381,50.7985 -19.0141,-46.9159 61.1661,47.9967 -17.2931,-51.5915 51.8793,42.9449 -10.8082,-41.0711 57.2834,55.1218 -3.2424,-55.1218 34.5862,32.4246 6.4849,-47.5561 23.778,57.2834 39.9903,-61.6066 3.2424,74.5765 37.8287,-73.4957 1.0808,69.1724 41.0712,-58.3642 z"
       id="path1313"
       inkscape:connector-curvature="0"
       sodipodi:nodetypes="ccccccccccccccccccccccccccccccccccccccccccccccccccccccccccccccccccccccccccccccc" />
  </g>
  <g
     inkscape:groupmode="layer"
     id="layer1"
     inkscape:label="txt">
    <text
       xml:space="preserve"
       style="font-style:normal;font-variant:normal;font-weight:normal;font-stretch:normal;line-height:0%;font-family:Lavi;-inkscape-font-specification:Lavi;text-align:center;letter-spacing:0px;word-spacing:0px;text-anchor:middle;fill:#000000;fill-opacity:1;stroke:none"
       x="1077.4482"
       y="184.12338"
       id="text4246"><tspan
         sodipodi:role="line"
         style="font-size:45px;line-height:1.20000005"
         x="1077.4482"
         y="184.12338"
         id="tspan18">Jadi, bagaimana</tspan><tspan
         sodipodi:role="line"
         style="font-size:45px;line-height:1.20000005"
         x="1077.4482"
         y="238.12338"
         id="tspan344">menurutmu?</tspan></text>
    <text
       xml:space="preserve"
       style="font-style:normal;font-variant:normal;font-weight:normal;font-stretch:normal;line-height:0%;font-family:Lavi;-inkscape-font-specification:Lavi;text-align:center;letter-spacing:0px;word-spacing:0px;text-anchor:middle;fill:#000000;fill-opacity:1;stroke:none"
       x="1249.9851"
       y="312.20074"
       id="text4246-3"><tspan
         sodipodi:role="line"
         style="font-size:45px;line-height:1.20000005"
         x="1249.9851"
         y="312.20074"
         id="tspan43">Apa kamu mau</tspan><tspan
         sodipodi:role="line"
         style="font-size:45px;line-height:1.20000005"
         x="1249.9851"
         y="366.20074"
         id="tspan348">mencobanya?</tspan></text>
    <text
       xml:space="preserve"
       style="font-style:normal;font-variant:normal;font-weight:normal;font-stretch:normal;line-height:0%;font-family:Lavi;-inkscape-font-specification:Lavi;text-align:center;letter-spacing:0px;word-spacing:0px;text-anchor:middle;fill:#000000;fill-opacity:1;stroke:none"
       x="2057.5549"
       y="163.66296"
       id="text4246-3-5"><tspan
         sodipodi:role="line"
         style="font-size:45px;line-height:1.20000005"
         x="2057.5549"
         y="163.66296"
         id="tspan43-5">Bah.</tspan></text>
    <text
       xml:space="preserve"
       style="font-style:normal;font-variant:normal;font-weight:normal;font-stretch:normal;line-height:0%;font-family:Lavi;-inkscape-font-specification:Lavi;text-align:center;letter-spacing:0px;word-spacing:0px;text-anchor:middle;fill:#000000;fill-opacity:1;stroke:none"
       x="2158.7256"
       y="229.89568"
       id="text4246-3-5-6"><tspan
         sodipodi:role="line"
         style="font-size:45px;line-height:1.20000005"
         x="2158.7256"
         y="229.89568"
         id="tspan43-5-2">Tidak perlu.</tspan></text>
    <text
       xml:space="preserve"
       style="font-style:normal;font-variant:normal;font-weight:normal;font-stretch:normal;line-height:0%;font-family:Lavi;-inkscape-font-specification:Lavi;text-align:center;letter-spacing:0px;word-spacing:0px;text-anchor:middle;fill:#000000;fill-opacity:1;stroke:none"
       x="2189.9602"
       y="307.91232"
       id="text4246-3-5-6-9"><tspan
         sodipodi:role="line"
         style="font-size:45px;line-height:1.20000005"
         x="2189.9602"
         y="307.91232"
         id="tspan106">Aku tidak punya</tspan><tspan
         sodipodi:role="line"
         style="font-size:45px;line-height:1.20000005"
         x="2189.9602"
         y="361.91232"
         id="tspan355">masalah psikologis</tspan><tspan
         sodipodi:role="line"
         style="font-size:45px;line-height:1.20000005"
         x="2189.9602"
         y="415.91232"
         id="tspan357">apa-apa.</tspan></text>
    <text
       xml:space="preserve"
       style="font-style:normal;font-variant:normal;font-weight:normal;font-stretch:normal;line-height:0%;font-family:Lavi;-inkscape-font-specification:Lavi;letter-spacing:0px;word-spacing:0px;fill:#000000;fill-opacity:1;stroke:#000000;stroke-width:0;stroke-linecap:square;stroke-miterlimit:4;stroke-dasharray:none;stroke-opacity:1;filter:url(#filter4375-4-1-1-1-9)"
       x="787.65729"
       y="1584.5073"
       id="text4580"
       transform="matrix(1.9961585,-1.2383071,0.76605423,2.8718732,-1978.5524,-2151.5208)"><tspan
         sodipodi:role="line"
         id="tspan4582"
         x="787.65729"
         y="1584.5073"
         style="font-style:normal;font-variant:normal;font-weight:normal;font-stretch:normal;font-size:70px;line-height:1.25;font-family:ComicSpice;-inkscape-font-specification:ComicSpice;fill:#ffffff;stroke-width:0;stroke-linecap:square;stroke-miterlimit:4;stroke-dasharray:none">B</tspan></text>
    <text
       xml:space="preserve"
       style="font-style:normal;font-variant:normal;font-weight:normal;font-stretch:normal;font-size:14.34498882px;line-height:0%;font-family:Lavi;-inkscape-font-specification:Lavi;text-align:center;letter-spacing:0px;word-spacing:0px;text-anchor:middle;fill:#000000;fill-opacity:1;stroke:none;stroke-width:1"
       x="1648.3362"
       y="1114.5336"
       id="text4246-3-5-6-9-8"
       transform="matrix(0.98633278,0,-0.08960699,1.0138566,0,0)"><tspan
         sodipodi:role="line"
         style="font-style:normal;font-variant:normal;font-weight:bold;font-stretch:normal;font-size:53.7937088px;line-height:1.20000005;font-family:Lavi;-inkscape-font-specification:'Lavi Bold';stroke-width:1"
         x="1648.3362"
         y="1114.5336"
         id="tspan999">HEI, APA YANG</tspan><tspan
         sodipodi:role="line"
         style="font-style:normal;font-variant:normal;font-weight:bold;font-stretch:normal;font-size:53.7937088px;line-height:1.20000005;font-family:Lavi;-inkscape-font-specification:'Lavi Bold';stroke-width:1"
         x="1648.3362"
         y="1179.0861"
         id="tspan364">SALAH DENGAN</tspan><tspan
         sodipodi:role="line"
         style="font-style:normal;font-variant:normal;font-weight:bold;font-stretch:normal;font-size:53.7937088px;line-height:1.20000005;font-family:Lavi;-inkscape-font-specification:'Lavi Bold';stroke-width:1"
         x="1648.3362"
         y="1243.6384"
         id="tspan366">ROBOTMU?!</tspan></text>
    <text
       xml:space="preserve"
       style="font-style:normal;font-variant:normal;font-weight:normal;font-stretch:normal;font-size:13.70881462px;line-height:0%;font-family:Lavi;-inkscape-font-specification:Lavi;text-align:center;letter-spacing:0px;word-spacing:0px;text-anchor:middle;fill:#000000;fill-opacity:1;stroke:none;stroke-width:1"
       x="2302.5737"
       y="1155.7852"
       id="text4246-8"
       transform="skewX(-8.8849091)"><tspan
         sodipodi:role="line"
         style="font-style:normal;font-variant:normal;font-weight:bold;font-stretch:normal;font-size:51.40805435px;line-height:1.20000005;font-family:Lavi;-inkscape-font-specification:'Lavi Bold';stroke-width:0.87534922"
         x="2302.5737"
         y="1155.7852"
         id="tspan4252-0">Maaf!</tspan></text>
    <text
       xml:space="preserve"
       style="font-style:normal;font-variant:normal;font-weight:normal;font-stretch:normal;line-height:0%;font-family:Lavi;-inkscape-font-specification:Lavi;text-align:center;letter-spacing:0px;word-spacing:0px;text-anchor:middle;fill:#000000;fill-opacity:1;stroke:none"
       x="2129.293"
       y="1232.6708"
       id="text4246-86"><tspan
         sodipodi:role="line"
         style="font-size:45px;line-height:1.20000005"
         x="2129.293"
         y="1232.6708"
         id="tspan1017">Robot itu masih ada</tspan><tspan
         sodipodi:role="line"
         style="font-size:45px;line-height:1.20000005"
         x="2129.293"
         y="1286.6708"
         id="tspan418">kecacatan yang aku</tspan><tspan
         sodipodi:role="line"
         style="font-size:45px;line-height:1.20000005"
         x="2129.293"
         y="1340.6708"
         id="tspan420">tidak bisa perbaiki.</tspan></text>
    <text
       xml:space="preserve"
       style="font-style:normal;font-variant:normal;font-weight:normal;font-stretch:normal;line-height:0%;font-family:Lavi;-inkscape-font-specification:Lavi;text-align:center;letter-spacing:0px;word-spacing:0px;text-anchor:middle;fill:#000000;fill-opacity:1;stroke:none"
       x="2120.3123"
       y="1415.6349"
       id="text4246-86-3"><tspan
         sodipodi:role="line"
         style="font-size:45px;line-height:1.20000005"
         x="2120.3123"
         y="1415.6349"
         id="tspan456">Ia akan mengeluarkan</tspan><tspan
         sodipodi:role="line"
         style="font-size:45px;line-height:1.20000005"
         x="2120.3123"
         y="1469.6349"
         id="tspan465">kejutan listrik ketika ia</tspan><tspan
         sodipodi:role="line"
         style="font-size:45px;line-height:1.20000005"
         x="2120.3123"
         y="1523.6349"
         id="tspan467">mendeteksi <tspan
   style="font-weight:bold"
   id="tspan469">kebohongan</tspan>.</tspan></text>
    <text
       xml:space="preserve"
       style="font-style:normal;font-variant:normal;font-weight:normal;font-stretch:normal;font-size:19.15724564px;line-height:0%;font-family:Lavi;-inkscape-font-specification:Lavi;text-align:center;letter-spacing:0px;word-spacing:0px;text-anchor:middle;fill:#000000;fill-opacity:1;stroke:none;stroke-width:0.99999994"
       x="362.53256"
       y="3161.7485"
       id="text4246-86-3-3"><tspan
         sodipodi:role="line"
         style="font-size:71.83966827px;line-height:1.20000005;stroke-width:0.99999994"
         x="362.53256"
         y="3161.7485"
         id="tspan1044-3"><tspan
           style="font-style:normal;font-variant:normal;font-weight:bold;font-stretch:normal;font-family:Lavi;-inkscape-font-specification:'Lavi Bold';stroke-width:0.99999994"
           id="tspan1046-9">Kebohongan?!</tspan></tspan></text>
    <text
       xml:space="preserve"
       style="font-style:normal;font-variant:normal;font-weight:normal;font-stretch:normal;line-height:0%;font-family:Lavi;-inkscape-font-specification:Lavi;text-align:center;letter-spacing:0px;word-spacing:0px;text-anchor:middle;fill:#000000;fill-opacity:1;stroke:none"
       x="348.97818"
       y="3235.1963"
       id="text4246-86-3-2"><tspan
         sodipodi:role="line"
         style="font-style:normal;font-variant:normal;font-weight:normal;font-stretch:normal;font-size:45px;line-height:1.20000005;font-family:Lavi;-inkscape-font-specification:'Lavi Bold'"
         x="348.97818"
         y="3235.1963"
         id="tspan1116">Tapi aku tidak</tspan><tspan
         sodipodi:role="line"
         style="font-style:normal;font-variant:normal;font-weight:normal;font-stretch:normal;font-size:45px;line-height:1.20000005;font-family:Lavi;-inkscape-font-specification:'Lavi Bold'"
         x="348.97818"
         y="3289.1963"
         id="tspan524">pernah berbohong</tspan><tspan
         sodipodi:role="line"
         style="font-style:normal;font-variant:normal;font-weight:normal;font-stretch:normal;font-size:45px;line-height:1.20000005;font-family:Lavi;-inkscape-font-specification:'Lavi Bold'"
         x="348.97818"
         y="3343.1963"
         id="tspan526">seumur hidupku!</tspan></text>
    <text
       xml:space="preserve"
       style="font-style:normal;font-variant:normal;font-weight:normal;font-stretch:normal;font-size:14.11471462px;line-height:0%;font-family:Lavi;-inkscape-font-specification:Lavi;text-align:center;letter-spacing:14.30004215px;word-spacing:0px;text-anchor:middle;fill:#000000;fill-opacity:1;stroke:none;stroke-width:1"
       x="1384.6864"
       y="2188.7476"
       id="text4246-6"
       transform="scale(0.94973823,1.0529217)"><tspan
         sodipodi:role="line"
         style="font-style:normal;font-variant:normal;font-weight:bold;font-stretch:normal;font-size:52.9301796px;line-height:1.20000005;font-family:Lavi;-inkscape-font-specification:'Lavi Bold';letter-spacing:0.90000004px;stroke-width:1"
         x="1385.1364"
         y="2188.7476"
         id="tspan4252-00">INI...</tspan></text>
    <text
       xml:space="preserve"
       style="font-style:normal;font-variant:normal;font-weight:normal;font-stretch:normal;font-size:14.11471462px;line-height:0%;font-family:Lavi;-inkscape-font-specification:Lavi;text-align:center;letter-spacing:14.30004215px;word-spacing:0px;text-anchor:middle;fill:#000000;fill-opacity:1;stroke:none;stroke-width:1"
       x="1588.8461"
       y="2240.072"
       id="text4246-6-6"
       transform="scale(0.94973823,1.0529217)"><tspan
         sodipodi:role="line"
         style="font-style:normal;font-variant:normal;font-weight:bold;font-stretch:normal;font-size:52.9301796px;line-height:1.20000005;font-family:Lavi;-inkscape-font-specification:'Lavi Bold';letter-spacing:0.90000004px;stroke-width:1"
         x="1589.296"
         y="2240.072"
         id="tspan4252-00-4">TIDAK...</tspan></text>
    <text
       xml:space="preserve"
       style="font-style:normal;font-variant:normal;font-weight:normal;font-stretch:normal;font-size:28.73172379px;line-height:0%;font-family:Lavi;-inkscape-font-specification:Lavi;text-align:center;letter-spacing:29.10897446px;word-spacing:0px;text-anchor:middle;fill:#000000;fill-opacity:1;stroke:none;stroke-width:1"
       x="2469.9211"
       y="2298.9741"
       id="text4246-6-6-3"
       transform="matrix(0.9442778,0,-0.21829887,1.0590104,0,0)"><tspan
         sodipodi:role="line"
         style="font-style:normal;font-variant:normal;font-weight:bold;font-stretch:normal;font-size:107.74396515px;line-height:1.20000005;font-family:Lavi;-inkscape-font-specification:'Lavi Bold';letter-spacing:4px;stroke-width:1"
         x="2471.9211"
         y="2298.9741"
         id="tspan4252-00-4-7">LUCU!!!</tspan></text>
    <text
       xml:space="preserve"
       style="font-style:normal;font-variant:normal;font-weight:normal;font-stretch:normal;line-height:0%;font-family:Lavi;-inkscape-font-specification:Lavi;letter-spacing:0px;word-spacing:0px;fill:#000000;fill-opacity:1;stroke:#000000;stroke-width:0;stroke-linecap:square;stroke-miterlimit:4;stroke-dasharray:none;stroke-opacity:1;filter:url(#filter4375-4-1-1-1-9-30)"
       x="787.65729"
       y="1584.5073"
       id="text4580-9"
       transform="matrix(1.7586503,-1.0976669,0.6749071,2.5457016,-1569.1013,-1763.5608)"><tspan
         sodipodi:role="line"
         id="tspan4582-26"
         x="787.65729"
         y="1584.5073"
         style="font-style:normal;font-variant:normal;font-weight:normal;font-stretch:normal;font-size:70px;line-height:1.25;font-family:ComicSpice;-inkscape-font-specification:ComicSpice;fill:#ffffff;stroke-width:0;stroke-linecap:square;stroke-miterlimit:4;stroke-dasharray:none">Z</tspan></text>
    <text
       xml:space="preserve"
       style="font-style:normal;font-variant:normal;font-weight:normal;font-stretch:normal;line-height:0%;font-family:Lavi;-inkscape-font-specification:Lavi;letter-spacing:0px;word-spacing:0px;fill:#000000;fill-opacity:1;stroke:#000000;stroke-width:0;stroke-linecap:square;stroke-miterlimit:4;stroke-dasharray:none;stroke-opacity:1;filter:url(#filter4375-4-1-1-1-9-30-2)"
       x="787.65729"
       y="1584.5073"
       id="text4580-9-9"
       transform="matrix(1.6622025,-0.96543648,0.55706103,2.3678143,-1232.867,-1600.8627)"><tspan
         sodipodi:role="line"
         id="tspan4582-26-1"
         x="787.65729"
         y="1584.5073"
         style="font-style:normal;font-variant:normal;font-weight:normal;font-stretch:normal;font-size:70px;line-height:1.25;font-family:ComicSpice;-inkscape-font-specification:ComicSpice;fill:#ffffff;stroke-width:0;stroke-linecap:square;stroke-miterlimit:4;stroke-dasharray:none">Z</tspan></text>
    <text
       xml:space="preserve"
       style="font-style:normal;font-variant:normal;font-weight:normal;font-stretch:normal;line-height:0%;font-family:Lavi;-inkscape-font-specification:Lavi;letter-spacing:0px;word-spacing:0px;fill:#000000;fill-opacity:1;stroke:#000000;stroke-width:0;stroke-linecap:square;stroke-miterlimit:4;stroke-dasharray:none;stroke-opacity:1;filter:url(#filter4375-4-1-1-1-9-30-2-7)"
       x="787.65729"
       y="1584.5073"
       id="text4580-9-9-6"
       transform="matrix(1.3746712,-0.82287768,0.46069944,2.0181768,-783.34869,-1169.7907)"><tspan
         sodipodi:role="line"
         id="tspan4582-26-1-5"
         x="787.65729"
         y="1584.5073"
         style="font-style:normal;font-variant:normal;font-weight:normal;font-stretch:normal;font-size:70px;line-height:1.25;font-family:ComicSpice;-inkscape-font-specification:ComicSpice;fill:#ffffff;stroke-width:0;stroke-linecap:square;stroke-miterlimit:4;stroke-dasharray:none">Z</tspan></text>
    <text
       xml:space="preserve"
       style="font-style:normal;font-variant:normal;font-weight:normal;font-stretch:normal;line-height:0%;font-family:Lavi;-inkscape-font-specification:Lavi;letter-spacing:0px;word-spacing:0px;fill:#000000;fill-opacity:1;stroke:#000000;stroke-width:0;stroke-linecap:square;stroke-miterlimit:4;stroke-dasharray:none;stroke-opacity:1;filter:url(#filter4375-4-1-1-1-9-30-2-7-6)"
       x="787.65729"
       y="1584.5073"
       id="text4580-9-9-6-8"
       transform="matrix(2.1233219,-0.81577513,0.10530771,3.0634554,-746.91041,-2877.5859)"><tspan
         sodipodi:role="line"
         id="tspan4582-26-1-5-8"
         x="787.65729"
         y="1584.5073"
         style="font-style:normal;font-variant:normal;font-weight:normal;font-stretch:normal;font-size:70px;line-height:1.25;font-family:ComicSpice;-inkscape-font-specification:ComicSpice;fill:#ffffff;stroke-width:0;stroke-linecap:square;stroke-miterlimit:4;stroke-dasharray:none">!</tspan></text>
    <text
       xml:space="preserve"
       style="font-style:normal;font-variant:normal;font-weight:normal;font-stretch:normal;line-height:0%;font-family:Lavi;-inkscape-font-specification:Lavi;letter-spacing:0px;word-spacing:0px;fill:#000000;fill-opacity:1;stroke:#000000;stroke-width:0;stroke-linecap:square;stroke-miterlimit:4;stroke-dasharray:none;stroke-opacity:1;filter:url(#filter4375-4-1-1-1-9-8)"
       x="787.65729"
       y="1584.5073"
       id="text4580-7"
       transform="matrix(1.9224395,-1.4310448,0.73776351,3.3188691,-1995.2245,-850.01132)"><tspan
         sodipodi:role="line"
         id="tspan4582-7"
         x="787.65729"
         y="1584.5073"
         style="font-style:normal;font-variant:normal;font-weight:normal;font-stretch:normal;font-size:70px;line-height:1.25;font-family:ComicSpice;-inkscape-font-specification:ComicSpice;fill:#ffffff;stroke-width:0;stroke-linecap:square;stroke-miterlimit:4;stroke-dasharray:none">B</tspan></text>
    <text
       xml:space="preserve"
       style="font-style:normal;font-variant:normal;font-weight:normal;font-stretch:normal;line-height:0%;font-family:Lavi;-inkscape-font-specification:Lavi;letter-spacing:0px;word-spacing:0px;fill:#000000;fill-opacity:1;stroke:#000000;stroke-width:0;stroke-linecap:square;stroke-miterlimit:4;stroke-dasharray:none;stroke-opacity:1;filter:url(#filter4375-4-1-1-1-9-30-7)"
       x="787.65729"
       y="1584.5073"
       id="text4580-9-6"
       transform="matrix(1.6087036,-1.2327207,0.61736291,2.8589175,-1475.7106,-301.79045)"><tspan
         sodipodi:role="line"
         id="tspan4582-26-4"
         x="787.65729"
         y="1584.5073"
         style="font-style:normal;font-variant:normal;font-weight:normal;font-stretch:normal;font-size:70px;line-height:1.25;font-family:ComicSpice;-inkscape-font-specification:ComicSpice;fill:#ffffff;stroke-width:0;stroke-linecap:square;stroke-miterlimit:4;stroke-dasharray:none">Z</tspan></text>
    <text
       xml:space="preserve"
       style="font-style:normal;font-variant:normal;font-weight:normal;font-stretch:normal;line-height:0%;font-family:Lavi;-inkscape-font-specification:Lavi;letter-spacing:0px;word-spacing:0px;fill:#000000;fill-opacity:1;stroke:#000000;stroke-width:0;stroke-linecap:square;stroke-miterlimit:4;stroke-dasharray:none;stroke-opacity:1;filter:url(#filter4375-4-1-1-1-9-30-2-4)"
       x="787.65729"
       y="1584.5073"
       id="text4580-9-9-3"
       transform="matrix(1.6396407,-1.0718548,0.54949979,2.6288142,-1318.4506,-88.149743)"><tspan
         sodipodi:role="line"
         id="tspan4582-26-1-0"
         x="787.65729"
         y="1584.5073"
         style="font-style:normal;font-variant:normal;font-weight:normal;font-stretch:normal;font-size:70px;line-height:1.25;font-family:ComicSpice;-inkscape-font-specification:ComicSpice;fill:#ffffff;stroke-width:0;stroke-linecap:square;stroke-miterlimit:4;stroke-dasharray:none">Z</tspan></text>
    <text
       xml:space="preserve"
       style="font-style:normal;font-variant:normal;font-weight:normal;font-stretch:normal;line-height:0%;font-family:Lavi;-inkscape-font-specification:Lavi;letter-spacing:0px;word-spacing:0px;fill:#000000;fill-opacity:1;stroke:#000000;stroke-width:0;stroke-linecap:square;stroke-miterlimit:4;stroke-dasharray:none;stroke-opacity:1;filter:url(#filter4375-4-1-1-1-9-30-2-7-9)"
       x="787.65729"
       y="1584.5073"
       id="text4580-9-9-6-3"
       transform="matrix(1.4531363,-0.90596787,0.48699577,2.2219625,-1000.5802,415.11356)"><tspan
         sodipodi:role="line"
         id="tspan4582-26-1-5-0"
         x="787.65729"
         y="1584.5073"
         style="font-style:normal;font-variant:normal;font-weight:normal;font-stretch:normal;font-size:70px;line-height:1.25;font-family:ComicSpice;-inkscape-font-specification:ComicSpice;fill:#ffffff;stroke-width:0;stroke-linecap:square;stroke-miterlimit:4;stroke-dasharray:none">Z</tspan></text>
    <text
       xml:space="preserve"
       style="font-style:normal;font-variant:normal;font-weight:normal;font-stretch:normal;line-height:0%;font-family:Lavi;-inkscape-font-specification:Lavi;letter-spacing:0px;word-spacing:0px;fill:#000000;fill-opacity:1;stroke:#000000;stroke-width:0;stroke-linecap:square;stroke-miterlimit:4;stroke-dasharray:none;stroke-opacity:1;filter:url(#filter4375-4-1-1-1-9-30-2-7-6-5)"
       x="787.65729"
       y="1584.5073"
       id="text4580-9-9-6-8-9"
       transform="matrix(2.1233219,-0.81577513,0.10530771,3.0634554,-858.9342,-1039.2157)"><tspan
         sodipodi:role="line"
         id="tspan4582-26-1-5-8-2"
         x="787.65729"
         y="1584.5073"
         style="font-style:normal;font-variant:normal;font-weight:normal;font-stretch:normal;font-size:70px;line-height:1.25;font-family:ComicSpice;-inkscape-font-specification:ComicSpice;fill:#ffffff;stroke-width:0;stroke-linecap:square;stroke-miterlimit:4;stroke-dasharray:none">!</tspan></text>
  </g>
</svg>
