<?xml version="1.0" encoding="UTF-8" standalone="no"?>
<!-- Created with Inkscape (http://www.inkscape.org/) -->

<svg
   xmlns:dc="http://purl.org/dc/elements/1.1/"
   xmlns:cc="http://creativecommons.org/ns#"
   xmlns:rdf="http://www.w3.org/1999/02/22-rdf-syntax-ns#"
   xmlns:svg="http://www.w3.org/2000/svg"
   xmlns="http://www.w3.org/2000/svg"
   xmlns:xlink="http://www.w3.org/1999/xlink"
   xmlns:sodipodi="http://sodipodi.sourceforge.net/DTD/sodipodi-0.dtd"
   xmlns:inkscape="http://www.inkscape.org/namespaces/inkscape"
   id="svg2"
   version="1.1"
   inkscape:version="0.92.2 5c3e80d, 2017-08-06"
   width="2481"
   height="3503"
   sodipodi:docname="E24P02.svg">
  <metadata
     id="metadata8">
    <rdf:RDF>
      <cc:Work
         rdf:about="">
        <dc:format>image/svg+xml</dc:format>
        <dc:type
           rdf:resource="http://purl.org/dc/dcmitype/StillImage" />
        <dc:title />
      </cc:Work>
    </rdf:RDF>
  </metadata>
  <defs
     id="defs6">
    <filter
       style="color-interpolation-filters:sRGB"
       id="filter4375-4-1-1-1-9"
       inkscape:label="deevad outline effect">
      <feFlood
         id="feFlood4377-7-9-0-8-1"
         flood-opacity="1"
         flood-color="rgb(0,0,0)"
         result="flood" />
      <feComposite
         id="feComposite4379-3-8-8-2-77"
         in2="SourceGraphic"
         in="flood"
         operator="in"
         result="composite1" />
      <feMorphology
         id="feMorphology4393-1-0-49-8-9"
         operator="dilate"
         radius="4"
         result="result3" />
      <feComposite
         id="feComposite4385-9-5-7-0-8"
         in2="result3"
         in="SourceGraphic"
         operator="over"
         result="composite2" />
    </filter>
  </defs>
  <sodipodi:namedview
     pagecolor="#ffffff"
     bordercolor="#666666"
     borderopacity="1"
     objecttolerance="10"
     gridtolerance="10"
     guidetolerance="10"
     inkscape:pageopacity="0"
     inkscape:pageshadow="2"
     inkscape:window-width="1280"
     inkscape:window-height="971"
     id="namedview4"
     showgrid="false"
     inkscape:zoom="0.45014485"
     inkscape:cx="1305.1956"
     inkscape:cy="2619.2474"
     inkscape:window-x="0"
     inkscape:window-y="0"
     inkscape:window-maximized="1"
     inkscape:current-layer="layer1"
     inkscape:snap-global="false"
     showguides="true" />
  <g
     inkscape:groupmode="layer"
     id="layer2"
     inkscape:label="artwork"
     sodipodi:insensitive="true">
    <image
       sodipodi:absref="/run/media/zveryok/Media/Work/Not Done/Translation/ep24/uk/../gfx_Pepper-and-Carrot_by-David-Revoy_E24P02.png"
       xlink:href="../gfx_Pepper-and-Carrot_by-David-Revoy_E24P02.png"
       y="0"
       x="0"
       id="image10"
       height="3503"
       width="2481" />
  </g>
  <g
     inkscape:groupmode="layer"
     id="layer3"
     inkscape:label="speechbubbles">
    <path
       style="fill:#ffffff;stroke:none;stroke-width:0.95383644"
       d="m 972.50654,963.21044 c 60.76086,-8.3585 113.36986,2.64527 127.26386,10.79944 13.894,8.15417 27.717,23.90227 35.5656,30.01622 26.1999,20.4096 17.8098,129.0627 6.6152,140.3007 -8.7845,8.8186 -14.8083,36.2571 -51.8754,45.4147 -37.0669,9.1577 -105.26269,13.464 -128.04865,4.9601 -22.786,-8.5039 -71.16818,-2.3232 -84.54949,-56.8555 -13.38131,-54.5324 -1.63813,-140.64367 41.22162,-158.5729 24.16199,-10.10749 53.80726,-16.06276 53.80726,-16.06276 z"
       id="path3286"
       inkscape:connector-curvature="0"
       sodipodi:nodetypes="csssssssc" />
    <path
       style="color:#000000;display:inline;overflow:visible;visibility:visible;fill:#ffffff;fill-opacity:1;fill-rule:nonzero;stroke:none;stroke-width:0.92426753px;marker:none;enable-background:accumulate"
       d="m 2224.0567,1356.175 c -180.2061,-2.3653 -231.5228,-10.3516 -230.4797,-132.4399 1.0431,-122.0883 67.5601,-153.2137 164.5436,-155.6489 94.1506,-2.435 167.393,12.6281 186.413,46.4506 21.9746,36.1326 13.9188,77.7516 20.4839,110.1701 10.0958,27.7975 -0.615,83.2162 -20.3679,98.9437 -19.6824,15.6718 -83.8729,33.1959 -120.5929,32.5244 z"
       id="path3365"
       inkscape:connector-curvature="0"
       sodipodi:nodetypes="cscccsc" />
    <path
       style="color:#000000;display:inline;overflow:visible;visibility:visible;fill:#ffffff;fill-opacity:1;fill-rule:nonzero;stroke:none;stroke-width:1px;marker:none;enable-background:accumulate"
       d="m 1190.4458,1312.0824 c -70.0617,-6.5837 -91.3329,-16.7984 -111.4751,-72.4567 -20.1421,-55.6582 0.6832,-59.9839 0.6832,-59.9839 0,0 10.9679,110.8571 110.7919,132.4406 z"
       id="path5002"
       inkscape:connector-curvature="0" />
    <path
       style="color:#000000;display:inline;overflow:visible;visibility:visible;fill:#ffffff;fill-opacity:1;fill-rule:nonzero;stroke:none;stroke-width:1px;marker:none;enable-background:accumulate"
       d="m 2050.7762,1376.6106 c 37.4574,14.4492 67.4988,-7.5666 86.7222,-51.9063 19.2234,-44.3397 35.3495,-35.8085 35.3495,-35.8085 l 5.0926,33.3889 c 0,0 -35.4044,96.209 -127.1643,54.3259 z"
       id="path3072"
       inkscape:connector-curvature="0"
       sodipodi:nodetypes="csccc" />
    <path
       style="color:#000000;display:inline;overflow:visible;visibility:visible;fill:#ffffff;fill-opacity:1;fill-rule:nonzero;stroke:none;stroke-width:1px;marker:none;enable-background:accumulate"
       d="M 65.403388,2355.4056 C 55.172407,2228.5179 -53.502477,2147.2044 321.77182,2137.0085 c 101.24878,-2.7508 218.14975,-18.828 234.29382,166.9053 16.14392,185.7331 -147.13283,201.8436 -180.16511,210.4713 -33.03226,8.628 -189.30752,10.624 -241.37058,-37.2555 -29.24172,-26.892 -64.701043,-82.5873 -69.126562,-121.724 z"
       id="path4546"
       inkscape:connector-curvature="0"
       sodipodi:nodetypes="cssssc" />
    <path
       style="color:#000000;display:inline;overflow:visible;visibility:visible;fill:#ffffff;fill-opacity:1;fill-rule:nonzero;stroke:none;stroke-width:0.97673196px;marker:none;enable-background:accumulate"
       d="m 939.35785,2697.7264 c -73.22385,4.4176 -184.35972,-6.7334 -217.36107,-63.2319 -33.00118,-56.4986 -44.25496,-132.8323 -9.84471,-174.5409 34.4101,-41.7088 99.50508,-84.4342 163.50772,-85.7087 64.00254,-1.275 153.26551,23.2939 184.29451,76.3238 31.0292,53.0298 38.9453,177.7082 -35.4965,217.1594 -74.44188,39.4513 -85.09995,29.9983 -85.09995,29.9983 z"
       id="path3970"
       inkscape:connector-curvature="0" />
    <path
       style="color:#000000;display:inline;overflow:visible;visibility:visible;fill:#ffffff;fill-opacity:1;fill-rule:nonzero;stroke:none;stroke-width:0.99999994px;marker:none;enable-background:accumulate"
       d="m 967.99896,2989.7664 c -51.74784,3.1643 -130.28832,-4.8231 -153.6106,-45.2931 -23.32216,-40.4698 -31.27528,-95.1476 -6.95732,-125.0235 24.31785,-29.8759 70.32092,-60.48 115.55202,-61.393 45.23103,-0.9132 108.31384,16.6854 130.24224,54.6708 21.9286,37.9851 27.5229,127.2922 -25.0856,155.551 -52.60864,28.2589 -60.14074,21.4878 -60.14074,21.4878 z"
       id="path3970-4"
       inkscape:connector-curvature="0" />
    <path
       style="fill:#ffffff;fill-rule:evenodd;stroke:none;stroke-width:1px;stroke-linecap:butt;stroke-linejoin:miter;stroke-opacity:1"
       d="m 346.57119,2616.5493 c -63.2798,-44.5839 -68.79168,-98.8369 -22.99541,-144.2951 18.90772,-28.5006 -29.49137,-44.6932 -49.46806,0.8803 2.52314,18.0735 -60.406,94.8559 72.46347,143.4148 z"
       id="path4278"
       inkscape:connector-curvature="0"
       sodipodi:nodetypes="cccc" />
    <path
       style="color:#000000;display:inline;overflow:visible;visibility:visible;fill:#ffffff;fill-opacity:1;fill-rule:nonzero;stroke:none;stroke-width:1px;marker:none;enable-background:accumulate"
       d="m 759.98513,2733.1259 c 40.56205,-7.5931 54.44696,-12.612 63.67875,-60.0495 9.2317,-47.4376 26.81589,-42.5763 26.81589,-42.5763 l 12.15811,31.5107 c 0,0 -26.74612,99.3801 -102.65275,71.1151 z"
       id="path3072-5"
       inkscape:connector-curvature="0" />
    <path
       style="color:#000000;display:inline;overflow:visible;visibility:visible;fill:#ffffff;fill-opacity:1;fill-rule:nonzero;stroke:none;stroke-width:1px;marker:none;enable-background:accumulate"
       d="m 739.08809,2819.3997 c 21.8597,19.4259 25.84476,19.8547 38.08065,11.9234 12.23579,-7.9313 27.1542,-23.1621 53.13132,-17.7581 84.05943,-18.1201 113.76084,72.1324 -3.48563,23.5751 -17.33625,-6.3711 -39.16416,13.5701 -53.85665,11.2775 -14.69258,-2.2926 -25.60297,-17.6945 -33.86969,-29.0179 z"
       id="path4538"
       inkscape:connector-curvature="0"
       sodipodi:nodetypes="cccccc" />
    <path
       style="fill:#ffffff;fill-rule:evenodd;stroke:none;stroke-width:1.01076317px;stroke-linecap:butt;stroke-linejoin:miter;stroke-opacity:1"
       d="m 1276.9015,3132.3443 c 0.9578,9.9131 0.6591,22.4189 -9.6869,28.8779 -12.695,5.3471 -26.1481,-2.0573 -36.6712,-7.6427 -3.4726,-2.4814 0.7079,3.171 0.4858,4.6416 2.8064,8.706 4.6151,20.483 -4.4074,27.0554 -11.1879,6.4506 -25.7482,1.757 -36.6513,-1.7263 4.8029,9.8244 10.6644,22.1732 3.4236,32.3059 -4.8284,4.7837 -13.2993,4.9632 -19.6467,4.2156 5.2221,7.2124 6.2607,19.2598 -3.8712,23.8347 -4.5726,2.5317 -11.7181,2.3033 -15.7001,2.5701 8.9848,7.4956 17.4089,19.6674 10.8183,30.4428 -3.6305,5.454 -9.9327,9.1322 -16.3874,11.7831 10.2497,1.0331 23.3256,5.7371 23.7609,15.9796 0.5409,5.8729 -4.9425,12.2059 -7.7567,15.7507 11.7631,-3.8824 26.1446,-8.5623 37.986,-2.9245 5.4186,3.9303 6.9602,10.5077 6.2463,16.3682 11.9731,-6.8222 24.8215,-3.8113 39.6655,0.3909 9.104,3.7365 14.1041,12.0181 16.6282,20.0667 15.5678,-10.3284 34.307,-22.3421 55.0542,-18.5659 14.7109,3.1081 24.1239,14.2433 33.6389,23.4331 4.1048,-10.5124 11.9819,-22.8147 26.069,-24.3712 14.0504,0.3587 21.0921,12.6927 28.0328,21.3091 1.4446,4.4482 4.9663,7.7742 6.2041,5.7311 5.5165,-11.02 13.0857,-23.7825 27.4657,-27.4338 15.1159,-1.2036 25.7942,10.2707 34.3177,19.2043 3.0376,-11.4582 9.584,-25.1816 24.2921,-28.2643 14.7077,-0.8631 24.4032,10.7748 31.5593,20.0926 3.2484,3.6863 5.9344,7.7115 9.1192,11.4369 2.0608,-10.0198 6.8474,-30.0568 20.0643,-30.7522 12.3635,-0.3905 22.3295,6.9794 31.5927,12.8932 -0.2831,-11.1589 12.7272,-22.0154 25.8617,-18.7156 16.7472,2.4427 32.1526,0.7322 46.4993,7.6315 -4.4102,-8.242 -8.3154,-20.5968 1.38,-27.3918 5.4758,-3.2109 12.527,-3.0252 18.7161,-1.9823 -6.131,-8.74 -5.8995,-22.351 5.3088,-28.1509 6.0758,-3.8028 13.5645,-5.1798 20.5303,-7.224 -12.9157,-7.2536 -32.9641,-16.4491 -29.832,-30.8905 1.0146,-6.4604 13.9,-15.7247 16.8311,-20.2005 -33.0517,10.7271 -31.8782,-3.3955 -11.7123,-19.5143 2.3876,-3.9716 1.2795,-3.8688 -2.8373,-1.105 -11.2417,6.0153 -23.3639,13.383 -37.0305,13.1922 -10.1483,-3.4194 -7.9308,-23.1228 -1.4131,-29.5166 -15.227,5.6812 -32.1188,12.5545 -48.9987,9.0496 -11.0917,-5.6541 -10.2519,-19.1211 -5.3726,-28.0766 1.7655,-3.6564 -0.6898,-1.1917 -2.987,0.5716 -8.762,6.5419 -18.9496,14.0952 -31.0035,14.2965 -11.3402,-2.7044 -14.0313,-15.2342 -10.4794,-23.7721 -0.04,-2.103 2.5728,-8.1709 -0.9987,-3.8133 -7.004,6.4246 -18.7065,22.7137 -29.7154,21.0322 -5.3837,-1.6263 -6.5687,-14.6763 -8.3601,-19.1373 -4.969,7.3862 -16.1821,23.5764 -27.2472,20.9287 -10.253,-3.5638 -12.0466,-14.3516 -12.6502,-22.7285 -3.3669,7.8594 -10.2162,14.0306 -21.4444,14.8025 -11.7628,-0.472 -17.8987,-32.6495 -20.8314,-41.0165 -0.9068,-2.5967 -4.4324,-8.2644 -2.4448,4.2674 -2.989,7.4095 -8.93,37.7386 -19.3198,35.8453 -12.7005,-3.2712 -14.4993,-10.6335 -18.5547,-19.9822 -2.8127,8.5188 -10.0795,18.9679 -21.7943,18.3639 -14.4618,-1.7809 -20.5647,-15.4881 -27.1373,-24.5357 -0.6855,10.83 -3.5898,24.3786 -15.9333,29.8534 -12.6166,3.0857 -23.1172,-6.2976 -29.524,-14.3834 -4.7689,-5.0034 -9.0554,-10.3297 -13.2842,-15.6766 l 0.1009,0.9721 z m 199.0181,221.2964 c 5e-4,0.014 0.012,-0.048 0,0 z"
       id="path1504"
       inkscape:connector-curvature="0"
       sodipodi:nodetypes="cccccccccccccccccccccccccccccccccccccccccccccccccccccccccccccccccc" />
    <path
       style="fill:#ffffff;stroke:none;stroke-width:0.99999994"
       d="m 1452.7195,2949.0485 c 13.6365,51.0487 1.8285,73.4399 -12.8291,87.351 -14.6575,13.9112 -29.2574,24.6287 -30.4169,39.0049 -1.1585,14.3763 4.3679,32.4449 9.991,45.1906 5.6233,12.7459 -8.7567,28.7391 -16.1641,41.0823 -7.4074,12.3434 -32.4176,87.9891 -32.4176,87.9891 0,0 45.6605,-29.3056 57.0155,-43.5686 11.3552,-14.2629 -1.5936,-24.3112 1.6003,-31.5097 3.1938,-7.1984 16.2252,-28.4819 13.3417,-43.3703 -2.8832,-14.8884 -6.8861,-37.3598 -11.1969,-47.9831 -4.3108,-10.6233 8.1814,-20.8918 17.4263,-34.2439 9.2448,-13.3519 26.0549,-36.6775 19.2727,-60.0623 -6.7821,-23.3848 -15.6229,-39.88 -15.6229,-39.88 z"
       id="path3023"
       inkscape:connector-curvature="0"
       sodipodi:nodetypes="csssscssssssc" />
    <path
       style="color:#000000;display:inline;overflow:visible;visibility:visible;fill:#ffffff;fill-opacity:1;fill-rule:nonzero;stroke:none;stroke-width:0.97446024px;marker:none;enable-background:accumulate"
       d="m 1814.1357,2321.9908 c -2.4929,-38.0125 -2.6315,-75.1444 68.0239,-101.4852 70.6553,-26.3409 195.3468,-16.6863 221.8005,-15.5287 43.1789,1.8893 156.9354,6.6461 182.9419,34.0666 26.0067,27.4202 30.5199,60.5791 28.5787,90.7617 -1.7883,27.8055 -12.167,67.8115 -42.4759,77.7693 -30.3089,9.9579 -248.2946,28.3899 -284.0133,22.9247 -35.7185,-5.4653 -90.8064,-13.0118 -121.7013,-31.0077 -31.3216,-18.244 -50.6617,-39.4883 -53.1545,-77.5007 z"
       id="path3373"
       inkscape:connector-curvature="0"
       sodipodi:nodetypes="zsssssssz" />
    <path
       style="color:#000000;display:inline;overflow:visible;visibility:visible;fill:#ffffff;fill-opacity:1;fill-rule:nonzero;stroke:none;stroke-width:1px;marker:none;enable-background:accumulate"
       d="m 2031.8102,2507.7263 c 30.9235,-44.7181 56.4448,-90.7801 41.0641,-127.8508 -21.7419,-52.4025 -15.1545,-27.3052 -15.1545,-27.3052 l 48.1596,27.1477 c 4.0617,-2.2231 16.5042,46.8286 -74.0692,128.0083 z"
       id="path3072-1"
       inkscape:connector-curvature="0"
       sodipodi:nodetypes="csccc" />
    <path
       style="display:inline;fill:#ffffff;stroke:none;stroke-width:0.99999994"
       d="m 1769.3287,3257.7326 c 3.8546,-82.4794 41.3235,-122.0071 95.0114,-142.1316 53.6879,-20.1246 370.1638,-14.5343 434.2911,7.8264 64.1269,22.3607 69.3441,79.8897 71.6455,143.2494 0.8717,73.3656 -74.5044,104.2317 -111.7878,113.1759 -37.2831,8.9443 -336.3681,16.077 -416.3375,-16.8413 -72.8227,-30.0594 -72.8227,-105.2788 -72.8227,-105.2788 z"
       id="path3008"
       inkscape:connector-curvature="0"
       sodipodi:nodetypes="ccccccc" />
    <path
       style="color:#000000;display:inline;overflow:visible;visibility:visible;fill:#ffffff;fill-opacity:1;fill-rule:nonzero;stroke:none;stroke-width:1px;marker:none;enable-background:accumulate"
       d="m 2046.452,3138.2749 c 31.2021,-26.3616 74.0861,-59.4473 33.587,-95.3422 1.3128,2.6276 75.7675,26.7026 -7.7455,112.4393 -83.5133,85.7365 -101.538,90.3039 -101.538,90.3039 z"
       id="path4064"
       inkscape:connector-curvature="0"
       sodipodi:nodetypes="ccscc"
       inkscape:transform-center-x="86.439437"
       inkscape:transform-center-y="119.77252" />
    <g
       id="g5381"
       transform="matrix(-1.943999,-0.03507888,0.02110171,-1.1694129,2814.7591,4709.8659)"
       style="display:inline;fill:#ffffff;stroke-width:0.82700133">
      <path
         inkscape:connector-curvature="0"
         id="path5263"
         d="m 1231.4261,3164.2107 c -4.7051,-6.6655 -8.3522,-20.2367 -8.3522,-21.805 0,-1.5684 0.3921,-7.4497 0.3921,-7.4497 l -3.1367,-1.1763 2.7446,-5.0971 -3.1367,0.3921 c 0,0 8.4753,-16.4011 10.0436,-19.1457 1.5684,-2.7446 4.313,-9.018 4.313,-9.018 0,0 11.2013,-0.9423 14.338,-2.1186 3.1367,-1.1762 12.5468,-11.3705 12.5468,-11.3705 0,0 11.3706,5.4892 15.6836,6.2734 4.3129,0.7842 24.3095,1.9604 27.8383,0 3.5288,-1.9605 7.0576,-4.7051 7.0576,-4.7051 0,0 9.018,-0.7841 11.3705,-1.9604 2.3526,-1.1763 6.6655,-3.9209 6.6655,-3.9209 0,0 7.4497,0.7842 10.5864,0.3921 3.1367,-0.3921 17.644,0 19.2124,0 1.5683,0 12.5468,6.6655 12.5468,6.6655 l 7.0576,6.6655 c 0,0 5.8813,-0.3921 8.626,-1.1763 2.7446,-0.7841 5.0971,3.1367 5.0971,3.1367 0,0 10.3649,28.9788 11.9333,33.6838 1.5683,4.7051 2.3525,14.1152 2.3525,14.1152 0,0 -4.313,7.4497 -6.6655,10.5864 -2.3525,3.1367 -9.018,10.5864 -12.5468,13.331 -3.5288,2.7446 -7.8418,7.0576 -12.1548,4.313 -4.313,-2.7446 -8.6259,-2.3525 -10.1943,-0.3921 -1.5684,1.9604 -12.9389,15.6836 -16.8598,14.1152 -3.9209,-1.5684 -17.2519,-3.9209 -21.1728,-7.4497 -3.9209,-3.5288 -10.1943,4.7051 -12.9389,2.3525 -2.7446,-2.3525 -6.6655,-6.6655 -9.4102,-6.6655 -2.7446,0 -40.639,11.3296 -44.5599,9.7612 -3.9209,-1.5684 -13.5936,-9.7859 -15.9461,-11.3542 -2.3526,-1.5684 -8.2339,-10.9785 -8.2339,-10.9785 z"
         style="color:#000000;display:inline;overflow:visible;visibility:visible;fill:#ffffff;fill-opacity:1;fill-rule:nonzero;stroke:none;stroke-width:0.82700133px;marker:none;enable-background:accumulate"
         sodipodi:nodetypes="cscccccccccccccssccccccsssssscssccc" />
    </g>
    <path
       style="color:#000000;display:inline;overflow:visible;visibility:visible;fill:#ffffff;fill-opacity:1;fill-rule:nonzero;stroke:none;stroke-width:1px;marker:none;enable-background:accumulate"
       d="m 214.82896,1030.4867 c 6.80442,0.878 -13.01369,58.3529 -13.01369,58.3529 0,0 37.57996,20.9895 40.57677,25.605 -3.12032,14.3994 -21.44854,49.3771 -21.44854,49.3771 l 47.969,66.5041 -32.27308,-66.6621 30.22524,-55.2358 -42.64068,-25.4823 18.48922,-41.6529 z"
       id="path4448-7"
       inkscape:connector-curvature="0"
       sodipodi:nodetypes="cccccccccc" />
    <path
       style="color:#000000;display:inline;overflow:visible;visibility:visible;fill:#ffffff;fill-opacity:1;fill-rule:nonzero;stroke:none;stroke-width:1.08541477px;marker:none;enable-background:accumulate"
       d="m 1220.0181,1264.7261 c -16.3365,-3.5055 -64.9662,-19.0159 -7.1936,-17.5657 -69.9568,-25.0538 -38.3911,-43.8491 -12.596,-63.0001 -21.4412,-6.138 -56.0829,-8.1294 -44.0311,-24.7898 -22.9934,1.4993 -37.1067,-4.8263 -43.2968,-18.1339 -17.5097,16.6729 -32.2206,19.2808 -39.9371,-13.2573 -7.0371,24.2527 -23.3122,28.8493 -68.0941,-1.6874 -3.2961,8.899 13.6639,29.2427 -109.40922,14.4217 36.59484,16.9622 84.04614,54.7798 -4.73738,72.0652 31.73683,7.6306 51.97589,17.9678 2.51292,34.3899 32.04961,5.1866 29.73331,27.2561 21.18138,35.0755 40.5938,-14.845 63.35716,-13.3862 61.83366,8.8739 74.93644,-34.4878 57.96274,-4.5663 73.43184,2.0745 29.5771,-28.2285 55.0321,-14.0788 82.1995,-7.7794 8.6606,-33.4408 51.6088,-20.6979 88.136,-20.6871 z"
       id="path3549-3-78"
       inkscape:connector-curvature="0"
       sodipodi:nodetypes="ccccccccccccccc" />
  </g>
  <g
     inkscape:groupmode="layer"
     id="layer1"
     inkscape:label="txt"
     style="display:inline">
    <text
       xml:space="preserve"
       style="font-style:normal;font-variant:normal;font-weight:normal;font-stretch:normal;line-height:0%;font-family:Lavi;-inkscape-font-specification:Lavi;letter-spacing:0px;word-spacing:0px;fill:#000000;fill-opacity:1;stroke:#000000;stroke-width:1.03244162;stroke-miterlimit:4;stroke-dasharray:none;stroke-opacity:1;filter:url(#filter4375-4-1-1-1-9)"
       x="787.65729"
       y="1584.5073"
       id="text4580"
       transform="matrix(0.99628009,-0.49104872,-0.18392799,1.3011878,1393.6124,-1187.4855)"><tspan
         sodipodi:role="line"
         id="tspan4582"
         x="787.65729"
         y="1584.5073"
         style="font-size:70px;line-height:1.25;fill:#ffffff;stroke-width:1.03244162"><tspan
           style="font-size:80.40014648px;stroke-width:1.03244162"
           id="tspan4617">Бам!</tspan></tspan></text>
    <text
       xml:space="preserve"
       style="font-style:normal;font-variant:normal;font-weight:normal;font-stretch:normal;line-height:0%;font-family:Lavi;-inkscape-font-specification:Lavi;text-align:center;letter-spacing:0px;word-spacing:0px;text-anchor:middle;fill:#000000;fill-opacity:1;stroke:none;stroke-width:1.60000002;stroke-miterlimit:4;stroke-dasharray:none"
       x="1011.5315"
       y="1034.0934"
       id="text4246-7-6-2-04"><tspan
         sodipodi:role="line"
         style="font-size:45px;line-height:1.25;stroke:none;stroke-width:1.60000002;stroke-miterlimit:4;stroke-dasharray:none;stroke-opacity:1"
         x="1011.5315"
         y="1034.0934"
         id="tspan953">Зима без</tspan><tspan
         sodipodi:role="line"
         style="font-size:45px;line-height:1.25;stroke:none;stroke-width:1.60000002;stroke-miterlimit:4;stroke-dasharray:none;stroke-opacity:1"
         x="1011.5315"
         y="1090.3434"
         id="tspan1010">Дерева</tspan><tspan
         sodipodi:role="line"
         style="font-size:45px;line-height:1.25;stroke:none;stroke-width:1.60000002;stroke-miterlimit:4;stroke-dasharray:none;stroke-opacity:1"
         x="1011.5315"
         y="1147.9832"
         id="tspan100">Єдності?!</tspan></text>
    <text
       xml:space="preserve"
       style="font-style:normal;font-variant:normal;font-weight:normal;font-stretch:normal;line-height:0%;font-family:Lavi;-inkscape-font-specification:Lavi;text-align:center;letter-spacing:0px;word-spacing:0px;text-anchor:middle;fill:#000000;fill-opacity:1;stroke:none;stroke-width:1.60000002;stroke-miterlimit:4;stroke-dasharray:none"
       x="2181.1018"
       y="1148.3219"
       id="text4246-7-6-2-04-3"><tspan
         sodipodi:role="line"
         style="font-size:45px;line-height:1.25;stroke:none;stroke-width:1.60000002;stroke-miterlimit:4;stroke-dasharray:none;stroke-opacity:1"
         x="2181.1018"
         y="1148.3219"
         id="tspan102">А створю-ка</tspan><tspan
         sodipodi:role="line"
         style="font-size:45px;line-height:1.25;stroke:none;stroke-width:1.60000002;stroke-miterlimit:4;stroke-dasharray:none;stroke-opacity:1"
         x="2181.1018"
         y="1204.5719"
         id="tspan106">я своє дерево</tspan><tspan
         sodipodi:role="line"
         style="font-size:45px;line-height:1.25;stroke:none;stroke-width:1.60000002;stroke-miterlimit:4;stroke-dasharray:none;stroke-opacity:1"
         x="2181.1018"
         y="1260.8219"
         id="tspan1525">з допомогою</tspan><tspan
         sodipodi:role="line"
         style="font-size:45px;line-height:1.25;stroke:none;stroke-width:1.60000002;stroke-miterlimit:4;stroke-dasharray:none;stroke-opacity:1"
         x="2181.1018"
         y="1318.4617"
         id="tspan124">магії!!</tspan></text>
    <text
       xml:space="preserve"
       style="font-style:normal;font-variant:normal;font-weight:normal;font-stretch:normal;line-height:0%;font-family:Lavi;-inkscape-font-specification:Lavi;text-align:center;letter-spacing:0px;word-spacing:0px;text-anchor:middle;fill:#000000;fill-opacity:1;stroke:none;stroke-width:1.60000002;stroke-miterlimit:4;stroke-dasharray:none"
       x="320.74161"
       y="2268.5608"
       id="text4246-7-6-2-04-3-5"><tspan
         sodipodi:role="line"
         style="font-size:45px;line-height:1.25;stroke:none;stroke-width:1.60000002;stroke-miterlimit:4;stroke-dasharray:none;stroke-opacity:1"
         x="320.74161"
         y="2268.5608"
         id="tspan3784">Ах! Я адже зможу</tspan><tspan
         sodipodi:role="line"
         style="font-size:45px;line-height:1.25;stroke:none;stroke-width:1.60000002;stroke-miterlimit:4;stroke-dasharray:none;stroke-opacity:1"
         x="320.74161"
         y="2324.8108"
         id="tspan140">вперше поєднати</tspan><tspan
         sodipodi:role="line"
         style="font-size:45px;line-height:1.25;stroke:none;stroke-width:1.60000002;stroke-miterlimit:4;stroke-dasharray:none;stroke-opacity:1"
         x="320.74161"
         y="2381.0608"
         id="tspan142">магію</tspan><tspan
         sodipodi:role="line"
         style="font-size:45px;line-height:1.25;stroke:none;stroke-width:1.60000002;stroke-miterlimit:4;stroke-dasharray:none;stroke-opacity:1"
         x="320.74161"
         y="2438.7007"
         id="tspan144">Хіппії та Хаосу!</tspan><tspan
         sodipodi:role="line"
         style="font-size:45px;line-height:1.25;stroke:none;stroke-width:1.60000002;stroke-miterlimit:4;stroke-dasharray:none;stroke-opacity:1"
         x="320.74161"
         y="2458.624"
         id="tspan1139" /></text>
    <text
       xml:space="preserve"
       style="font-style:normal;font-variant:normal;font-weight:normal;font-stretch:normal;line-height:0%;font-family:Lavi;-inkscape-font-specification:Lavi;text-align:center;letter-spacing:0px;word-spacing:0px;text-anchor:middle;fill:#000000;fill-opacity:1;stroke:none;stroke-width:1.60000002;stroke-miterlimit:4;stroke-dasharray:none"
       x="889.23981"
       y="2462.894"
       id="text4246-7-6-2-04-3-5-0"><tspan
         sodipodi:role="line"
         style="font-size:45px;line-height:1.25;stroke:none;stroke-width:1.60000002;stroke-miterlimit:4;stroke-dasharray:none;stroke-opacity:1"
         x="889.23981"
         y="2462.894"
         id="tspan1259">Велике</tspan><tspan
         sodipodi:role="line"
         style="font-size:45px;line-height:1.25;stroke:none;stroke-width:1.60000002;stroke-miterlimit:4;stroke-dasharray:none;stroke-opacity:1"
         x="889.23981"
         y="2519.144"
         id="tspan148">зелене дерево</tspan><tspan
         sodipodi:role="line"
         style="font-size:45px;line-height:1.25;stroke:none;stroke-width:1.60000002;stroke-miterlimit:4;stroke-dasharray:none;stroke-opacity:1"
         x="896.40289"
         y="2575.394"
         id="tspan167">з зірками та </tspan><tspan
         sodipodi:role="line"
         style="font-size:45px;line-height:1.25;stroke:none;stroke-width:1.60000002;stroke-miterlimit:4;stroke-dasharray:none;stroke-opacity:1"
         x="889.23981"
         y="2633.0339"
         id="tspan1004">планетами!</tspan></text>
    <text
       xml:space="preserve"
       style="font-style:normal;font-variant:normal;font-weight:normal;font-stretch:normal;font-size:10.77101231px;line-height:0%;font-family:Lavi;-inkscape-font-specification:Lavi;text-align:center;letter-spacing:0px;word-spacing:0px;text-anchor:middle;fill:#000000;fill-opacity:1;stroke:none;stroke-width:1.60000002;stroke-miterlimit:4;stroke-dasharray:none"
       x="919.96057"
       y="2864.178"
       id="text4246-7-6-2-04-3-5-0-7"
       transform="scale(1.0118702,0.98826905)"><tspan
         sodipodi:role="line"
         style="font-size:40.39129639px;line-height:1.25;stroke:none;stroke-width:1.60000002;stroke-miterlimit:4;stroke-dasharray:none;stroke-opacity:1"
         x="919.96057"
         y="2864.178"
         id="tspan1139-8-9">О!</tspan><tspan
         sodipodi:role="line"
         style="font-size:40.39129639px;line-height:1.25;stroke:none;stroke-width:1.60000002;stroke-miterlimit:4;stroke-dasharray:none;stroke-opacity:1"
         x="919.96057"
         y="2914.667"
         id="tspan1257">Воно буде</tspan><tspan
         sodipodi:role="line"
         style="font-size:40.39129639px;line-height:1.25;stroke:none;stroke-width:1.60000002;stroke-miterlimit:4;stroke-dasharray:none;stroke-opacity:1"
         x="919.96057"
         y="2966.4038"
         id="tspan177">ідеальним!</tspan></text>
    <flowRoot
       xml:space="preserve"
       id="flowRoot1245"
       style="font-style:normal;font-variant:normal;font-weight:normal;font-stretch:normal;font-size:0.66666669px;line-height:318.00000668%;font-family:Neuropolitical;-inkscape-font-specification:Neuropolitical;text-align:center;letter-spacing:0px;word-spacing:0px;writing-mode:lr-tb;text-anchor:middle;fill:#000000;fill-opacity:1;stroke:none;stroke-width:1px;stroke-linecap:butt;stroke-linejoin:miter;stroke-opacity:1"><flowRegion
         id="flowRegion1247"><rect
           id="rect1249"
           width="13.224999"
           height="3.3062499"
           x="790.19373"
           y="2848.3625" /></flowRegion><flowPara
         id="flowPara1251" /></flowRoot>    <text
       xml:space="preserve"
       style="font-style:normal;font-variant:normal;font-weight:normal;font-stretch:normal;line-height:0%;font-family:Lavi;-inkscape-font-specification:Lavi;text-align:center;letter-spacing:0px;word-spacing:0px;text-anchor:middle;fill:#000000;fill-opacity:1;stroke:none"
       x="1410.1737"
       y="3210.2256"
       id="text4246"><tspan
         sodipodi:role="line"
         style="font-size:45px;line-height:1.25"
         x="1410.1737"
         y="3210.2256"
         id="tspan4252">та</tspan></text>
    <text
       xml:space="preserve"
       style="font-style:normal;font-variant:normal;font-weight:normal;font-stretch:normal;line-height:0%;font-family:Lavi;-inkscape-font-specification:Lavi;text-align:center;letter-spacing:0px;word-spacing:0px;text-anchor:middle;fill:#000000;fill-opacity:1;stroke:none"
       x="2290.387"
       y="3282.1472"
       id="text4246-6"
       transform="skewX(-14.861122)"><tspan
         sodipodi:role="line"
         style="font-size:74.66666412px;line-height:1.25"
         x="2290.387"
         y="3282.1472"
         id="tspan4252-1">унікальним!</tspan></text>
    <text
       xml:space="preserve"
       style="font-style:normal;font-variant:normal;font-weight:normal;font-stretch:normal;line-height:0%;font-family:Lavi;-inkscape-font-specification:Lavi;text-align:center;letter-spacing:0px;word-spacing:0px;text-anchor:middle;fill:#000000;fill-opacity:1;stroke:none"
       x="2065.5322"
       y="2270.3386"
       id="text4246-2"><tspan
         sodipodi:role="line"
         style="font-size:45px;line-height:1.25"
         x="2065.5322"
         y="2270.3386"
         id="tspan1357">Але тут ...</tspan><tspan
         sodipodi:role="line"
         style="font-size:45px;line-height:1.25"
         x="2065.5322"
         y="2326.5886"
         id="tspan1426">тут так</tspan><tspan
         sodipodi:role="line"
         style="font-size:45px;line-height:1.25"
         x="2065.5322"
         y="2384.2285"
         id="tspan190">не почаклуєш ...</tspan></text>
    <text
       xml:space="preserve"
       style="font-style:normal;font-variant:normal;font-weight:normal;font-stretch:normal;line-height:0%;font-family:Lavi;-inkscape-font-specification:Lavi;text-align:center;letter-spacing:0px;word-spacing:0px;text-anchor:middle;fill:#000000;fill-opacity:1;stroke:none"
       x="2070.7913"
       y="3175.5769"
       id="text4246-2-3"><tspan
         sodipodi:role="line"
         style="font-size:44px;line-height:1.25"
         x="2070.7913"
         y="3175.5769"
         id="tspan1436">... хресні відразу</tspan><tspan
         sodipodi:role="line"
         style="font-size:44px;line-height:1.25"
         x="2077.7952"
         y="3231.9358"
         id="tspan209">помітять, якщо я не </tspan><tspan
         sodipodi:role="line"
         style="font-size:44px;line-height:1.25"
         x="2077.7952"
         y="3288.2947"
         id="tspan213">буду вчити &quot;Заклинання </tspan><tspan
         sodipodi:role="line"
         style="font-size:44px;line-height:1.25"
         x="2070.7913"
         y="3344.6538"
         id="tspan1028">Руйнування&quot;.</tspan></text>
    <text
       xml:space="preserve"
       style="font-style:normal;font-variant:normal;font-weight:normal;font-stretch:normal;font-size:9.86460209px;line-height:0%;font-family:Lavi;-inkscape-font-specification:Lavi;text-align:center;letter-spacing:0px;word-spacing:0px;text-anchor:middle;opacity:0.553;fill:#ffffff;fill-opacity:1;stroke:#ffffff;stroke-width:0.41015577;stroke-miterlimit:4;stroke-dasharray:none;stroke-opacity:1"
       x="1723.8367"
       y="993.6333"
       id="text4246-8"
       transform="matrix(1.0148684,-0.23351779,-0.23771225,1.0400462,0,0)"><tspan
         sodipodi:role="line"
         style="font-size:25.28764343px;line-height:1.25;fill:#ffffff;stroke:#ffffff;stroke-width:0.41015577;stroke-miterlimit:4;stroke-dasharray:none;stroke-opacity:1"
         x="1723.8367"
         y="993.6333"
         id="tspan4150-8">пок</tspan></text>
    <text
       xml:space="preserve"
       style="font-style:normal;font-variant:normal;font-weight:normal;font-stretch:normal;font-size:9.86460209px;line-height:0%;font-family:Lavi;-inkscape-font-specification:Lavi;text-align:center;letter-spacing:0px;word-spacing:0px;text-anchor:middle;opacity:0.553;fill:#ffffff;fill-opacity:1;stroke:#ffffff;stroke-width:0.41015577;stroke-miterlimit:4;stroke-dasharray:none;stroke-opacity:1"
       x="659.43341"
       y="516.69019"
       id="text4246-8-3"
       transform="matrix(1.0294788,0.15704104,-0.60436617,0.87917276,0,0)"><tspan
         sodipodi:role="line"
         style="font-size:25.28764343px;line-height:1.25;fill:#ffffff;stroke:#ffffff;stroke-width:0.41015577;stroke-miterlimit:4;stroke-dasharray:none;stroke-opacity:1"
         x="659.43341"
         y="516.69019"
         id="tspan4150-8-6">Ffff</tspan></text>
    <text
       xml:space="preserve"
       style="font-style:normal;font-variant:normal;font-weight:normal;font-stretch:normal;font-size:13.87211895px;line-height:0%;font-family:Lavi;-inkscape-font-specification:Lavi;text-align:center;letter-spacing:0px;word-spacing:0px;text-anchor:middle;fill:#000000;fill-opacity:1;stroke:#000000;stroke-width:1.60000002;stroke-miterlimit:4;stroke-dasharray:none;stroke-opacity:1"
       x="1271.1823"
       y="1197.7053"
       id="text4246-7-6-2-04-7"
       transform="skewX(-10.479117)"><tspan
         sodipodi:role="line"
         style="font-size:52.02044678px;line-height:1.25;stroke:#000000;stroke-width:1.60000002;stroke-miterlimit:4;stroke-dasharray:none;stroke-opacity:1"
         x="1271.1823"
         y="1201.7373"
         id="tspan1006-5" /><tspan
         sodipodi:role="line"
         style="font-size:52.02044678px;line-height:1.25;stroke:#000000;stroke-width:1.60000002;stroke-miterlimit:4;stroke-dasharray:none;stroke-opacity:1"
         x="1271.1823"
         y="1201.7373"
         id="tspan1008-6" /><tspan
         sodipodi:role="line"
         style="font-size:52.02044678px;line-height:1.25;stroke:#000000;stroke-width:1.60000002;stroke-miterlimit:4;stroke-dasharray:none;stroke-opacity:1"
         x="1271.1823"
         y="1245.3379"
         id="tspan1010-2">Ніколи!</tspan></text>
    <text
       xml:space="preserve"
       style="font-style:normal;font-variant:normal;font-weight:normal;font-stretch:normal;line-height:0%;font-family:Lavi;-inkscape-font-specification:Lavi;text-align:center;letter-spacing:0px;word-spacing:0px;text-anchor:middle;display:inline;fill:#000000;fill-opacity:1;stroke:#000000;stroke-width:1.10000002;stroke-miterlimit:4;stroke-dasharray:none;stroke-opacity:1"
       x="811.54419"
       y="1010.7184"
       id="text4246-7-6-2"
       transform="skewX(-26.235822)"><tspan
         sodipodi:role="line"
         style="font-size:45px;line-height:1.25;stroke:#000000;stroke-width:1.10000002;stroke-miterlimit:4;stroke-dasharray:none;stroke-opacity:1"
         x="811.54419"
         y="1010.7184"
         id="tspan1069-6">Иииии....!!!</tspan></text>
    <flowRoot
       xml:space="preserve"
       id="flowRoot1006"
       style="fill:black;fill-opacity:1;stroke:none;font-family:sans-serif;font-style:normal;font-weight:normal;font-size:40px;line-height:1.25;letter-spacing:0px;word-spacing:0px"><flowRegion
         id="flowRegion1008"><rect
           id="rect1010"
           width="446.66666"
           height="211.11111"
           x="1795.5555"
           y="3125.2222" /></flowRegion><flowPara
         id="flowPara1012"></flowPara></flowRoot>  </g>
</svg>
