<?xml version="1.0" encoding="UTF-8" standalone="no"?>
<!-- Created with Inkscape (http://www.inkscape.org/) -->

<svg
   xmlns:dc="http://purl.org/dc/elements/1.1/"
   xmlns:cc="http://creativecommons.org/ns#"
   xmlns:rdf="http://www.w3.org/1999/02/22-rdf-syntax-ns#"
   xmlns:svg="http://www.w3.org/2000/svg"
   xmlns="http://www.w3.org/2000/svg"
   xmlns:xlink="http://www.w3.org/1999/xlink"
   xmlns:sodipodi="http://sodipodi.sourceforge.net/DTD/sodipodi-0.dtd"
   xmlns:inkscape="http://www.inkscape.org/namespaces/inkscape"
   id="svg2"
   version="1.1"
   inkscape:version="0.92.2 (5c3e80d, 2017-08-06)"
   width="2481"
   height="3503"
   sodipodi:docname="E23P07.svg">
  <metadata
     id="metadata8">
    <rdf:RDF>
      <cc:Work
         rdf:about="">
        <dc:format>image/svg+xml</dc:format>
        <dc:type
           rdf:resource="http://purl.org/dc/dcmitype/StillImage" />
        <dc:title />
      </cc:Work>
    </rdf:RDF>
  </metadata>
  <defs
     id="defs6">
    <filter
       inkscape:collect="always"
       style="color-interpolation-filters:sRGB"
       id="filter4289"
       x="-0.0076879989"
       width="1.015376"
       y="-0.012777842"
       height="1.0255557">
      <feGaussianBlur
         inkscape:collect="always"
         stdDeviation="0.69527307"
         id="feGaussianBlur4291" />
    </filter>
    <filter
       style="color-interpolation-filters:sRGB"
       id="filter4375-4-1-1-1-9"
       inkscape:label="deevad outline effect">
      <feFlood
         id="feFlood4377-7-9-0-8-1"
         flood-opacity="1"
         flood-color="rgb(0,0,0)"
         result="flood" />
      <feComposite
         id="feComposite4379-3-8-8-2-77"
         in2="SourceGraphic"
         in="flood"
         operator="in"
         result="composite1" />
      <feMorphology
         id="feMorphology4393-1-0-49-8-9"
         operator="dilate"
         radius="2.8999999999999999"
         result="result3" />
      <feComposite
         id="feComposite4385-9-5-7-0-8"
         in2="result3"
         in="SourceGraphic"
         operator="over"
         result="composite2" />
    </filter>
    <filter
       style="color-interpolation-filters:sRGB"
       id="filter4375-4-1-1-1-9-3"
       inkscape:label="deevad outline poster">
      <feFlood
         id="feFlood4377-7-9-0-8-1-5"
         flood-opacity="1"
         flood-color="rgb(0,0,0)"
         result="flood" />
      <feComposite
         id="feComposite4379-3-8-8-2-77-6"
         in2="SourceGraphic"
         in="flood"
         operator="in"
         result="composite1" />
      <feMorphology
         id="feMorphology4393-1-0-49-8-9-2"
         operator="dilate"
         radius="3"
         result="result3" />
      <feComposite
         id="feComposite4385-9-5-7-0-8-9"
         in2="result3"
         in="SourceGraphic"
         operator="over"
         result="composite2" />
    </filter>
    <filter
       style="color-interpolation-filters:sRGB"
       id="filter4375-4-1-1-1-9-3-7"
       inkscape:label="deevad outline poster">
      <feFlood
         id="feFlood4377-7-9-0-8-1-6"
         flood-opacity="1"
         flood-color="rgb(0,0,0)"
         result="flood" />
      <feComposite
         id="feComposite4379-3-8-8-2-77-7"
         in2="SourceGraphic"
         in="flood"
         operator="in"
         result="composite1" />
      <feMorphology
         id="feMorphology4393-1-0-49-8-9-5"
         operator="dilate"
         radius="3"
         result="result3" />
      <feComposite
         id="feComposite4385-9-5-7-0-8-3"
         in2="result3"
         in="SourceGraphic"
         operator="over"
         result="composite2" />
    </filter>
    <filter
       inkscape:collect="always"
       style="color-interpolation-filters:sRGB"
       id="filter4367-7-1-5"
       x="-0.0043557761"
       width="1.0087116"
       y="-0.020747934"
       height="1.0414959"
       inkscape:label="graphic-blending">
      <feGaussianBlur
         inkscape:collect="always"
         stdDeviation="0.59122338"
         id="feGaussianBlur4369-9-2-9" />
    </filter>
    <filter
       style="color-interpolation-filters:sRGB"
       id="filter3424"
       inkscape:label="deevad outline poster">
      <feFlood
         id="feFlood3426"
         flood-opacity="1"
         flood-color="rgb(0,0,0)"
         result="flood" />
      <feComposite
         id="feComposite3428"
         in2="SourceGraphic"
         in="flood"
         operator="in"
         result="composite1" />
      <feMorphology
         id="feMorphology3430"
         operator="dilate"
         radius="3"
         result="result3" />
      <feComposite
         id="feComposite3432"
         in2="result3"
         in="SourceGraphic"
         operator="over"
         result="composite2" />
    </filter>
    <filter
       inkscape:collect="always"
       style="color-interpolation-filters:sRGB"
       id="filter4367-7-2"
       x="-0.0043557761"
       width="1.0087116"
       y="-0.020747934"
       height="1.0414959"
       inkscape:label="graphic-blending">
      <feGaussianBlur
         inkscape:collect="always"
         stdDeviation="0.59122338"
         id="feGaussianBlur4369-9-28" />
    </filter>
    <filter
       style="color-interpolation-filters:sRGB"
       id="filter3436"
       inkscape:label="deevad outline poster">
      <feFlood
         id="feFlood3438"
         flood-opacity="1"
         flood-color="rgb(0,0,0)"
         result="flood" />
      <feComposite
         id="feComposite3440"
         in2="SourceGraphic"
         in="flood"
         operator="in"
         result="composite1" />
      <feMorphology
         id="feMorphology3442"
         operator="dilate"
         radius="3"
         result="result3" />
      <feComposite
         id="feComposite3444"
         in2="result3"
         in="SourceGraphic"
         operator="over"
         result="composite2" />
    </filter>
    <filter
       inkscape:collect="always"
       style="color-interpolation-filters:sRGB"
       id="filter4367-3"
       x="-0.0043557761"
       width="1.0087116"
       y="-0.020747934"
       height="1.0414959"
       inkscape:label="graphic-blending">
      <feGaussianBlur
         inkscape:collect="always"
         stdDeviation="0.59122338"
         id="feGaussianBlur4369-6" />
    </filter>
  </defs>
  <sodipodi:namedview
     pagecolor="#ffffff"
     bordercolor="#666666"
     borderopacity="1"
     objecttolerance="10"
     gridtolerance="10"
     guidetolerance="10"
     inkscape:pageopacity="0"
     inkscape:pageshadow="2"
     inkscape:window-width="1920"
     inkscape:window-height="1022"
     id="namedview4"
     showgrid="false"
     inkscape:zoom="0.65053825"
     inkscape:cx="1255.3372"
     inkscape:cy="649.61968"
     inkscape:window-x="0"
     inkscape:window-y="26"
     inkscape:window-maximized="1"
     inkscape:current-layer="layer1"
     inkscape:document-rotation="0" />
  <g
     inkscape:groupmode="layer"
     id="layer2"
     inkscape:label="artwork"
     sodipodi:insensitive="true">
    <image
       sodipodi:absref="/home/nightlock/peppercarrot/webcomics/ep23_Take-a-Chance/lang/kr/../gfx_Pepper-and-Carrot_by-David-Revoy_E23P07.png"
       xlink:href="../gfx_Pepper-and-Carrot_by-David-Revoy_E23P07.png"
       width="2481"
       height="3503"
       id="image10"
       x="0"
       y="0" />
  </g>
  <g
     inkscape:groupmode="layer"
     id="layer3"
     inkscape:label="speechbubbles">
    <path
       style="fill:#ffffff;fill-rule:evenodd;stroke:none;stroke-width:0.72692096px;stroke-linecap:butt;stroke-linejoin:miter;stroke-opacity:1"
       d="m 1416.3814,324.50351 c -41.0174,61.54181 -8.2389,153.34018 63.3482,177.13457 50.8805,18.04054 108.9949,22.86149 161.7634,10.50751 50.3629,-12.90175 97.319,-50.44476 103.3804,-103.22962 11.7693,-41.39877 -10.563,-85.56841 -50.1957,-103.67528 -57.8232,-28.11682 -125.4171,-19.5677 -187.6511,-16.25672 -32.519,4.26862 -65.5917,14.09063 -90.6452,35.51954 z"
       id="path4347"
       inkscape:connector-curvature="0" />
    <path
       style="fill:#ffffff;fill-rule:evenodd;stroke:none;stroke-width:1px;stroke-linecap:butt;stroke-linejoin:miter;stroke-opacity:1"
       d="m 1765.3654,643.65162 c -95.1268,4.0684 -132.7849,-85.20719 -136.2783,-153.13606 -2.8753,-55.91161 -34.5072,-46.94328 -31.2143,3.23913 3.2928,50.1824 50.0846,172.46208 167.4926,149.89693 z"
       id="path4360"
       inkscape:connector-curvature="0"
       sodipodi:nodetypes="cssc" />
  </g>
  <g
     inkscape:groupmode="layer"
     id="layer1"
     inkscape:label="txt">
    <text
       id="text3426"
       y="363.39731"
       x="1570.676"
       style="font-style:normal;font-variant:normal;font-weight:normal;font-stretch:normal;font-size:13.99106789px;line-height:100%;font-family:'Nanum Pen Script OTF';-inkscape-font-specification:'Nanum Pen Script OTF';text-align:center;letter-spacing:0px;word-spacing:0px;text-anchor:middle;fill:#000000;fill-opacity:1;stroke:none;stroke-width:1.16592228;"
       xml:space="preserve"><tspan
         id="tspan3432"
         y="363.39731"
         x="1570.676"
         style="font-style:normal;font-variant:normal;font-weight:normal;font-stretch:normal;font-size:52.46650696px;line-height:1em;font-family:'Nanum Pen Script OTF';-inkscape-font-specification:'Nanum Pen Script OTF';stroke-width:1.16592228"
         sodipodi:role="line">언젠간 행운의</tspan><tspan
         y="415.86383"
         x="1570.676"
         style="font-style:normal;font-variant:normal;font-weight:normal;font-stretch:normal;font-size:52.46650696px;line-height:1em;font-family:'Nanum Pen Script OTF';-inkscape-font-specification:'Nanum Pen Script OTF';stroke-width:1.16592228"
         sodipodi:role="line"
         id="tspan107">여신이 우리에게도</tspan><tspan
         y="468.33032"
         x="1570.676"
         style="font-style:normal;font-variant:normal;font-weight:normal;font-stretch:normal;font-size:52.46650696px;line-height:100%;font-family:'Nanum Pen Script OTF';-inkscape-font-specification:'Nanum Pen Script OTF';stroke-width:1.16592228;"
         sodipodi:role="line"
         id="tspan109"><tspan
   style="line-height:1em"
   id="tspan111">찾아올 거야</tspan>!</tspan></text>
    <text
       transform="matrix(1.7247469,-0.11457704,-0.12187356,1.9487627,-599.30576,-1334.5944)"
       id="text3444"
       y="1584.5073"
       x="787.65729"
       style="font-style:normal;font-variant:normal;font-weight:normal;font-stretch:normal;line-height:0%;font-family:'Nanum Pen Script OTF';-inkscape-font-specification:'Nanum Pen Script OTF';letter-spacing:0px;word-spacing:0px;fill:#000000;fill-opacity:1;stroke:#000000;stroke-width:0.78198898;stroke-miterlimit:4;stroke-dasharray:none;stroke-opacity:1;filter:url(#filter4375-4-1-1-1-9)"
       xml:space="preserve"><tspan
         style="font-style:normal;font-variant:normal;font-weight:normal;font-stretch:normal;font-size:80.40014648px;line-height:1.25;font-family:'Nanum Pen Script OTF';-inkscape-font-specification:'Nanum Pen Script OTF';letter-spacing:4.37618589px;fill:#ffffff;stroke-width:0.78198898"
         y="1584.5073"
         x="787.65729"
         id="tspan3446"
         sodipodi:role="line">지이이잉 !</tspan></text>
    <text
       transform="matrix(0.72899519,0,-0.28932631,0.71822761,310.06141,1603.3341)"
       id="text3452"
       y="1716.373"
       x="1000.265"
       style="font-style:normal;font-variant:normal;font-weight:normal;font-stretch:normal;line-height:0%;font-family:'Nanum Pen Script OTF';-inkscape-font-specification:'Nanum Pen Script OTF';text-align:center;letter-spacing:0px;word-spacing:0px;text-anchor:middle;opacity:0.5;fill:#ffffff;fill-opacity:1;stroke:#ffffff;stroke-width:2.07299328;stroke-miterlimit:4;stroke-dasharray:none;stroke-opacity:1;filter:url(#filter4375-4-1-1-1-9-3)"
       xml:space="preserve"><tspan
         id="tspan3454"
         y="1716.373"
         x="1000.265"
         style="font-style:normal;font-variant:normal;font-weight:normal;font-stretch:normal;font-size:95.64933777px;line-height:1em;font-family:'Nanum Pen Script OTF';-inkscape-font-specification:'Nanum Pen Script OTF';text-align:center;text-anchor:middle;fill:#ffffff;stroke:#ffffff;stroke-width:2.07299328;stroke-miterlimit:4;stroke-dasharray:none;stroke-opacity:1"
         sodipodi:role="line">비둘기 양의</tspan><tspan
         y="1812.0223"
         x="1000.265"
         style="font-style:normal;font-variant:normal;font-weight:normal;font-stretch:normal;font-size:95.64933777px;line-height:1em;font-family:'Nanum Pen Script OTF';-inkscape-font-specification:'Nanum Pen Script OTF';text-align:center;text-anchor:middle;fill:#ffffff;stroke:#ffffff;stroke-width:2.07299328;stroke-miterlimit:4;stroke-dasharray:none;stroke-opacity:1"
         sodipodi:role="line"
         id="tspan119"> 숨 가쁜 삶</tspan></text>
    <text
       transform="matrix(0.72899519,0,-0.24317906,0.71822761,919.08051,1613.1701)"
       id="text3462"
       y="1716.373"
       x="1000.265"
       style="font-style:normal;font-variant:normal;font-weight:normal;font-stretch:normal;line-height:95.49999833%;font-family:'Nanum Pen Script OTF';-inkscape-font-specification:'Nanum Pen Script OTF';text-align:center;letter-spacing:0px;word-spacing:0px;text-anchor:middle;opacity:0.5;fill:#ffffff;fill-opacity:1;stroke:#ffffff;stroke-width:2.07299328;stroke-miterlimit:4;stroke-dasharray:none;stroke-opacity:1;filter:url(#filter4375-4-1-1-1-9-3)"
       xml:space="preserve"><tspan
         id="tspan3466"
         y="1716.373"
         x="1000.265"
         style="font-style:normal;font-variant:normal;font-weight:normal;font-stretch:normal;font-size:95.64933777px;line-height:1em;font-family:'Nanum Pen Script OTF';-inkscape-font-specification:'Nanum Pen Script OTF';text-align:center;text-anchor:middle;fill:#ffffff;stroke:#ffffff;stroke-width:2.07299328;stroke-miterlimit:4;stroke-dasharray:none;stroke-opacity:1"
         sodipodi:role="line">비둘기 양</tspan><tspan
         y="1812.0223"
         x="1000.265"
         style="font-style:normal;font-variant:normal;font-weight:normal;font-stretch:normal;font-size:95.64933777px;line-height:1em;font-family:'Nanum Pen Script OTF';-inkscape-font-specification:'Nanum Pen Script OTF';text-align:center;text-anchor:middle;fill:#ffffff;stroke:#ffffff;stroke-width:2.07299328;stroke-miterlimit:4;stroke-dasharray:none;stroke-opacity:1"
         sodipodi:role="line"
         id="tspan3509"> 효과</tspan></text>
    <text
       transform="matrix(0.72899519,0,-0.26525102,0.71822761,1658.9205,1613.0656)"
       id="text3472"
       y="1716.373"
       x="1000.265"
       style="font-style:normal;font-variant:normal;font-weight:normal;font-stretch:normal;line-height:1em;font-family:'Nanum Pen Script OTF';-inkscape-font-specification:'Nanum Pen Script OTF';text-align:center;letter-spacing:0px;word-spacing:0px;text-anchor:middle;opacity:0.5;fill:#ffffff;fill-opacity:1;stroke:#ffffff;stroke-width:2.07299328;stroke-miterlimit:4;stroke-dasharray:none;stroke-opacity:1;filter:url(#filter4375-4-1-1-1-9-3)"
       xml:space="preserve"><tspan
         y="1716.373"
         x="1000.265"
         style="font-style:normal;font-variant:normal;font-weight:normal;font-stretch:normal;font-size:95.64933777px;line-height:1em;font-family:'Nanum Pen Script OTF';-inkscape-font-specification:'Nanum Pen Script OTF';text-align:center;text-anchor:middle;fill:#ffffff;stroke:#ffffff;stroke-width:2.07299328;stroke-miterlimit:4;stroke-dasharray:none;stroke-opacity:1"
         sodipodi:role="line"
         id="tspan123">비둘기 양</tspan><tspan
         id="tspan3476"
         y="1812.0223"
         x="1000.265"
         style="font-style:normal;font-variant:normal;font-weight:normal;font-stretch:normal;font-size:95.64933777px;line-height:1em;font-family:'Nanum Pen Script OTF';-inkscape-font-specification:'Nanum Pen Script OTF';text-align:center;text-anchor:middle;fill:#ffffff;stroke:#ffffff;stroke-width:2.07299328;stroke-miterlimit:4;stroke-dasharray:none;stroke-opacity:1"
         sodipodi:role="line"> 특집</tspan></text>
    <text
       transform="matrix(0.95719015,0,-0.32603671,1.0447245,0,0)"
       id="text3478"
       y="3327.7354"
       x="2414.137"
       style="font-style:normal;font-variant:normal;font-weight:normal;font-stretch:normal;font-size:13.80334568px;line-height:0%;font-family:'Nanum Pen Script OTF';-inkscape-font-specification:'Nanum Pen Script OTF';text-align:center;letter-spacing:0px;word-spacing:0px;text-anchor:middle;display:inline;opacity:1;fill:#241c1c;fill-opacity:1;stroke:#000000;stroke-width:2.37785575;stroke-miterlimit:4;stroke-dasharray:none;stroke-opacity:1;"
       xml:space="preserve"><tspan
         style="font-style:normal;font-variant:normal;font-weight:normal;font-stretch:normal;font-size:83.02800751px;line-height:1.25;font-family:'Nanum Pen Script OTF';-inkscape-font-specification:'Nanum Pen Script OTF';stroke-width:2.37785575;stroke-miterlimit:4;stroke-dasharray:none;"
         y="3327.7354"
         x="2414.137"
         id="tspan3480"
         sodipodi:role="line">- 끝 -</tspan></text>
    <text
       id="text3419"
       y="265.97073"
       x="467.09564"
       style="font-style:normal;font-variant:normal;font-weight:normal;font-stretch:normal;line-height:0%;font-family:'Nanum Pen Script OTF';-inkscape-font-specification:'Nanum Pen Script OTF';text-align:center;letter-spacing:0px;word-spacing:0px;text-anchor:middle;display:inline;opacity:0.7;fill:#784421;fill-opacity:1;stroke:#502d16;stroke-width:3.4000001;stroke-miterlimit:4;stroke-dasharray:none;stroke-opacity:1;filter:url(#filter4367-3)"
       xml:space="preserve"><tspan
         id="tspan3421"
         y="265.97073"
         x="467.09564"
         style="font-style:normal;font-variant:normal;font-weight:normal;font-stretch:normal;font-size:95.64933777px;line-height:1.25;font-family:'Nanum Pen Script OTF';-inkscape-font-specification:'Nanum Pen Script OTF';text-align:start;text-anchor:start;fill:#784421;stroke:#502d16;stroke-width:3.4000001;stroke-miterlimit:4;stroke-dasharray:none;stroke-opacity:1"
         sodipodi:role="line">연예</tspan></text>
    <text
       transform="matrix(0.72899519,0,-0.29049464,0.71822761,298.83445,-341.5494)"
       id="text3427"
       y="1716.373"
       x="1000.265"
       style="font-style:normal;font-variant:normal;font-weight:normal;font-stretch:normal;line-height:0%;font-family:'Nanum Pen Script OTF';-inkscape-font-specification:'Nanum Pen Script OTF';text-align:center;letter-spacing:0px;word-spacing:0px;text-anchor:middle;display:inline;opacity:0.5;fill:#ffffff;fill-opacity:1;stroke:#ffffff;stroke-width:2.07299328;stroke-miterlimit:4;stroke-dasharray:none;stroke-opacity:1;filter:url(#filter4375-4-1-1-1-9-3-7)"
       xml:space="preserve"><tspan
         y="1716.373"
         x="1000.265"
         style="font-style:normal;font-variant:normal;font-weight:normal;font-stretch:normal;font-size:95.64933777px;line-height:80.00000119%;font-family:'Nanum Pen Script OTF';-inkscape-font-specification:'Nanum Pen Script OTF';text-align:center;text-anchor:middle;fill:#ffffff;stroke:#ffffff;stroke-width:2.07299328;stroke-miterlimit:4;stroke-dasharray:none;stroke-opacity:1"
         sodipodi:role="line"
         id="tspan3429">사프란의</tspan><tspan
         y="1792.8926"
         x="1000.265"
         style="font-style:normal;font-variant:normal;font-weight:normal;font-stretch:normal;font-size:95.64933777px;line-height:80.00000119%;font-family:'Nanum Pen Script OTF';-inkscape-font-specification:'Nanum Pen Script OTF';text-align:center;text-anchor:middle;fill:#ffffff;stroke:#ffffff;stroke-width:2.07299328;stroke-miterlimit:4;stroke-dasharray:none;stroke-opacity:1"
         sodipodi:role="line"
         id="tspan3434"> 성공</tspan></text>
    <text
       id="text3433"
       y="265.51138"
       x="1180.5452"
       style="font-style:normal;font-variant:normal;font-weight:normal;font-stretch:normal;line-height:0%;font-family:'Nanum Pen Script OTF';-inkscape-font-specification:'Nanum Pen Script OTF';text-align:center;letter-spacing:0px;word-spacing:0px;text-anchor:middle;display:inline;opacity:0.7;fill:#784421;fill-opacity:1;stroke:#502d16;stroke-width:3.4000001;stroke-miterlimit:4;stroke-dasharray:none;stroke-opacity:1;filter:url(#filter4367-7-2)"
       xml:space="preserve"><tspan
         id="tspan3435"
         y="265.51138"
         x="1180.5452"
         style="font-style:normal;font-variant:normal;font-weight:normal;font-stretch:normal;font-size:95.64933777px;line-height:1.25;font-family:'Nanum Pen Script OTF';-inkscape-font-specification:'Nanum Pen Script OTF';text-align:start;text-anchor:start;fill:#784421;stroke:#502d16;stroke-width:3.4000001;stroke-miterlimit:4;stroke-dasharray:none;stroke-opacity:1"
         sodipodi:role="line">패션</tspan></text>
    <text
       transform="matrix(0.72899519,0,-0.26533909,0.71822761,960.82043,-342.1288)"
       id="text3437"
       y="1716.373"
       x="1000.265"
       style="font-style:normal;font-variant:normal;font-weight:normal;font-stretch:normal;line-height:0%;font-family:'Nanum Pen Script OTF';-inkscape-font-specification:'Nanum Pen Script OTF';text-align:center;letter-spacing:0px;word-spacing:0px;text-anchor:middle;display:inline;opacity:0.5;fill:#ffffff;fill-opacity:1;stroke:#ffffff;stroke-width:2.07299328;stroke-miterlimit:4;stroke-dasharray:none;stroke-opacity:1;filter:url(#filter4375-4-1-1-1-9-3-7)"
       xml:space="preserve"><tspan
         y="1716.373"
         x="1000.265"
         style="font-style:normal;font-variant:normal;font-weight:normal;font-stretch:normal;font-size:95.64933777px;line-height:80.00000119%;font-family:'Nanum Pen Script OTF';-inkscape-font-specification:'Nanum Pen Script OTF';text-align:center;text-anchor:middle;fill:#ffffff;stroke:#ffffff;stroke-width:2.07299328;stroke-miterlimit:4;stroke-dasharray:none;stroke-opacity:1"
         sodipodi:role="line"
         id="tspan3438">사프란</tspan><tspan
         y="1792.8926"
         x="1000.265"
         style="font-style:normal;font-variant:normal;font-weight:normal;font-stretch:normal;font-size:95.64933777px;line-height:80.00000119%;font-family:'Nanum Pen Script OTF';-inkscape-font-specification:'Nanum Pen Script OTF';text-align:center;text-anchor:middle;fill:#ffffff;stroke:#ffffff;stroke-width:2.07299328;stroke-miterlimit:4;stroke-dasharray:none;stroke-opacity:1"
         sodipodi:role="line"
         id="tspan3450-9"> 효과</tspan></text>
    <text
       id="text3443"
       y="269.97281"
       x="1905.5457"
       style="font-style:normal;font-variant:normal;font-weight:normal;font-stretch:normal;line-height:0%;font-family:'Nanum Pen Script OTF';-inkscape-font-specification:'Nanum Pen Script OTF';text-align:center;letter-spacing:0px;word-spacing:0px;text-anchor:middle;display:inline;opacity:0.7;fill:#784421;fill-opacity:1;stroke:#502d16;stroke-width:3.4000001;stroke-miterlimit:4;stroke-dasharray:none;stroke-opacity:1;filter:url(#filter4367-7-1-5)"
       xml:space="preserve"><tspan
         id="tspan3445"
         y="269.97281"
         x="1905.5457"
         style="font-style:normal;font-variant:normal;font-weight:normal;font-stretch:normal;font-size:95.64933777px;line-height:1.25;font-family:'Nanum Pen Script OTF';-inkscape-font-specification:'Nanum Pen Script OTF';text-align:start;text-anchor:start;fill:#784421;stroke:#502d16;stroke-width:3.4000001;stroke-miterlimit:4;stroke-dasharray:none;stroke-opacity:1"
         sodipodi:role="line">시크</tspan></text>
    <text
       transform="matrix(0.72899519,0,-0.24217412,0.71822761,1603.0632,-342.1288)"
       id="text3447"
       y="1716.373"
       x="1000.265"
       style="font-style:normal;font-variant:normal;font-weight:normal;font-stretch:normal;line-height:0%;font-family:'Nanum Pen Script OTF';-inkscape-font-specification:'Nanum Pen Script OTF';text-align:center;letter-spacing:0px;word-spacing:0px;text-anchor:middle;display:inline;opacity:0.5;fill:#ffffff;fill-opacity:1;stroke:#ffffff;stroke-width:2.07299328;stroke-miterlimit:4;stroke-dasharray:none;stroke-opacity:1;filter:url(#filter4375-4-1-1-1-9-3-7)"
       xml:space="preserve"><tspan
         id="tspan3449"
         y="1716.373"
         x="1000.265"
         style="font-style:normal;font-variant:normal;font-weight:normal;font-stretch:normal;font-size:95.64933777px;line-height:80.00000119%;font-family:'Nanum Pen Script OTF';-inkscape-font-specification:'Nanum Pen Script OTF';text-align:center;text-anchor:middle;fill:#ffffff;stroke:#ffffff;stroke-width:2.07299328;stroke-miterlimit:4;stroke-dasharray:none;stroke-opacity:1"
         sodipodi:role="line">사프란</tspan><tspan
         id="tspan3451"
         y="1792.8926"
         x="1000.265"
         style="font-style:normal;font-variant:normal;font-weight:normal;font-stretch:normal;font-size:95.64933777px;line-height:80.00000119%;font-family:'Nanum Pen Script OTF';-inkscape-font-specification:'Nanum Pen Script OTF';text-align:center;text-anchor:middle;fill:#ffffff;stroke:#ffffff;stroke-width:2.07299328;stroke-miterlimit:4;stroke-dasharray:none;stroke-opacity:1"
         sodipodi:role="line"> 특집</tspan></text>
    <text
       xml:space="preserve"
       style="font-style:normal;font-variant:normal;font-weight:normal;font-stretch:normal;line-height:0%;font-family:'Nanum Pen Script OTF';-inkscape-font-specification:'Nanum Pen Script OTF';text-align:center;letter-spacing:0px;word-spacing:0px;text-anchor:middle;display:inline;opacity:0.7;fill:#784421;fill-opacity:1;stroke:#502d16;stroke-width:3.4000001;stroke-miterlimit:4;stroke-dasharray:none;stroke-opacity:1;filter:url(#filter4367-3)"
       x="467.09564"
       y="2233.5723"
       id="text3495"><tspan
         sodipodi:role="line"
         style="font-style:normal;font-variant:normal;font-weight:normal;font-stretch:normal;font-size:95.64933777px;line-height:1.25;font-family:'Nanum Pen Script OTF';-inkscape-font-specification:'Nanum Pen Script OTF';text-align:start;text-anchor:start;fill:#784421;stroke:#502d16;stroke-width:3.4000001;stroke-miterlimit:4;stroke-dasharray:none;stroke-opacity:1"
         x="467.09564"
         y="2233.5723"
         id="tspan3497">연예</tspan></text>
    <text
       xml:space="preserve"
       style="font-style:normal;font-variant:normal;font-weight:normal;font-stretch:normal;line-height:0%;font-family:'Nanum Pen Script OTF';-inkscape-font-specification:'Nanum Pen Script OTF';text-align:center;letter-spacing:0px;word-spacing:0px;text-anchor:middle;display:inline;opacity:0.7;fill:#784421;fill-opacity:1;stroke:#502d16;stroke-width:3.4000001;stroke-miterlimit:4;stroke-dasharray:none;stroke-opacity:1;filter:url(#filter4367-7-2)"
       x="1180.5452"
       y="2233.1128"
       id="text3499"><tspan
         sodipodi:role="line"
         style="font-style:normal;font-variant:normal;font-weight:normal;font-stretch:normal;font-size:95.64933777px;line-height:1.25;font-family:'Nanum Pen Script OTF';-inkscape-font-specification:'Nanum Pen Script OTF';text-align:start;text-anchor:start;fill:#784421;stroke:#502d16;stroke-width:3.4000001;stroke-miterlimit:4;stroke-dasharray:none;stroke-opacity:1"
         x="1180.5452"
         y="2233.1128"
         id="tspan3501">패션</tspan></text>
    <text
       xml:space="preserve"
       style="font-style:normal;font-variant:normal;font-weight:normal;font-stretch:normal;line-height:0%;font-family:'Nanum Pen Script OTF';-inkscape-font-specification:'Nanum Pen Script OTF';text-align:center;letter-spacing:0px;word-spacing:0px;text-anchor:middle;display:inline;opacity:0.7;fill:#784421;fill-opacity:1;stroke:#502d16;stroke-width:3.4000001;stroke-miterlimit:4;stroke-dasharray:none;stroke-opacity:1;filter:url(#filter4367-7-1-5)"
       x="1905.5457"
       y="2237.5742"
       id="text3503"><tspan
         sodipodi:role="line"
         style="font-style:normal;font-variant:normal;font-weight:normal;font-stretch:normal;font-size:95.64933777px;line-height:1.25;font-family:'Nanum Pen Script OTF';-inkscape-font-specification:'Nanum Pen Script OTF';text-align:start;text-anchor:start;fill:#784421;stroke:#502d16;stroke-width:3.4000001;stroke-miterlimit:4;stroke-dasharray:none;stroke-opacity:1"
         x="1905.5457"
         y="2237.5742"
         id="tspan3505">시크</tspan></text>
    <text
       id="text3428"
       y="1481.1207"
       x="-279.06573"
       style="font-style:normal;font-variant:normal;font-weight:normal;font-stretch:normal;line-height:0%;font-family:'Nanum Pen Script OTF';-inkscape-font-specification:'Nanum Pen Script OTF';text-indent:0;text-align:start;text-decoration:none;text-decoration-line:none;text-decoration-style:solid;text-decoration-color:#000000;letter-spacing:0px;word-spacing:0px;text-transform:none;writing-mode:lr-tb;direction:ltr;baseline-shift:baseline;text-anchor:start;white-space:normal;opacity:0.5;fill:#000000;fill-opacity:1;stroke:#966431;stroke-width:2.02265429;stroke-linecap:butt;stroke-linejoin:miter;stroke-miterlimit:4;stroke-dasharray:none;stroke-dashoffset:0;stroke-opacity:1;filter:url(#filter4289)"
       xml:space="preserve"
       transform="matrix(1.5605067,-0.94113167,0.8835093,1.6670428,-387.44561,-2042.7978)"><tspan
         id="tspan3431"
         y="1481.1207"
         x="-279.06573"
         style="font-style:normal;font-variant:normal;font-weight:normal;font-stretch:normal;font-size:45px;line-height:1.25;font-family:'Nanum Pen Script OTF';-inkscape-font-specification:'Nanum Pen Script OTF';text-indent:0;text-align:start;text-decoration:none;text-decoration-line:none;text-decoration-style:solid;text-decoration-color:#000000;letter-spacing:0px;word-spacing:0px;text-transform:none;writing-mode:lr-tb;direction:ltr;baseline-shift:baseline;text-anchor:start;white-space:normal;fill:#000000;fill-opacity:1;stroke:#966431;stroke-width:2.02265429;stroke-linecap:butt;stroke-linejoin:miter;stroke-miterlimit:4;stroke-dasharray:none;stroke-dashoffset:0;stroke-opacity:1;filter:url(#filter4289)"
         sodipodi:role="line">50 000 콤</tspan></text>
  </g>
</svg>
