<?xml version="1.0" encoding="UTF-8" standalone="no"?>
<!-- Created with Inkscape (http://www.inkscape.org/) -->

<svg
   xmlns:dc="http://purl.org/dc/elements/1.1/"
   xmlns:cc="http://creativecommons.org/ns#"
   xmlns:rdf="http://www.w3.org/1999/02/22-rdf-syntax-ns#"
   xmlns:svg="http://www.w3.org/2000/svg"
   xmlns="http://www.w3.org/2000/svg"
   xmlns:xlink="http://www.w3.org/1999/xlink"
   xmlns:sodipodi="http://sodipodi.sourceforge.net/DTD/sodipodi-0.dtd"
   xmlns:inkscape="http://www.inkscape.org/namespaces/inkscape"
   id="svg2"
   version="1.1"
   inkscape:version="0.92.2 2405546, 2018-03-11"
   width="2481"
   height="3503"
   sodipodi:docname="E27P02.svg">
  <metadata
     id="metadata8">
    <rdf:RDF>
      <cc:Work
         rdf:about="">
        <dc:format>image/svg+xml</dc:format>
        <dc:type
           rdf:resource="http://purl.org/dc/dcmitype/StillImage" />
        <dc:title />
      </cc:Work>
    </rdf:RDF>
  </metadata>
  <defs
     id="defs6" />
  <sodipodi:namedview
     pagecolor="#ffffff"
     bordercolor="#666666"
     borderopacity="1"
     objecttolerance="10"
     gridtolerance="10"
     guidetolerance="10"
     inkscape:pageopacity="0"
     inkscape:pageshadow="2"
     inkscape:window-width="1438"
     inkscape:window-height="840"
     id="namedview4"
     showgrid="false"
     inkscape:zoom="0.4574026"
     inkscape:cx="1021.7892"
     inkscape:cy="1026.6718"
     inkscape:window-x="0"
     inkscape:window-y="0"
     inkscape:window-maximized="1"
     inkscape:current-layer="layer3"
     inkscape:snap-global="false" />
  <g
     inkscape:groupmode="layer"
     id="layer2"
     inkscape:label="artwork"
     sodipodi:insensitive="true">
    <image
       sodipodi:absref="/home/midgard/git/peppercarrot/comics/ep27_Coriander-s-Invention/lang/eo/../gfx_Pepper-and-Carrot_by-David-Revoy_E27P02.png"
       xlink:href="../gfx_Pepper-and-Carrot_by-David-Revoy_E27P02.png"
       y="0"
       x="0"
       id="image10"
       height="3503"
       width="2481" />
  </g>
  <g
     inkscape:groupmode="layer"
     id="layer3"
     inkscape:label="speechbubbles">
    <path
       style="fill:#ffffff;fill-rule:evenodd;stroke:none;stroke-width:0.98521012px;stroke-linecap:butt;stroke-linejoin:miter;stroke-opacity:1"
       d="m 470.4187,195.57139 c 5.57621,1.63451 58.15183,0 62.93142,-0.81725 4.77961,-0.81726 40.62662,-7.35529 49.38923,-5.72078 8.7626,1.63451 69.30421,10.6243 80.45662,11.44156 11.1524,0.81725 64.52462,2.45176 74.08382,7.35529 9.55921,4.90352 22.30482,9.80705 29.47423,17.9796 7.1694,8.17254 17.52519,33.50743 16.72859,39.22821 -0.7966,5.72078 -11.949,44.94899 -18.3218,50.66977 -6.3728,5.72078 -28.67761,24.51763 -35.05041,26.9694 -6.37281,2.45176 -20.71161,8.98979 -27.88102,11.44156 -7.1694,2.45176 -169.67586,4.90352 -189.59086,5.72078 -19.91501,0.81725 -97.18524,-4.90353 -110.72745,-5.72078 -13.5422,-0.81726 -45.40622,1.63451 -66.11781,-6.53804 -20.71162,-8.17254 -35.05043,-38.41095 -41.42323,-44.13174 -6.3728,-5.72078 -17.5252,-30.23841 -16.7286,-39.22821 0.79659,-8.9898 16.7286,-30.23841 24.6946,-32.69017 7.966,-2.45177 40.62662,-22.88313 59.74502,-26.9694 19.11842,-4.08627 65.32123,-13.89332 74.08383,-13.07607 11.9943,1.64213 10.7342,0.16304 34.25382,4.08627 z"
       id="path1323"
       inkscape:connector-curvature="0"
       sodipodi:nodetypes="ccsscscsscsssccsscc" />
    <path
       style="fill:#ffffff;fill-rule:evenodd;stroke:none;stroke-width:1.07388997px;stroke-linecap:butt;stroke-linejoin:miter;stroke-opacity:1"
       d="m 125.68756,163.77351 c 13.36509,-19.15682 37.58931,-29.0442 50.11907,-31.51605 12.52976,-2.47185 33.41271,3.08981 45.10718,1.85389 11.69444,-1.23593 55.96628,-12.35924 72.67265,-11.74128 16.70634,0.61796 65.9901,4.32573 81.86114,4.9437 15.87104,0.61796 55.13099,3.0898 69.33139,9.88738 14.20042,6.79758 30.07145,14.21312 32.5774,21.0107 2.50594,6.79758 8.35318,19.77478 2.50594,30.89809 -5.84721,11.12331 -20.04761,30.28013 -38.42461,32.13401 -18.377,1.85389 -109.42665,8.65147 -129.47427,8.0335 -20.04764,-0.61796 -75.17862,0 -88.5437,0 -13.36509,0 -61.81353,-4.32573 -76.01393,-12.35923 -14.20041,-8.0335 -25.05953,-24.10051 -26.73017,-33.9879 -1.67063,-9.88738 5.01191,-19.15681 5.01191,-19.15681 z"
       id="path1325"
       inkscape:connector-curvature="0" />
    <path
       style="fill:#ffffff;fill-rule:evenodd;stroke:none;stroke-width:1px;stroke-linecap:butt;stroke-linejoin:miter;stroke-opacity:1"
       d="m 544.4243,343.97954 c 6.17962,25.33643 -4.94369,76.0093 4.32573,89.60445 9.26943,13.59516 11.12331,11.74128 19.15682,18.53886 -12.35924,15.44904 -17.92089,33.36993 -16.68497,42.63936 1.23592,9.26942 4.32573,33.36993 35.84178,44.49324 -27.19032,-19.15681 -24.71847,-38.31363 -23.48255,-43.87528 1.23593,-5.56166 6.17962,-34.60586 21.62867,-42.0214 -15.44905,-11.74127 -23.48255,-24.71847 -23.48255,-32.13401 0,-7.41554 8.65146,-82.80688 8.65146,-82.80688 z"
       id="path1327"
       inkscape:connector-curvature="0" />
    <path
       style="fill:#ffffff;fill-rule:evenodd;stroke:none;stroke-width:1px;stroke-linecap:butt;stroke-linejoin:miter;stroke-opacity:1"
       d="m 1030.3239,135.64606 c -32.42454,11.67521 -62.38622,21.23089 -66.7095,38.35452 -4.32327,17.12363 -16.21228,31.13388 -17.2931,42.80908 -1.08082,11.6752 7.26449,54.26875 14.83022,69.83568 7.56573,15.56695 48.63688,51.3709 54.04088,54.48429 5.4041,3.11338 41.0712,13.23189 58.3643,17.90197 17.2931,4.67009 155.6379,7.78347 180.4967,10.11851 24.8589,2.33504 91.8696,-10.89685 109.1628,-16.34528 17.2931,-5.44843 41.0711,-7.78347 51.8793,-17.12363 10.8082,-9.34016 35.667,-34.24726 39.9903,-45.14411 4.3232,-10.89686 4.3232,-48.25751 4.3232,-56.04098 0,-7.78347 -1.0808,-42.03073 -21.6163,-56.81932 -20.5356,-14.78858 -55.1218,-35.02561 -82.1423,-41.25238 -27.0205,-6.22678 -190.2241,-15.56694 -208.598,-16.34529 -18.374,-0.77834 -116.7285,15.56694 -116.7285,15.56694 z"
       id="path1329"
       inkscape:connector-curvature="0"
       sodipodi:nodetypes="cssscsscscscssc" />
    <path
       style="fill:#ffffff;fill-rule:evenodd;stroke:none;stroke-width:0.81378996px;stroke-linecap:butt;stroke-linejoin:miter;stroke-opacity:1"
       d="m 1072.3084,368.82684 c -22.3989,14.36798 -47.3824,27.83798 -52.5514,37.71597 -5.1689,9.87799 -12.0609,36.81796 -8.615,49.38996 3.4461,12.57199 14.6456,64.65595 27.568,74.53394 12.9224,9.87799 54.2745,40.40997 74.9504,40.40997 20.676,0 87.0113,11.67399 98.2109,10.77599 11.1994,-0.898 83.5652,9.87799 102.5183,0.898 18.9529,-8.98 43.0748,-25.14398 57.7204,-30.53198 14.6453,-5.38799 49.9668,-8.08199 60.3048,-27.83798 10.3381,-19.75598 14.964,-55.03303 6.8921,-80.81994 -7.8069,-24.93996 -24.122,-46.69595 -49.967,-60.16595 -25.8449,-13.46998 -108.5488,-43.10396 -108.5488,-43.10396 l -124.0558,-11.67399 c 0,0 -19.8145,8.08199 -40.4905,19.75598 -20.6759,11.67399 -43.9364,20.65399 -43.9364,20.65399 z"
       id="path1331"
       inkscape:connector-curvature="0"
       sodipodi:nodetypes="csccsccccasccsc" />
    <path
       style="fill:#ffffff;fill-rule:evenodd;stroke:none;stroke-width:1px;stroke-linecap:butt;stroke-linejoin:miter;stroke-opacity:1"
       d="m 1338.8638,543.10219 c 0,0 27.0205,22.6972 35.667,37.82867 8.6466,15.13146 27.0205,36.74784 22.6972,76.73814 10.8082,-51.87931 10.8082,-67.01077 -20.5355,-116.72844 -31.3438,-49.71768 -37.8287,2.16163 -37.8287,2.16163 z"
       id="path1333"
       inkscape:connector-curvature="0" />
    <path
       style="fill:#ffffff;fill-rule:evenodd;stroke:none;stroke-width:1.01621926px;stroke-linecap:butt;stroke-linejoin:miter;stroke-opacity:1"
       d="m 1613.358,231.8935 c 11.5523,-46.74643 15.403,-74.01519 42.3583,-90.89585 26.9554,-16.88066 137.344,-31.16429 152.747,-32.4628 15.4031,-1.29851 61.6122,3.89554 83.4332,3.89554 21.8211,0 134.7768,-2.59703 152.747,-2.59703 17.9702,0 91.1348,0 110.3886,2.59703 19.2538,2.59702 87.2839,18.17916 98.8363,29.86578 11.5523,11.6866 44.9255,61.03006 46.2091,93.49287 1.2836,32.4628 -1.2836,85.7018 -24.3882,106.47799 -23.1045,20.77619 -77.0153,46.74643 -112.9557,54.53751 -35.9404,7.79107 -211.7921,16.88065 -232.3294,16.88065 -20.5374,0 -107.8214,3.89554 -150.1797,-2.59702 -42.3585,-6.49256 -88.5677,-25.97024 -110.3886,-44.14941 -21.821,-18.17918 -48.7765,-31.16429 -56.4779,-66.22412 -7.7016,-35.05983 0,-68.82114 0,-68.82114 z"
       id="path1335"
       inkscape:connector-curvature="0" />
    <path
       style="fill:#ffffff;fill-rule:evenodd;stroke:none;stroke-width:1px;stroke-linecap:butt;stroke-linejoin:miter;stroke-opacity:1"
       d="m 1746.5526,423.03907 c 27.5116,26.61792 42.8588,47.56076 -11.4058,80.71719 49.1355,-0.72812 43.5728,20.05383 34.2174,45.56614 66.8976,-20.5973 113.7421,-7.40942 120.3948,32.54725 43.9171,-32.2476 50.5645,-26.46532 83.6426,-1.30189 39.6321,-49.89404 62.6056,-15.54139 91.2465,-10.41512 -5.8821,-23.03081 13.5288,-43.92498 62.4748,-10.21797 -17.5693,-18.88765 -10.6126,-65.99877 56.6527,-69.19731 -30.151,-10.89059 -73.1985,-22.51429 -22.8117,-69.00017 -77.6206,-8.98442 -39.9485,-27.33589 -51.9598,-41.66048 l -112.7909,-13.0189 -114.0581,7.81134 -58.2964,5.20756 c -1.4105,20.45876 4.4806,42.79545 -77.3061,42.96236 z"
       id="path1337"
       inkscape:connector-curvature="0"
       sodipodi:nodetypes="cccccccccccccc" />
    <path
       style="fill:#ffffff;fill-rule:evenodd;stroke:none;stroke-width:1px;stroke-linecap:butt;stroke-linejoin:miter;stroke-opacity:1"
       d="m 2083.819,528.58622 c 24.8588,19.45474 57.2834,63.76832 55.1217,92.95043 10.8082,-38.90948 -17.2931,-97.27371 -31.3437,-112.40517 -14.0507,-15.13147 -23.778,19.45474 -23.778,19.45474 z"
       id="path1339"
       inkscape:connector-curvature="0" />
    <path
       style="fill:#ffffff;fill-rule:evenodd;stroke:none;stroke-width:1px;stroke-linecap:butt;stroke-linejoin:miter;stroke-opacity:1"
       d="m 890.21141,1438.6648 c 10.99475,-34.2595 32.98428,-50.6446 62.82721,-59.5818 29.84293,-8.9372 108.37698,1.4895 128.79578,1.4895 20.4188,0 102.0943,7.4477 113.089,19.3641 10.9948,11.9164 37.6963,37.2387 29.8429,64.0505 -7.8534,26.8118 -17.2775,53.6236 -59.6858,68.519 -42.4084,14.8954 -81.6754,0 -97.3823,1.4896 -15.7068,1.4895 -36.1256,8.9372 -80.10461,1.4895 -43.97905,-7.4477 -100.52356,-46.1759 -97.38218,-96.8204 z"
       id="path1341"
       inkscape:connector-curvature="0" />
    <path
       style="fill:#ffffff;fill-rule:evenodd;stroke:none;stroke-width:1px;stroke-linecap:butt;stroke-linejoin:miter;stroke-opacity:1"
       d="m 1321.8416,1549.9601 c -25.1103,-26.3097 -29.3743,-46.7563 -36.94,-53.2412 -7.5658,-6.4849 -52.768,-40.79 -87.3542,-44.0325 -34.5862,-3.2424 -28.1013,24.8589 -28.1013,24.8589 0,0 36.7479,1.0808 51.8793,5.4041 15.1315,4.3232 48.6369,20.5355 54.041,24.8588 5.4041,4.3233 19.4547,27.0205 46.4752,42.1519 z"
       id="path1343"
       inkscape:connector-curvature="0"
       sodipodi:nodetypes="cccccsc" />
    <path
       style="fill:#ffffff;fill-rule:evenodd;stroke:none;stroke-width:1px;stroke-linecap:butt;stroke-linejoin:miter;stroke-opacity:1"
       d="m 1847.0115,1634.8585 c 65.8759,-41.0171 79.5483,-53.4465 129.266,-55.9324 49.7176,-2.4859 59.6612,-29.8306 59.6612,-29.8306 0,0 -34.8024,-1.243 -72.0906,6.2147 -37.2883,7.4576 -95.7066,37.2882 -116.8366,79.5483 z"
       id="path1345"
       inkscape:connector-curvature="0" />
    <path
       style="fill:#ffffff;fill-rule:evenodd;stroke:none;stroke-width:1.02578545px;stroke-linecap:butt;stroke-linejoin:miter;stroke-opacity:1"
       d="m 1980.6143,1519.225 c 18.7295,-20.9727 66.8909,-43.2562 96.3229,-47.1886 29.4319,-3.9323 123.0792,5.2432 143.1465,17.0403 20.0672,11.7972 61.5396,20.9728 60.2018,58.9858 -1.3379,38.013 5.3513,55.0534 -25.4185,76.026 -30.7698,20.9728 -139.1331,15.7296 -163.2137,14.4188 -24.0809,-1.3107 -69.5666,-6.5539 -93.6473,-30.1483 -24.0808,-23.5942 -34.7833,-48.4993 -17.3917,-89.134 z"
       id="path1347"
       inkscape:connector-curvature="0" />
    <path
       style="fill:#ffffff;fill-rule:evenodd;stroke:none;stroke-width:1.01257312px;stroke-linecap:butt;stroke-linejoin:miter;stroke-opacity:1"
       d="m 2004.6151,1655.9885 c 20.3903,-34.8024 70.0916,-47.2318 81.5612,-47.2318 11.4696,0 100.6771,7.4576 117.2442,7.4576 16.5672,0 50.9758,-7.4576 70.0916,-4.9717 19.116,2.4859 54.799,0 70.0917,24.8588 15.2927,24.8588 26.7623,79.5483 22.9391,103.1642 -3.8231,23.6159 9.7354,68.6027 -6.8318,104.648 -16.567,36.0453 -18.3013,34.2585 -42.5148,45.445 -24.2135,11.1865 -148.1844,7.7606 -173.6723,4.0318 -25.4879,-3.7289 -75.1892,0 -96.8539,-6.2147 -21.6647,-6.2148 -56.0733,-27.3448 -50.9758,-53.4465 5.0976,-26.1018 -8.9207,-49.7177 -2.5488,-94.4636 6.3721,-44.7459 11.4696,-83.2771 11.4696,-83.2771 z"
       id="path1349"
       inkscape:connector-curvature="0"
       sodipodi:nodetypes="csscsccsccccc" />
    <path
       style="fill:#ffffff;fill-rule:evenodd;stroke:none;stroke-width:0.96832764px;stroke-linecap:butt;stroke-linejoin:miter;stroke-opacity:1"
       d="m 110.75191,2399.1151 c 0,-35.8207 24.2597,-41.7908 40.08123,-41.7908 15.82154,0 67.50522,-4.7762 74.88862,-4.7762 7.38338,0 62.23138,7.1642 71.72431,13.1343 9.49292,5.9701 24.25968,10.7462 22.15015,32.2386 -2.10954,21.4925 0,33.4327 -21.09538,39.4028 -21.09539,5.9702 -103.3674,8.3582 -118.13417,7.1642 -14.76676,-1.194 -36.91692,-10.7463 -47.46461,-17.9104 -10.54769,-7.1641 -24.2597,-9.5522 -22.15015,-27.4625 z"
       id="path1351"
       inkscape:connector-curvature="0" />
    <path
       style="fill:#ffffff;fill-rule:evenodd;stroke:none;stroke-width:1px;stroke-linecap:butt;stroke-linejoin:miter;stroke-opacity:1"
       d="m 309.11422,2418.5725 c 48.15781,-13.3735 82.20391,-10.201 96.44438,-8.217 14.9867,2.088 52.96013,14.4208 64.84914,25.229 11.889,10.8082 27.05014,32.7057 25.96932,45.6755 -1.08082,12.9699 6.91442,48.6073 5.8336,65.9004 -1.08082,17.2931 -12.59967,76.7677 -20.1654,101.6266 -7.56574,24.8588 -25.93966,54.0409 -107.00108,59.445 -81.06142,5.4041 -130.77909,3.2425 -162.12284,-5.4041 -31.34375,-8.6465 -71.33406,-14.0506 -82.14225,-55.1217 -10.80819,-41.0712 -14.05064,-87.5464 -10.80819,-107.0011 3.24246,-19.4548 6.48492,-62.6875 10.80819,-70.2533 4.32328,-7.5657 17.38212,-37.0289 27.10949,-43.5138 9.72737,-6.4849 151.22564,-8.3655 151.22564,-8.3655 z"
       id="path1353"
       inkscape:connector-curvature="0"
       sodipodi:nodetypes="csssscscsscsc" />
    <path
       style="fill:#ffffff;fill-rule:evenodd;stroke:none;stroke-width:1.00240672px;stroke-linecap:butt;stroke-linejoin:miter;stroke-opacity:1"
       d="m 518.93049,2537.6505 c 1.17612,-17.9645 15.28949,-50.8996 36.45957,-56.8878 21.17007,-5.9882 79.97581,-5.9882 91.73696,-2.994 11.76115,2.994 30.579,24.9507 35.28345,33.933 4.70447,8.9823 17.64173,40.9193 -3.52834,53.8936 -21.17006,12.9745 -42.34014,22.9548 -64.68633,21.9567 -22.34618,-0.998 -67.03855,-7.9842 -77.62359,-19.9605 -10.58503,-11.9765 -17.64172,-29.941 -17.64172,-29.941 z"
       id="path1355"
       inkscape:connector-curvature="0" />
    <path
       style="fill:#ffffff;fill-rule:evenodd;stroke:none;stroke-width:1px;stroke-linecap:butt;stroke-linejoin:miter;stroke-opacity:1"
       d="m 371.0335,2696.1612 c 0,0 10.62431,7.3553 12.25882,23.7003 1.63451,16.3451 -0.81725,35.142 -13.89333,54.7561 28.60391,-32.6902 43.31449,-55.5733 34.32469,-83.36 -8.9898,-27.7866 -32.69018,4.9036 -32.69018,4.9036 z"
       id="path1357"
       inkscape:connector-curvature="0" />
    <path
       style="fill:#ffffff;fill-rule:evenodd;stroke:none;stroke-width:1px;stroke-linecap:butt;stroke-linejoin:miter;stroke-opacity:1"
       d="m 609.41023,2578.6689 c 0,0 17.16235,24.5177 9.80706,38.411 -7.35529,13.8933 -8.9898,18.7968 -25.33489,35.1419 26.9694,-17.9796 37.5937,-31.0556 40.86272,-43.3145 3.26902,-12.2588 5.72078,-35.9592 5.72078,-42.4972 0,-6.538 -31.05567,12.2588 -31.05567,12.2588 z"
       id="path1359"
       inkscape:connector-curvature="0" />
    <path
       style="fill:#ffffff;fill-rule:evenodd;stroke:none;stroke-width:1.03840244px;stroke-linecap:butt;stroke-linejoin:miter;stroke-opacity:1"
       d="m 721.7991,2510.6937 c -9.39843,-42.5634 -7.51874,-84.1134 4.69921,-95.2608 4.75927,-26.065 60.0674,-65.3013 81.7663,-59.7915 16.91717,-4.0536 108.0819,-25.3353 125.93891,-23.3084 17.85701,2.0267 118.32618,4.6109 137.12298,22.8524 18.7969,18.2414 34.2573,28.5276 45.5355,47.7825 11.2781,19.2548 17.716,57.2071 23.3551,63.2875 5.639,6.0806 3.5713,36.3309 -1.1279,53.5589 -4.6992,17.2281 -21.6164,31.4159 -46.0523,37.4963 -24.4359,6.0806 -57.3304,14.1878 -78.9468,15.2013 -21.61634,1.0134 -71.428,1.0134 -109.0217,-2.0268 -44.76237,-9.5027 -72.61993,-9.7453 -117.26947,-14.0847 -8.45859,-1.0133 -64.12015,-18.3446 -65.99983,-45.7067 z"
       id="path1361"
       inkscape:connector-curvature="0"
       sodipodi:nodetypes="ccccccccccccc" />
    <path
       style="fill:#ffffff;fill-rule:evenodd;stroke:none;stroke-width:1px;stroke-linecap:butt;stroke-linejoin:miter;stroke-opacity:1"
       d="m 1048.8643,2539.6614 c 40.4132,37.5937 65.789,69.5483 47.932,102.4428 29.1351,-35.714 14.0976,-69.5483 -24.4359,-117.4803 -38.5336,-47.932 -23.4961,15.0375 -23.4961,15.0375 z"
       id="path1363"
       inkscape:connector-curvature="0" />
    <path
       style="fill:#ffffff;fill-rule:evenodd;stroke:none;stroke-width:1px;stroke-linecap:butt;stroke-linejoin:miter;stroke-opacity:1"
       d="m 1362.7766,2499.8218 c -0.8172,-27.7867 20.4314,-32.6902 31.8729,-34.3247 11.4416,-1.6345 58.8423,-9.807 76.8219,3.269 17.9796,13.0761 22.8832,35.142 14.7106,43.3145 -8.1725,8.1726 -34.3247,20.4314 -50.6698,21.2486 -16.345,0.8173 -51.487,-4.0862 -62.9285,-15.5278 -11.4416,-11.4416 -9.8071,-17.9796 -9.8071,-17.9796 z"
       id="path1365"
       inkscape:connector-curvature="0" />
    <path
       style="fill:#ffffff;fill-rule:evenodd;stroke:none;stroke-width:1px;stroke-linecap:butt;stroke-linejoin:miter;stroke-opacity:1"
       d="m 1445.7231,2523.112 c 0,0 19.6141,10.6243 24.5176,19.6141 4.9035,8.9898 13.0761,31.0556 8.9898,45.7662 13.0761,-26.1521 8.1725,-42.4972 4.9035,-49.8525 -3.269,-7.3553 -23.7004,-34.3247 -23.7004,-34.3247 z"
       id="path1367"
       inkscape:connector-curvature="0" />
    <path
       style="fill:#ffffff;fill-rule:evenodd;stroke:none;stroke-width:1.06018782px;stroke-linecap:butt;stroke-linejoin:miter;stroke-opacity:1"
       d="m 1747.7632,2452.444 c 5.3873,-52.9602 28.2363,-73.8102 51.1324,-81.376 22.8959,-7.5657 127.9948,-13.7361 160.3185,-12.6553 32.3236,1.0808 152.1908,11.889 172.3931,12.9698 20.2023,1.0809 71.3813,25.9397 75.4219,32.4246 4.0404,6.4849 21.5492,23.778 16.1619,43.2328 -5.3874,19.4547 -36.3642,45.3944 -65.9944,55.1217 -29.63,9.7274 -148.1501,17.2931 -171.0461,15.1315 -22.8959,-2.1616 -61.9536,-5.4041 -84.8497,-5.4041 -22.896,0 -95.6243,-1.0808 -114.4799,-12.9698 -18.8554,-11.889 -39.0577,-46.4752 -39.0577,-46.4752 z"
       id="path1369"
       inkscape:connector-curvature="0"
       sodipodi:nodetypes="ccsccccsscc" />
    <path
       style="fill:#ffffff;fill-rule:evenodd;stroke:none;stroke-width:1px;stroke-linecap:butt;stroke-linejoin:miter;stroke-opacity:1"
       d="m 1988.5393,2507.5657 c 15.6768,24.1512 6.1632,34.5534 -20.368,35.6671 20.5199,9.9586 46.1337,15.5923 40.7359,47.556 22.7818,-0.375 37.1938,-19.937 73.551,10.8082 21.4995,-25.3561 42.999,-13.281 64.4986,-2.1617 10.3119,-11.3113 29.2981,-12.0311 69.0248,-6.4849 -3.0677,-25.0109 21.8624,-36.1565 45.2622,-44.3136 -19.8128,-13.1763 -37.659,-27.5479 -24.8943,-60.5258 -28.7916,7.2773 -53.0033,6.6803 -66.7616,-11.889 -28.5646,4.157 -50.0209,21.8927 -89.3928,5.4041 -21.2019,19.9279 -44.8336,21.2885 -69.0248,18.3739 5.5129,17.7643 -0.9947,21.4958 -22.631,7.5657 z"
       id="path1371"
       inkscape:connector-curvature="0"
       sodipodi:nodetypes="cccccccccccc" />
    <path
       style="fill:#ffffff;fill-rule:evenodd;stroke:none;stroke-width:1px;stroke-linecap:butt;stroke-linejoin:miter;stroke-opacity:1"
       d="m 2118.422,2521.6365 c 18.6804,21.2425 38.4794,70.6471 36.2611,112.9619 11.9043,11.4735 18.2079,28.1469 14.6706,47.7002 -5.9747,-31.3704 -14.7272,-34.5072 -28.0638,-42.3564 -1.0468,-24.2659 -13.6694,-74.7021 -33.797,-109.4096 -20.1279,-34.7075 10.9291,-8.8961 10.9291,-8.8961 z"
       id="path1373"
       inkscape:connector-curvature="0" />
  </g>
  <g
     inkscape:groupmode="layer"
     id="layer1"
     inkscape:label="txt">
    <text
       xml:space="preserve"
       style="font-style:normal;font-variant:normal;font-weight:normal;font-stretch:normal;line-height:0%;font-family:Lavi;-inkscape-font-specification:Lavi;text-align:center;letter-spacing:0px;word-spacing:0px;text-anchor:middle;fill:#000000;fill-opacity:1;stroke:none"
       x="312.96201"
       y="195.86002"
       id="text4246"><tspan
         sodipodi:role="line"
         style="font-size:45px;line-height:1.20000005"
         x="312.96201"
         y="195.86002"
         id="tspan4252">Ĉu vi scias? ...</tspan></text>
    <text
       xml:space="preserve"
       style="font-style:normal;font-variant:normal;font-weight:normal;font-stretch:normal;line-height:0%;font-family:Lavi;-inkscape-font-specification:Lavi;text-align:center;letter-spacing:0px;word-spacing:0px;text-anchor:middle;fill:#000000;fill-opacity:1;stroke:none"
       x="528.04688"
       y="267.45801"
       id="text4246-3"><tspan
         sodipodi:role="line"
         style="font-size:45px;line-height:1.20000005"
         x="535.07812"
         y="267.45801"
         id="tspan4252-6">Mi repensis pri mia </tspan><tspan
         sodipodi:role="line"
         style="font-size:45px;line-height:1.20000005"
         x="528.04688"
         y="321.45801"
         id="tspan841">sekureco...</tspan></text>
    <text
       xml:space="preserve"
       style="font-style:normal;font-variant:normal;font-weight:normal;font-stretch:normal;line-height:0%;font-family:Lavi;-inkscape-font-specification:Lavi;text-align:center;letter-spacing:0px;word-spacing:0px;text-anchor:middle;fill:#000000;fill-opacity:1;stroke:none"
       x="1207.7344"
       y="200.33717"
       id="text4246-3-7"><tspan
         sodipodi:role="line"
         style="font-size:45px;line-height:1.20000005"
         x="1214.7656"
         y="200.33717"
         id="tspan866">Tiom multe da junja </tspan><tspan
         sodipodi:role="line"
         style="font-size:45px;line-height:1.20000005"
         x="1207.7344"
         y="254.33717"
         id="tspan3424">gereĝoj estis morditaj</tspan><tspan
         sodipodi:role="line"
         style="font-size:45px;line-height:1.20000005"
         x="1207.7344"
         y="308.33719"
         id="tspan872">dum siajn kronadojn.</tspan></text>
    <text
       xml:space="preserve"
       style="font-style:normal;font-variant:normal;font-weight:normal;font-stretch:normal;line-height:0%;font-family:Lavi;-inkscape-font-specification:Lavi;text-align:center;letter-spacing:0px;word-spacing:0px;text-anchor:middle;fill:#000000;fill-opacity:1;stroke:none"
       x="1227.0865"
       y="433.00534"
       id="text4246-3-7-7"><tspan
         sodipodi:role="line"
         style="font-size:45px;line-height:1.20000005"
         x="1227.0865"
         y="433.00534"
         id="tspan952">Tio estiĝis parto</tspan><tspan
         sodipodi:role="line"
         style="font-size:45px;line-height:1.20000005"
         x="1234.1178"
         y="487.00534"
         id="tspan3434">de mia familia </tspan><tspan
         sodipodi:role="line"
         style="font-size:45px;line-height:1.20000005"
         x="1227.0865"
         y="541.00537"
         id="tspan746">historio.</tspan></text>
    <text
       xml:space="preserve"
       style="font-style:normal;font-variant:normal;font-weight:normal;font-stretch:normal;line-height:0%;font-family:Lavi;-inkscape-font-specification:Lavi;text-align:center;letter-spacing:0px;word-spacing:0px;text-anchor:middle;fill:#000000;fill-opacity:1;stroke:none"
       x="1958.4364"
       y="199.95392"
       id="text4246-3-7-7-6"><tspan
         sodipodi:role="line"
         style="font-size:45px;line-height:1.20000005"
         x="1958.4364"
         y="199.95392"
         id="tspan990">Kaj hodiaŭ, post kelkaj horoj,</tspan><tspan
         sodipodi:role="line"
         style="font-size:45px;line-height:1.20000005"
         x="1965.4677"
         y="253.95392"
         id="tspan3444">ni ricevos centojn da gastoj </tspan><tspan
         sodipodi:role="line"
         style="font-size:45px;line-height:1.20000005"
         x="1965.4677"
         y="307.95392"
         id="tspan996">el la tuta mondo kaj mi </tspan><tspan
         sodipodi:role="line"
         style="font-size:45px;line-height:1.20000005"
         x="1958.4364"
         y="361.95392"
         id="tspan3454">estos la atentocentro.</tspan></text>
    <text
       xml:space="preserve"
       style="font-style:normal;font-variant:normal;font-weight:normal;font-stretch:normal;line-height:0%;font-family:Lavi;-inkscape-font-specification:Lavi;text-align:center;letter-spacing:0px;word-spacing:0px;text-anchor:middle;fill:#000000;fill-opacity:1;stroke:none"
       x="1059.3418"
       y="1445.7167"
       id="text4246-3-7-7-6-7"><tspan
         sodipodi:role="line"
         style="font-size:45px;line-height:1.20000005"
         x="1059.3418"
         y="1445.7167"
         id="tspan1042">Ne zorgu,</tspan><tspan
         sodipodi:role="line"
         style="font-size:45px;line-height:1.20000005"
         x="1059.3418"
         y="1499.7167"
         id="tspan1067">Koriando.</tspan></text>
    <text
       xml:space="preserve"
       style="font-style:normal;font-variant:normal;font-weight:normal;font-stretch:normal;line-height:0%;font-family:Lavi;-inkscape-font-specification:Lavi;text-align:center;letter-spacing:0px;word-spacing:0px;text-anchor:middle;fill:#000000;fill-opacity:1;stroke:none"
       x="1957.3252"
       y="459.72366"
       id="text4246-3-7-7-6-7-7"><tspan
         sodipodi:role="line"
         style="font-size:45px;line-height:1.20000005"
         x="1957.3252"
         y="459.72366"
         id="tspan996-3-5">Mi estas vere,</tspan><tspan
         sodipodi:role="line"
         style="font-size:45px;line-height:1.20000005"
         x="1957.3252"
         y="513.72369"
         id="tspan1042-9">vere timigita!</tspan></text>
    <text
       xml:space="preserve"
       style="font-style:normal;font-variant:normal;font-weight:normal;font-stretch:normal;line-height:0%;font-family:Lavi;-inkscape-font-specification:Lavi;text-align:center;letter-spacing:0px;word-spacing:0px;text-anchor:middle;fill:#000000;fill-opacity:1;stroke:none"
       x="2132.365"
       y="1545.0701"
       id="text4246-3-7-7-6-7-2"><tspan
         sodipodi:role="line"
         style="font-size:45px;line-height:1.20000005"
         x="2139.3962"
         y="1545.0701"
         id="tspan1092">Ni sekvos </tspan><tspan
         sodipodi:role="line"
         style="font-size:45px;line-height:1.20000005"
         x="2132.365"
         y="1599.0701"
         id="tspan3462">nian planon.</tspan></text>
    <text
       xml:space="preserve"
       style="font-style:normal;font-variant:normal;font-weight:normal;font-stretch:normal;line-height:0%;font-family:Lavi;-inkscape-font-specification:Lavi;text-align:center;letter-spacing:0px;word-spacing:0px;text-anchor:middle;fill:#000000;fill-opacity:1;stroke:none"
       x="2177.365"
       y="1689.9456"
       id="text4246-3-7-7-6-7-2-9"><tspan
         sodipodi:role="line"
         style="font-size:45px;line-height:1.20000005"
         x="2177.365"
         y="1689.9456"
         id="tspan1092-3">Ŝiŝimi kaj mi</tspan><tspan
         sodipodi:role="line"
         style="font-size:45px;line-height:1.20000005"
         x="2184.3962"
         y="1743.9456"
         id="tspan1119">estos viaj </tspan><tspan
         sodipodi:role="line"
         style="font-size:45px;line-height:1.20000005"
         x="2177.365"
         y="1797.9456"
         id="tspan3466">korpogardistoj,</tspan><tspan
         sodipodi:role="line"
         style="font-size:45px;line-height:1.20000005"
         x="2177.365"
         y="1851.9456"
         id="tspan1121">ĉu vi memoras?</tspan></text>
    <text
       xml:space="preserve"
       style="font-style:normal;font-variant:normal;font-weight:normal;font-stretch:normal;line-height:0%;font-family:Lavi;-inkscape-font-specification:Lavi;text-align:center;letter-spacing:0px;word-spacing:0px;text-anchor:middle;fill:#000000;fill-opacity:1;stroke:none"
       x="217.95593"
       y="2412.8384"
       id="text4246-3-7-7-6-7-2-9-6"><tspan
         sodipodi:role="line"
         style="font-size:45px;line-height:1.20000005"
         x="217.95593"
         y="2412.8384"
         id="tspan1121-3">Ĝuste.</tspan></text>
    <text
       xml:space="preserve"
       style="font-style:normal;font-variant:normal;font-weight:normal;font-stretch:normal;line-height:0%;font-family:Lavi;-inkscape-font-specification:Lavi;text-align:center;letter-spacing:0px;word-spacing:0px;text-anchor:middle;fill:#000000;fill-opacity:1;stroke:none"
       x="308.979"
       y="2497.8203"
       id="text4246-3-7-7-6-7-2-9-6-1"><tspan
         sodipodi:role="line"
         style="font-size:45px;line-height:1.20000005"
         x="308.979"
         y="2497.8203"
         id="tspan3488">Vi simple devus</tspan><tspan
         sodipodi:role="line"
         style="font-size:45px;line-height:1.20000005"
         x="308.979"
         y="2551.8203"
         id="tspan3496">fari paŭzon kaj</tspan><tspan
         sodipodi:role="line"
         style="font-size:45px;line-height:1.20000005"
         x="316.01025"
         y="2605.8203"
         id="tspan1183">pensi pri </tspan><tspan
         sodipodi:role="line"
         style="font-size:45px;line-height:1.20000005"
         x="308.979"
         y="2659.8203"
         id="tspan3500">alio nune.</tspan></text>
    <text
       xml:space="preserve"
       style="font-style:normal;font-variant:normal;font-weight:normal;font-stretch:normal;line-height:0%;font-family:Lavi;-inkscape-font-specification:Lavi;text-align:center;letter-spacing:0px;word-spacing:0px;text-anchor:middle;fill:#000000;fill-opacity:1;stroke:none"
       x="608.68146"
       y="2546.4858"
       id="text4246-3-7-7-6-7-2-9-6-1-4"><tspan
         sodipodi:role="line"
         style="font-size:45px;line-height:1.20000005"
         x="608.68146"
         y="2546.4858"
         id="tspan1183-0">Bone.</tspan></text>
    <text
       xml:space="preserve"
       style="font-style:normal;font-variant:normal;font-weight:normal;font-stretch:normal;line-height:0%;font-family:Lavi;-inkscape-font-specification:Lavi;text-align:center;letter-spacing:0px;word-spacing:0px;text-anchor:middle;fill:#000000;fill-opacity:1;stroke:none"
       x="924.10059"
       y="2417.3877"
       id="text4246-3-7-7-6-7-2-9-6-1-4-3"><tspan
         sodipodi:role="line"
         style="font-size:45px;line-height:1.20000005"
         x="931.13184"
         y="2417.3877"
         id="tspan1183-0-6">He! Ĉu mi </tspan><tspan
         sodipodi:role="line"
         style="font-size:45px;line-height:1.20000005"
         x="924.10059"
         y="2471.3877"
         id="tspan3516">montros al vi mian</tspan><tspan
         sodipodi:role="line"
         style="font-size:45px;line-height:1.20000005"
         x="924.10059"
         y="2525.3877"
         id="tspan1249">lastan inventaĵon?</tspan></text>
    <text
       xml:space="preserve"
       style="font-style:normal;font-variant:normal;font-weight:normal;font-stretch:normal;line-height:0%;font-family:Lavi;-inkscape-font-specification:Lavi;text-align:center;letter-spacing:0px;word-spacing:0px;text-anchor:middle;fill:#000000;fill-opacity:1;stroke:none"
       x="1429.6105"
       y="2501.0703"
       id="text4246-3-7-7-6-7-2-9-6-1-4-3-1"><tspan
         sodipodi:role="line"
         style="font-size:45px;line-height:1.20000005"
         x="1429.6105"
         y="2501.0703"
         id="tspan3532">...</tspan></text>
    <text
       xml:space="preserve"
       style="font-style:normal;font-variant:normal;font-weight:normal;font-stretch:normal;line-height:0%;font-family:Lavi;-inkscape-font-specification:Lavi;text-align:center;letter-spacing:0px;word-spacing:0px;text-anchor:middle;fill:#000000;fill-opacity:1;stroke:none"
       x="1988.4841"
       y="2427.261"
       id="text4246-3-7-7-6-7-2-9-6-1-4-3-1-2"><tspan
         sodipodi:role="line"
         style="font-size:45px;line-height:1.20000005"
         x="1988.4841"
         y="2427.261"
         id="tspan1249-3-0">Tio estas malsupre</tspan><tspan
         sodipodi:role="line"
         style="font-size:45px;line-height:1.20000005"
         x="1988.4841"
         y="2481.261"
         id="tspan1298">en mia metiejo.</tspan></text>
    <text
       xml:space="preserve"
       style="font-style:normal;font-variant:normal;font-weight:normal;font-stretch:normal;line-height:0%;font-family:Lavi;-inkscape-font-specification:Lavi;text-align:center;letter-spacing:0px;word-spacing:0px;text-anchor:middle;fill:#000000;fill-opacity:1;stroke:none"
       x="2118.0996"
       y="2553.5225"
       id="text4246-3-7-7-6-7-2-9-6-1-4-3-1-2-6"><tspan
         sodipodi:role="line"
         style="font-size:45px;line-height:1.20000005"
         x="2118.0996"
         y="2553.5225"
         id="tspan1298-5">Sekvu min.</tspan></text>
  </g>
</svg>
