<?xml version="1.0" encoding="UTF-8" standalone="no"?>
<!-- Created with Inkscape (http://www.inkscape.org/) -->

<svg
   xmlns:dc="http://purl.org/dc/elements/1.1/"
   xmlns:cc="http://creativecommons.org/ns#"
   xmlns:rdf="http://www.w3.org/1999/02/22-rdf-syntax-ns#"
   xmlns:svg="http://www.w3.org/2000/svg"
   xmlns="http://www.w3.org/2000/svg"
   xmlns:xlink="http://www.w3.org/1999/xlink"
   xmlns:sodipodi="http://sodipodi.sourceforge.net/DTD/sodipodi-0.dtd"
   xmlns:inkscape="http://www.inkscape.org/namespaces/inkscape"
   id="svg2"
   version="1.1"
   inkscape:version="0.91 r13725"
   width="2481"
   height="3503"
   sodipodi:docname="E27P03.svg">
  <metadata
     id="metadata8">
    <rdf:RDF>
      <cc:Work
         rdf:about="">
        <dc:format>image/svg+xml</dc:format>
        <dc:type
           rdf:resource="http://purl.org/dc/dcmitype/StillImage" />
        <dc:title />
      </cc:Work>
    </rdf:RDF>
  </metadata>
  <defs
     id="defs6">
    <filter
       style="color-interpolation-filters:sRGB"
       id="filter4375-4-1-1-1-9"
       inkscape:label="deevad outline effect">
      <feFlood
         id="feFlood4377-7-9-0-8-1"
         flood-opacity="1"
         flood-color="rgb(0,0,0)"
         result="flood" />
      <feComposite
         id="feComposite4379-3-8-8-2-77"
         in2="SourceGraphic"
         in="flood"
         operator="in"
         result="composite1" />
      <feMorphology
         id="feMorphology4393-1-0-49-8-9"
         operator="dilate"
         radius="4"
         result="result3" />
      <feComposite
         id="feComposite4385-9-5-7-0-8"
         in2="result3"
         in="SourceGraphic"
         operator="over"
         result="composite2" />
    </filter>
    <filter
       style="color-interpolation-filters:sRGB"
       id="filter4375-4-1-1-1-9-5"
       inkscape:label="deevad outline effect">
      <feFlood
         id="feFlood4377-7-9-0-8-1-8"
         flood-opacity="1"
         flood-color="rgb(0,0,0)"
         result="flood" />
      <feComposite
         id="feComposite4379-3-8-8-2-77-0"
         in2="SourceGraphic"
         in="flood"
         operator="in"
         result="composite1" />
      <feMorphology
         id="feMorphology4393-1-0-49-8-9-0"
         operator="dilate"
         radius="4"
         result="result3" />
      <feComposite
         id="feComposite4385-9-5-7-0-8-0"
         in2="result3"
         in="SourceGraphic"
         operator="over"
         result="composite2" />
    </filter>
  </defs>
  <sodipodi:namedview
     pagecolor="#ffffff"
     bordercolor="#666666"
     borderopacity="1"
     objecttolerance="10"
     gridtolerance="10"
     guidetolerance="10"
     inkscape:pageopacity="0"
     inkscape:pageshadow="2"
     inkscape:window-width="1366"
     inkscape:window-height="715"
     id="namedview4"
     showgrid="false"
     inkscape:zoom="0.42773946"
     inkscape:cx="1184.0652"
     inkscape:cy="1013.2448"
     inkscape:window-x="-8"
     inkscape:window-y="-8"
     inkscape:window-maximized="1"
     inkscape:current-layer="layer3"
     inkscape:snap-global="false" />
  <g
     inkscape:groupmode="layer"
     id="layer2"
     inkscape:label="artwork"
     sodipodi:insensitive="true">
    <image
       sodipodi:absref="D:\Pepper&amp;Carrot translation\ep27_Coriander-s-Invention_lang-pack\lang\cn\..\gfx_Pepper-and-Carrot_by-David-Revoy_E27P03.png"
       xlink:href="../gfx_Pepper-and-Carrot_by-David-Revoy_E27P03.png"
       y="0"
       x="0"
       id="image10"
       height="3503"
       width="2481" />
  </g>
  <g
     inkscape:groupmode="layer"
     id="layer3"
     inkscape:label="speechbubbles">
    <path
       style="fill:#ffffff;fill-rule:evenodd;stroke:none;stroke-width:1.11550963px;stroke-linecap:butt;stroke-linejoin:miter;stroke-opacity:1"
       d="m 1135.2973,1540.1761 c 3.0625,-39.582 1.1477,-66.6378 25.6596,-76.2255 24.5121,-9.5876 210.748,-9.8725 225.7717,-9.1451 15.0237,0.7273 46.8834,5.1878 60.095,2.9093 13.2114,-2.2785 51.4792,-3.0072 71.5932,-0.3499 20.1141,2.6572 106.9919,3.0115 117.3705,10.9213 10.3785,7.9099 36.3066,29.675 35.83,54.0064 -0.4768,24.3314 -12.3894,37.0914 -25.0568,50.5072 -12.6675,13.4159 -58.1852,32.7055 -84.8556,32.1999 -26.6704,-0.5055 -115.6688,1.6863 -130.6431,1.9715 -14.9743,0.2851 -107.9991,5.0968 -139.6116,5.6989 -31.6123,0.6019 -79.8124,-8.8941 -112.1174,-22.4669 -32.3048,-13.5729 -44.0355,-50.0271 -44.0355,-50.0271 z"
       id="path263"
       inkscape:connector-curvature="0"
       sodipodi:nodetypes="ccccccccssccc" />
    <path
       style="fill:#ffffff;fill-rule:evenodd;stroke:none;stroke-width:1px;stroke-linecap:butt;stroke-linejoin:miter;stroke-opacity:1"
       d="m 1252.6692,1467.8179 c 0,0 -14.7372,-14.1832 -28.1318,-24.3459 -13.1591,-9.9839 -23.1743,-37.0399 -19.4243,-57.7963 -18.1089,29.447 -5.815,53.6299 11.889,81.0614 15.1315,24.8588 35.6671,1.0808 35.6671,1.0808 z"
       id="path265"
       inkscape:connector-curvature="0"
       sodipodi:nodetypes="csccc" />
    <path
       style="fill:#ffffff;fill-rule:evenodd;stroke:none;stroke-width:0.92811328px;stroke-linecap:butt;stroke-linejoin:miter;stroke-opacity:1"
       d="m 1929.5799,1832.436 c 24.8058,-19.5293 79.4713,-29.7454 122.3178,-30.2879 42.8465,-0.5424 155.6003,5.4248 192.8091,14.6471 37.2087,9.2221 71.6188,19.9807 68.2363,46.5621 -3.3827,26.5817 -13.5306,54.2481 -20.2958,64.0129 -6.7652,9.7646 -28.1884,24.9541 -49.6117,33.6337 -21.4232,8.6797 -94.7132,10.8497 -120.6466,10.8497 -25.9334,0 -116.1365,-6.5098 -135.3046,-14.6471 -19.1682,-8.1371 -58.6321,-21.6992 -65.3973,-46.1108 -6.7652,-24.4116 -3.3826,-64.0127 7.8928,-78.6597 z"
       id="path267"
       inkscape:connector-curvature="0"
       sodipodi:nodetypes="csccccscsc" />
    <path
       style="fill:#ffffff;fill-rule:evenodd;stroke:none;stroke-width:1px;stroke-linecap:butt;stroke-linejoin:miter;stroke-opacity:1"
       d="m 1822.8364,1839.3021 c 53.571,-19.7367 111.3904,-9.3727 131.1271,16.0031 19.7367,25.3757 16.4282,45.0866 16.4282,45.0866 l -21.6164,9.3985 c 0,14.3171 5.8835,-17.1392 -7.2743,-30.7446 -12.9359,-13.376 -35.6882,-34.1046 -57.3046,-37.8639 -21.6164,-3.7594 -50.0819,-2.8196 -61.36,-1.8797 z"
       id="path269"
       inkscape:connector-curvature="0"
       sodipodi:nodetypes="ccccscc" />
    <path
       style="fill:#ffffff;fill-rule:evenodd;stroke:none;stroke-width:1.07698119px;stroke-linecap:butt;stroke-linejoin:miter;stroke-opacity:1"
       d="m 249.36181,2422.2066 c 24.50315,-14.1714 80.86044,-18.3395 105.3636,-23.3411 24.50318,-5.0017 57.58244,-0.8336 73.50952,-1.6672 15.92704,-0.8337 60.03273,-5.0017 72.28432,-4.1681 12.25159,0.8336 90.66173,5.0017 106.58877,5.8353 15.92708,0.8335 84.53594,5.0016 91.8869,20.8402 7.35094,15.8387 29.40379,46.6823 18.37736,61.6874 -11.02642,15.005 -24.50316,40.8469 -56.35728,50.0166 -31.85412,9.1697 -80.86045,24.1747 -138.44289,25.8419 -57.58245,1.6672 -137.21774,-5.0015 -149.46932,-5.0015 -12.25159,0 -77.18496,0.8335 -102.91329,-20.0068 -25.72833,-20.8402 -44.1057,-44.1815 -40.43024,-65.0216 3.67548,-20.8404 19.60255,-45.0151 19.60255,-45.0151 z"
       id="path271"
       inkscape:connector-curvature="0" />
    <path
       style="fill:#ffffff;fill-rule:evenodd;stroke:none;stroke-width:1px;stroke-linecap:butt;stroke-linejoin:miter;stroke-opacity:1"
       d="m 556.4192,2530.4621 c 0,0 -6.17962,40.1675 -4.9437,48.819 1.23593,8.6515 12.35924,48.201 19.77478,58.0884 -19.15682,-22.2466 -31.51605,-51.2908 -33.9879,-61.1782 -2.47184,-9.8874 -1.23592,-50.0549 -1.23592,-50.0549 z"
       id="path273"
       inkscape:connector-curvature="0" />
    <path
       style="fill:#ffffff;fill-rule:evenodd;stroke:none;stroke-width:1.03607857px;stroke-linecap:butt;stroke-linejoin:miter;stroke-opacity:1"
       d="m 987.52808,2424.1223 c 39.66872,-3.288 30.51442,4.5209 64.84312,4.1099 34.3287,-0.411 104.5118,-4.5209 121.2948,-8.2198 9.1542,-2.055 9.9171,1.2329 9.9171,1.2329 0,0 28.2259,0.822 33.5659,1.644 5.3399,0.822 25.9372,6.1649 33.5658,4.9319 7.6286,-1.233 20.5972,-3.2879 20.5972,-3.2879 0,0 -0.7628,27.5364 -1.5257,29.5913 -0.7628,2.055 -6.1029,17.6726 -6.1029,23.0156 0,5.3429 4.5772,13.5627 3.8142,16.0286 -0.7628,2.466 9.9173,8.6308 9.9173,8.6308 l -28.9888,0.411 -19.8343,1.233 -8.3914,-1.233 -35.8545,1.644 -20.5972,0.4111 1.5257,-2.4661 -88.4917,2.4661 3.8143,-3.699 -30.5144,0.822 -11.4429,3.6989 -3.8143,-3.288 -25.9372,0.411 -13.73152,3.699 7.62862,-7.8089 -11.44292,-4.5209 -2.28857,-60.4157 6.86573,-2.466 z"
       id="path275"
       inkscape:connector-curvature="0" />
    <path
       style="fill:#ffffff;fill-rule:evenodd;stroke:none;stroke-width:1.02539635px;stroke-linecap:butt;stroke-linejoin:miter;stroke-opacity:1"
       d="m 1226.4543,2432.4961 c 21.9163,-3.8836 36.5271,7.2124 41.8844,6.1028 5.3574,-1.1096 22.8904,-8.322 28.7347,-7.7672 5.8443,0.5548 42.8586,6.6576 54.0602,4.4384 11.2016,-2.2192 36.0401,0 39.9363,-0.5548 3.8962,-0.5548 19.4812,-11.0959 23.8645,-11.0959 4.3832,0 11.6885,4.9931 27.7606,-7.2124 -6.8184,14.4247 -10.7147,24.4111 -10.7147,24.4111 0,0 17.046,-5.548 23.8643,-5.548 6.8185,0 12.1759,2.774 15.585,1.1096 3.4093,-1.6644 21.9163,-2.2192 24.8385,-2.2192 2.9222,0 10.2275,-2.774 13.6368,-2.774 3.4092,0 34.579,3.3288 38.9623,3.3288 4.3832,0 45.2936,-5.548 49.6769,-5.548 4.3831,0 24.3514,1.6644 32.6309,-2.2192 0.9741,11.096 -1.9481,37.7263 -1.9481,43.829 0,6.1029 0.487,13.87 0.487,18.8632 -7.3054,5.548 -12.6628,16.6439 -12.6628,16.6439 0,0 12.1758,2.774 15.5849,0.5548 3.4092,-2.2191 1.4612,41.055 1.9482,49.377 0.4871,8.322 -5.8444,0.5548 -5.8444,0.5548 0,0 -0.974,6.1028 -4.8702,7.2124 -3.8963,1.1096 -72.5672,-0.5548 -80.3597,-0.5548 -7.7925,0 -10.2277,2.774 -10.2277,2.774 l -33.605,0 -0.974,-4.9932 -15.0978,3.3288 -20.4553,3.8836 -12.1756,2.774 -6.8184,-2.2192 -33.605,0.5548 -29.2218,1.1095 7.3055,-8.3219 -75.9764,6.1028 -35.0661,1.1096 -32.1439,4.9931 -6.3314,-17.7535 -3.4093,-38.281 c 0,0 -1.948,-10.5413 3.4093,-12.2056 5.3573,-1.6643 -3.8962,-3.3288 -4.8703,-13.3151 -0.9741,-9.9864 -3.8961,-35.5071 -3.8961,-35.5071 l 6.3313,-2.2192 -7.7925,-5.548 z"
       id="path277"
       inkscape:connector-curvature="0" />
    <path
       style="fill:#ffffff;fill-rule:evenodd;stroke:none;stroke-width:0.99999994px;stroke-linecap:butt;stroke-linejoin:miter;stroke-opacity:1"
       d="m 1329.69,2695.1498 c 32.6788,-36.3054 55.3539,-80.3905 55.3539,-94.0051 8.6697,12.9662 8.0028,10.373 8.0028,10.373 0,0 14.6721,-38.8987 14.0051,-62.8862 -0.6667,-23.9875 26.6766,-24.6358 30.0111,-19.4493 3.3345,5.1864 9.47,23.9875 9.47,23.9875 l -4.1347,13.6145 -4.0015,-3.2415 c 0,0 -15.3389,40.1952 -17.3397,44.7334 -2.0008,4.5382 -10.6705,23.9876 -10.6705,23.9876 l -2.6677,-11.6696 -14.6721,10.373 0.6669,16.2077 -8.003,-7.1314 c 0,0 -0.6667,9.7247 -4.0014,14.9112 -3.3346,5.1864 -24.0089,27.8774 -26.6765,31.1189 -2.6676,3.2415 -25.3427,9.0763 -25.3427,9.0763 z"
       id="path279"
       inkscape:connector-curvature="0" />
    <path
       style="fill:#ffffff;fill-rule:evenodd;stroke:none;stroke-width:1px;stroke-linecap:butt;stroke-linejoin:miter;stroke-opacity:1"
       d="m 1927.8028,2404.7037 5.0941,4.2038 25.8793,-2.469 5.1753,-4.78 c 0,0 11.5008,4.78 14.951,3.1867 3.4501,-1.5934 17.2511,-2.6556 17.2511,-2.6556 l 5.1753,4.2489 12.6507,-1.5933 c 0,0 29.327,4.2489 36.2273,3.7178 6.9006,-0.5311 18.9763,-5.8422 18.9763,-5.8422 0,0 23.5765,5.8422 27.0267,4.78 3.4502,-1.0623 9.7756,-1.5933 9.7756,-1.5933 l 7.4755,11.6846 c 0,0 14.951,-11.1536 14.951,-16.4647 9.7757,-0.5312 23.0015,0 25.3015,-1.0623 2.3003,-1.0622 3.4503,6.3734 3.4503,6.3734 l 6.9005,3.7179 c 0,0 17.251,-11.6847 18.9762,-13.8091 1.7251,-2.1245 13.2258,-1.5934 13.2258,-1.5934 0,0 16.1011,0.5311 18.4012,0 2.3001,-0.5311 12.0758,0.5311 20.7014,1.0622 8.6255,0.5312 17.251,0.5312 23.5764,-1.5933 1.7251,9.029 0,41.4274 -0.575,45.1452 -6.3255,9.029 -12.6509,26.0249 -17.8261,29.2116 13.8008,-6.3735 13.8008,-8.4979 18.9762,-12.7469 -0.5751,13.2781 -5.1754,41.4274 -5.7504,44.6142 9.2006,-6.9046 8.0505,-5.3112 6.9004,-2.6556 -1.15,2.6556 -4.6003,10.6224 -5.7503,16.9958 -1.1501,6.3734 0,14.3403 -1.1501,18.5892 -1.1501,4.249 -2.3001,10.0913 -2.3001,10.0913 0,0 -23.0015,6.3734 -27.0268,7.4357 -4.0253,1.0622 -39.6775,1.0622 -48.8781,1.0622 -9.2006,0 -23.0014,1.5934 -29.3269,1.0623 3.4503,-5.8423 5.7504,-10.0913 5.7504,-10.0913 0,0 -28.7518,2.6556 -35.6523,3.7179 -6.9005,1.0622 -35.6523,-4.7801 -41.9777,-4.249 -6.3254,0.5311 -41.4026,1.5933 -50.6032,2.1245 -9.2005,0.531 -32.202,1.5933 -40.8276,3.1867 -8.6255,1.5933 -34.5022,2.6556 -40.2525,2.6556 -5.7504,0 -16.6761,0.5311 -16.6761,0.5311 0,0 -1.1501,-19.1203 -1.1501,-26.0249 0,-6.9046 -2.8752,-40.8962 -0.575,-44.6141 2.3001,-3.7179 4.0252,-29.7428 4.0252,-32.3983 0,-2.6557 -5.4255,-23.0864 -5.4255,-23.0864 z"
       id="path283"
       inkscape:connector-curvature="0"
       sodipodi:nodetypes="ccccscccccsccccccccccccccccccccscccccsscssscc" />
    <path
       style="fill:#ffffff;fill-rule:evenodd;stroke:none;stroke-width:0.99999994px;stroke-linecap:butt;stroke-linejoin:miter;stroke-opacity:1"
       d="m 2068.3179,2706.4572 c -13.1433,-30.6118 9.2927,-109.1953 20.1114,-126.6745 0,-10.6243 -4.641,-22.8831 -4.641,-22.8831 0,0 -11.6028,4.9035 -14.6968,10.6243 -3.0941,5.7208 13.1497,-34.3247 22.4319,-40.8627 9.2823,-6.538 -6.9616,-37.5937 -6.9616,-37.5937 0,0 -31.7143,26.1521 -33.2613,37.5937 -1.547,11.4416 -10.0557,70.2839 -6.1881,80.9082 3.8676,10.6243 6.1881,4.9035 9.2821,0.8172 3.0942,-4.0862 11.6029,-12.2588 16.244,-15.5278 -7.7353,19.6141 -20.1115,84.1772 -2.3206,113.5984 z"
       id="path285"
       inkscape:connector-curvature="0"
       sodipodi:nodetypes="ccccccssccc" />
  </g>
  <g
     inkscape:groupmode="layer"
     id="layer1"
     inkscape:label="txt">
    <text
       xml:space="preserve"
       style="font-style:normal;font-variant:normal;font-weight:normal;font-stretch:normal;line-height:0%;font-family:'WenQuanYi Micro Hei';-inkscape-font-specification:'WenQuanYi Micro Hei';text-align:center;letter-spacing:0px;word-spacing:0px;text-anchor:middle;fill:#000000;fill-opacity:1;stroke:none"
       x="1407.3555"
       y="1510.687"
       id="text4246"
       sodipodi:linespacing="0%"><tspan
         sodipodi:role="line"
         style="font-style:normal;font-variant:normal;font-weight:normal;font-stretch:normal;font-size:45px;line-height:1.20000005;font-family:'WenQuanYi Micro Hei';-inkscape-font-specification:'WenQuanYi Micro Hei'"
         x="1407.3555"
         y="1510.687"
         id="tspan880">你们待会儿就明白</tspan><tspan
         sodipodi:role="line"
         style="font-style:normal;font-variant:normal;font-weight:normal;font-stretch:normal;font-size:45px;line-height:1.20000005;font-family:'WenQuanYi Micro Hei';-inkscape-font-specification:'WenQuanYi Micro Hei'"
         x="1407.3555"
         y="1564.687"
         id="tspan3406">我为什么要发明这个了。</tspan></text>
    <text
       xml:space="preserve"
       style="font-style:normal;font-variant:normal;font-weight:normal;font-stretch:normal;line-height:0%;font-family:'WenQuanYi Micro Hei';-inkscape-font-specification:'WenQuanYi Micro Hei';text-align:center;letter-spacing:0px;word-spacing:0px;text-anchor:middle;fill:#000000;fill-opacity:1;stroke:none"
       x="2125.2803"
       y="1872.3798"
       id="text4246-3"
       sodipodi:linespacing="0%"><tspan
         sodipodi:role="line"
         style="font-style:normal;font-variant:normal;font-weight:normal;font-stretch:normal;font-size:45px;line-height:1.20000005;font-family:'WenQuanYi Micro Hei';-inkscape-font-specification:'WenQuanYi Micro Hei'"
         x="2125.2803"
         y="1872.3798"
         id="tspan904">这涉及到我最近</tspan><tspan
         sodipodi:role="line"
         style="font-style:normal;font-variant:normal;font-weight:normal;font-stretch:normal;font-size:45px;line-height:1.20000005;font-family:'WenQuanYi Micro Hei';-inkscape-font-specification:'WenQuanYi Micro Hei'"
         x="2125.2803"
         y="1926.3798"
         id="tspan3414">日思夜想的事情。</tspan></text>
    <text
       xml:space="preserve"
       style="font-style:normal;font-variant:normal;font-weight:normal;font-stretch:normal;line-height:0%;font-family:'WenQuanYi Micro Hei';-inkscape-font-specification:'WenQuanYi Micro Hei';text-align:center;letter-spacing:0px;word-spacing:0px;text-anchor:middle;fill:#000000;fill-opacity:1;stroke:none"
       x="474.53574"
       y="2465.4622"
       id="text4246-3-3"
       sodipodi:linespacing="0%"><tspan
         sodipodi:role="line"
         style="font-style:normal;font-variant:normal;font-weight:normal;font-stretch:normal;font-size:45px;line-height:1.20000005;font-family:'WenQuanYi Micro Hei';-inkscape-font-specification:'WenQuanYi Micro Hei'"
         x="474.53574"
         y="2465.4622"
         id="tspan937">让我给你们展示</tspan><tspan
         sodipodi:role="line"
         style="font-style:normal;font-variant:normal;font-weight:normal;font-stretch:normal;font-size:45px;line-height:1.20000005;font-family:'WenQuanYi Micro Hei';-inkscape-font-specification:'WenQuanYi Micro Hei'"
         x="474.53574"
         y="2519.4622"
         id="tspan3420">一下我的新发明…</tspan></text>
    <text
       xml:space="preserve"
       style="font-style:normal;font-variant:normal;font-weight:normal;font-stretch:normal;line-height:0%;font-family:'WenQuanYi Micro Hei';-inkscape-font-specification:'WenQuanYi Micro Hei';text-align:center;letter-spacing:0px;word-spacing:0px;text-anchor:middle;fill:#000000;fill-opacity:1;stroke:none"
       x="1132.5709"
       y="2472.1045"
       id="text4246-3-3-2"
       sodipodi:linespacing="0%"><tspan
         sodipodi:role="line"
         style="font-style:normal;font-variant:normal;font-weight:normal;font-stretch:normal;font-size:32px;line-height:1.39999998;font-family:'WenQuanYi Micro Hei';-inkscape-font-specification:'WenQuanYi Micro Hei'"
         x="1132.5709"
         y="2472.1045"
         id="tspan885">世界，你好！</tspan></text>
    <text
       xml:space="preserve"
       style="font-style:normal;font-variant:normal;font-weight:normal;font-stretch:normal;line-height:0%;font-family:'WenQuanYi Micro Hei';-inkscape-font-specification:'WenQuanYi Micro Hei';text-align:center;letter-spacing:0px;word-spacing:0px;text-anchor:middle;fill:#000000;fill-opacity:1;stroke:none"
       x="1445.948"
       y="2493.7439"
       id="text4246-3-3-2-2"
       sodipodi:linespacing="0%"><tspan
         sodipodi:role="line"
         style="font-style:normal;font-variant:normal;font-weight:normal;font-stretch:normal;font-size:32px;line-height:1.39999998;font-family:'WenQuanYi Micro Hei';-inkscape-font-specification:'WenQuanYi Micro Hei'"
         x="1445.948"
         y="2493.7439"
         id="tspan875">我是您的心理保健机器人。</tspan><tspan
         sodipodi:role="line"
         style="font-style:normal;font-variant:normal;font-weight:normal;font-stretch:normal;font-size:32px;line-height:1.39999998;font-family:'WenQuanYi Micro Hei';-inkscape-font-specification:'WenQuanYi Micro Hei'"
         x="1445.948"
         y="2538.5439"
         id="tspan3428">哔，哔！</tspan></text>
    <text
       xml:space="preserve"
       style="font-style:normal;font-variant:normal;font-weight:normal;font-stretch:normal;line-height:0%;font-family:Lavi;-inkscape-font-specification:Lavi;letter-spacing:0px;word-spacing:0px;fill:#000000;fill-opacity:1;stroke:#000000;stroke-width:2.15795588;stroke-miterlimit:4;stroke-dasharray:none;stroke-opacity:1;filter:url(#filter4375-4-1-1-1-9)"
       x="787.65729"
       y="1584.5073"
       id="text4580"
       transform="matrix(0.46879428,-0.12606586,-0.08654633,0.61214652,623.13411,2085.4411)"
       sodipodi:linespacing="0%"><tspan
         sodipodi:role="line"
         id="tspan4582"
         x="787.65729"
         y="1584.5073"
         style="font-style:normal;font-variant:normal;font-weight:normal;font-stretch:normal;font-size:80.40014648px;line-height:1.25;font-family:'WenQuanYi Micro Hei';-inkscape-font-specification:'WenQuanYi Micro Hei';fill:#ffffff;stroke-width:2.15795588">咔嗒 !</tspan></text>
    <text
       xml:space="preserve"
       style="font-style:normal;font-variant:normal;font-weight:normal;font-stretch:normal;line-height:0%;font-family:Lavi;-inkscape-font-specification:Lavi;letter-spacing:0px;word-spacing:0px;fill:#000000;fill-opacity:1;stroke:#000000;stroke-width:2.15795588;stroke-miterlimit:4;stroke-dasharray:none;stroke-opacity:1;filter:url(#filter4375-4-1-1-1-9-5)"
       x="787.65729"
       y="1584.5073"
       id="text4580-4"
       transform="matrix(0.46879428,-0.12606586,-0.08654633,0.61214652,2027.5227,1975.6976)"
       sodipodi:linespacing="0%"><tspan
         sodipodi:role="line"
         id="tspan4582-7"
         x="787.65729"
         y="1584.5073"
         style="font-style:normal;font-variant:normal;font-weight:normal;font-stretch:normal;font-size:80.40014648px;line-height:1.25;font-family:'WenQuanYi Micro Hei';-inkscape-font-specification:'WenQuanYi Micro Hei';fill:#ffffff;stroke-width:2.15795588">嗒 !</tspan></text>
    <text
       id="text925"
       y="2471.8889"
       x="2101.0667"
       style="font-style:normal;font-variant:normal;font-weight:normal;font-stretch:normal;line-height:0%;font-family:'WenQuanYi Micro Hei';-inkscape-font-specification:'WenQuanYi Micro Hei';text-align:center;letter-spacing:0px;word-spacing:0px;text-anchor:middle;fill:#000000;fill-opacity:1;stroke:none"
       xml:space="preserve"
       sodipodi:linespacing="0%"><tspan
         id="tspan923"
         y="2471.8889"
         x="2101.0667"
         style="font-style:normal;font-variant:normal;font-weight:normal;font-stretch:normal;font-size:32px;line-height:1.29999995;font-family:'WenQuanYi Micro Hei';-inkscape-font-specification:'WenQuanYi Micro Hei'"
         sodipodi:role="line">请您在沙发上躺好。</tspan><tspan
         y="2513.489"
         x="2101.0667"
         style="font-style:normal;font-variant:normal;font-weight:normal;font-stretch:normal;font-size:32px;line-height:1.29999995;font-family:'WenQuanYi Micro Hei';-inkscape-font-specification:'WenQuanYi Micro Hei'"
         sodipodi:role="line"
         id="tspan3444">开始进行免费咨询。</tspan></text>
  </g>
</svg>
