<?xml version="1.0" encoding="UTF-8" standalone="no"?>
<!-- Created with Inkscape (http://www.inkscape.org/) -->

<svg
   xmlns:dc="http://purl.org/dc/elements/1.1/"
   xmlns:cc="http://creativecommons.org/ns#"
   xmlns:rdf="http://www.w3.org/1999/02/22-rdf-syntax-ns#"
   xmlns:svg="http://www.w3.org/2000/svg"
   xmlns="http://www.w3.org/2000/svg"
   xmlns:xlink="http://www.w3.org/1999/xlink"
   xmlns:sodipodi="http://sodipodi.sourceforge.net/DTD/sodipodi-0.dtd"
   xmlns:inkscape="http://www.inkscape.org/namespaces/inkscape"
   id="svg2"
   version="1.1"
   inkscape:version="0.92.3 (2405546, 2018-03-11)"
   width="2481"
   height="3503"
   sodipodi:docname="E04P02.svg">
  <metadata
     id="metadata8">
    <rdf:RDF>
      <cc:Work
         rdf:about="">
        <dc:format>image/svg+xml</dc:format>
        <dc:type
           rdf:resource="http://purl.org/dc/dcmitype/StillImage" />
        <dc:title />
      </cc:Work>
    </rdf:RDF>
  </metadata>
  <defs
     id="defs6">
    <filter
       id="filter4375"
       style="color-interpolation-filters:sRGB;"
       inkscape:label="deevad outline effect">
      <feFlood
         id="feFlood4377"
         flood-opacity="1"
         flood-color="rgb(255,255,255)"
         result="flood" />
      <feComposite
         id="feComposite4379"
         in2="SourceGraphic"
         in="flood"
         operator="in"
         result="composite1" />
      <feMorphology
         id="feMorphology4393"
         operator="dilate"
         radius="4"
         result="result3" />
      <feComposite
         id="feComposite4385"
         in2="result3"
         in="SourceGraphic"
         operator="over"
         result="composite2" />
    </filter>
    <filter
       color-interpolation-filters="sRGB"
       id="filter4375-9"
       inkscape:label="deevad outline effect">
      <feFlood
         id="feFlood4377-1"
         flood-opacity="1"
         flood-color="rgb(255,255,255)"
         result="flood" />
      <feComposite
         id="feComposite4379-4"
         in2="SourceGraphic"
         in="flood"
         operator="in"
         result="composite1" />
      <feMorphology
         id="feMorphology4393-4"
         operator="dilate"
         radius="4"
         result="result3" />
      <feComposite
         id="feComposite4385-8"
         in2="result3"
         in="SourceGraphic"
         operator="over"
         result="composite2" />
    </filter>
    <filter
       color-interpolation-filters="sRGB"
       id="filter4375-5"
       inkscape:label="deevad outline effect">
      <feFlood
         id="feFlood4377-0"
         flood-opacity="1"
         flood-color="rgb(255,255,255)"
         result="flood" />
      <feComposite
         id="feComposite4379-6"
         in2="SourceGraphic"
         in="flood"
         operator="in"
         result="composite1" />
      <feMorphology
         id="feMorphology4393-0"
         operator="dilate"
         radius="4"
         result="result3" />
      <feComposite
         id="feComposite4385-7"
         in2="result3"
         in="SourceGraphic"
         operator="over"
         result="composite2" />
    </filter>
    <filter
       color-interpolation-filters="sRGB"
       id="filter4375-4"
       inkscape:label="deevad outline effect">
      <feFlood
         id="feFlood4377-7"
         flood-opacity="1"
         flood-color="rgb(255,255,255)"
         result="flood" />
      <feComposite
         id="feComposite4379-3"
         in2="SourceGraphic"
         in="flood"
         operator="in"
         result="composite1" />
      <feMorphology
         id="feMorphology4393-1"
         operator="dilate"
         radius="4"
         result="result3" />
      <feComposite
         id="feComposite4385-9"
         in2="result3"
         in="SourceGraphic"
         operator="over"
         result="composite2" />
    </filter>
    <filter
       color-interpolation-filters="sRGB"
       id="filter4375-51"
       inkscape:label="deevad outline effect">
      <feFlood
         id="feFlood4377-8"
         flood-opacity="1"
         flood-color="rgb(255,255,255)"
         result="flood" />
      <feComposite
         id="feComposite4379-67"
         in2="SourceGraphic"
         in="flood"
         operator="in"
         result="composite1" />
      <feMorphology
         id="feMorphology4393-47"
         operator="dilate"
         radius="4"
         result="result3" />
      <feComposite
         id="feComposite4385-80"
         in2="result3"
         in="SourceGraphic"
         operator="over"
         result="composite2" />
    </filter>
    <filter
       color-interpolation-filters="sRGB"
       id="filter4375-5-4"
       inkscape:label="deevad outline effect">
      <feFlood
         id="feFlood4377-0-3"
         flood-opacity="1"
         flood-color="rgb(255,255,255)"
         result="flood" />
      <feComposite
         id="feComposite4379-6-6"
         in2="SourceGraphic"
         in="flood"
         operator="in"
         result="composite1" />
      <feMorphology
         id="feMorphology4393-0-9"
         operator="dilate"
         radius="4"
         result="result3" />
      <feComposite
         id="feComposite4385-7-5"
         in2="result3"
         in="SourceGraphic"
         operator="over"
         result="composite2" />
    </filter>
    <filter
       color-interpolation-filters="sRGB"
       id="filter4375-5-4-8"
       inkscape:label="deevad outline effect">
      <feFlood
         id="feFlood4377-0-3-4"
         flood-opacity="1"
         flood-color="rgb(255,255,255)"
         result="flood" />
      <feComposite
         id="feComposite4379-6-6-3"
         in2="SourceGraphic"
         in="flood"
         operator="in"
         result="composite1" />
      <feMorphology
         id="feMorphology4393-0-9-3"
         operator="dilate"
         radius="4"
         result="result3" />
      <feComposite
         id="feComposite4385-7-5-5"
         in2="result3"
         in="SourceGraphic"
         operator="over"
         result="composite2" />
    </filter>
    <filter
       color-interpolation-filters="sRGB"
       id="filter4375-5-4-3"
       inkscape:label="deevad outline effect">
      <feFlood
         id="feFlood4377-0-3-1"
         flood-opacity="1"
         flood-color="rgb(255,255,255)"
         result="flood" />
      <feComposite
         id="feComposite4379-6-6-1"
         in2="SourceGraphic"
         in="flood"
         operator="in"
         result="composite1" />
      <feMorphology
         id="feMorphology4393-0-9-7"
         operator="dilate"
         radius="4"
         result="result3" />
      <feComposite
         id="feComposite4385-7-5-8"
         in2="result3"
         in="SourceGraphic"
         operator="over"
         result="composite2" />
    </filter>
    <filter
       color-interpolation-filters="sRGB"
       id="filter4375-5-4-81"
       inkscape:label="deevad outline effect">
      <feFlood
         id="feFlood4377-0-3-3"
         flood-opacity="1"
         flood-color="rgb(255,255,255)"
         result="flood" />
      <feComposite
         id="feComposite4379-6-6-36"
         in2="SourceGraphic"
         in="flood"
         operator="in"
         result="composite1" />
      <feMorphology
         id="feMorphology4393-0-9-1"
         operator="dilate"
         radius="4"
         result="result3" />
      <feComposite
         id="feComposite4385-7-5-4"
         in2="result3"
         in="SourceGraphic"
         operator="over"
         result="composite2" />
    </filter>
    <filter
       color-interpolation-filters="sRGB"
       id="filter4375-5-4-9"
       inkscape:label="deevad outline effect">
      <feFlood
         id="feFlood4377-0-3-0"
         flood-opacity="1"
         flood-color="rgb(255,255,255)"
         result="flood" />
      <feComposite
         id="feComposite4379-6-6-2"
         in2="SourceGraphic"
         in="flood"
         operator="in"
         result="composite1" />
      <feMorphology
         id="feMorphology4393-0-9-2"
         operator="dilate"
         radius="4"
         result="result3" />
      <feComposite
         id="feComposite4385-7-5-85"
         in2="result3"
         in="SourceGraphic"
         operator="over"
         result="composite2" />
    </filter>
    <filter
       color-interpolation-filters="sRGB"
       id="filter4375-5-4-2"
       inkscape:label="deevad outline effect">
      <feFlood
         id="feFlood4377-0-3-47"
         flood-opacity="1"
         flood-color="rgb(255,255,255)"
         result="flood" />
      <feComposite
         id="feComposite4379-6-6-35"
         in2="SourceGraphic"
         in="flood"
         operator="in"
         result="composite1" />
      <feMorphology
         id="feMorphology4393-0-9-76"
         operator="dilate"
         radius="6"
         result="result3" />
      <feComposite
         id="feComposite4385-7-5-9"
         in2="result3"
         in="SourceGraphic"
         operator="over"
         result="composite2" />
    </filter>
    <filter
       color-interpolation-filters="sRGB"
       id="filter4375-5-4-2-8"
       inkscape:label="deevad outline effect">
      <feFlood
         id="feFlood4377-0-3-47-4"
         flood-opacity="1"
         flood-color="rgb(255,255,255)"
         result="flood" />
      <feComposite
         id="feComposite4379-6-6-35-0"
         in2="SourceGraphic"
         in="flood"
         operator="in"
         result="composite1" />
      <feMorphology
         id="feMorphology4393-0-9-76-6"
         operator="dilate"
         radius="6"
         result="result3" />
      <feComposite
         id="feComposite4385-7-5-9-5"
         in2="result3"
         in="SourceGraphic"
         operator="over"
         result="composite2" />
    </filter>
    <filter
       color-interpolation-filters="sRGB"
       id="filter4375-5-4-2-8-9"
       inkscape:label="deevad outline effect">
      <feFlood
         id="feFlood4377-0-3-47-4-9"
         flood-opacity="1"
         flood-color="rgb(255,255,255)"
         result="flood" />
      <feComposite
         id="feComposite4379-6-6-35-0-8"
         in2="SourceGraphic"
         in="flood"
         operator="in"
         result="composite1" />
      <feMorphology
         id="feMorphology4393-0-9-76-6-6"
         operator="dilate"
         radius="6"
         result="result3" />
      <feComposite
         id="feComposite4385-7-5-9-5-0"
         in2="result3"
         in="SourceGraphic"
         operator="over"
         result="composite2" />
    </filter>
    <filter
       color-interpolation-filters="sRGB"
       id="filter4375-5-4-2-7"
       inkscape:label="deevad outline effect">
      <feFlood
         id="feFlood4377-0-3-47-3"
         flood-opacity="1"
         flood-color="rgb(255,255,255)"
         result="flood" />
      <feComposite
         id="feComposite4379-6-6-35-5"
         in2="SourceGraphic"
         in="flood"
         operator="in"
         result="composite1" />
      <feMorphology
         id="feMorphology4393-0-9-76-4"
         operator="dilate"
         radius="6"
         result="result3" />
      <feComposite
         id="feComposite4385-7-5-9-2"
         in2="result3"
         in="SourceGraphic"
         operator="over"
         result="composite2" />
    </filter>
    <filter
       color-interpolation-filters="sRGB"
       inkscape:collect="always"
       id="filter4968-5">
      <feGaussianBlur
         inkscape:collect="always"
         stdDeviation="1.0497573"
         id="feGaussianBlur4970-0" />
    </filter>
    <filter
       style="color-interpolation-filters:sRGB"
       id="filter4375-5-4-2-8-7"
       inkscape:label="deevad outline effect">
      <feFlood
         id="feFlood4377-0-3-47-4-6"
         flood-opacity="1"
         flood-color="rgb(255,255,255)"
         result="flood" />
      <feComposite
         id="feComposite4379-6-6-35-0-6"
         in2="SourceGraphic"
         in="flood"
         operator="in"
         result="composite1" />
      <feMorphology
         id="feMorphology4393-0-9-76-6-9"
         operator="dilate"
         radius="6"
         result="result3" />
      <feComposite
         id="feComposite4385-7-5-9-5-7"
         in2="result3"
         in="SourceGraphic"
         operator="over"
         result="composite2" />
    </filter>
    <filter
       style="color-interpolation-filters:sRGB"
       id="filter4375-5-4-2-8-8"
       inkscape:label="deevad outline effect">
      <feFlood
         id="feFlood4377-0-3-47-4-3"
         flood-opacity="1"
         flood-color="rgb(255,255,255)"
         result="flood" />
      <feComposite
         id="feComposite4379-6-6-35-0-7"
         in2="SourceGraphic"
         in="flood"
         operator="in"
         result="composite1" />
      <feMorphology
         id="feMorphology4393-0-9-76-6-5"
         operator="dilate"
         radius="6"
         result="result3" />
      <feComposite
         id="feComposite4385-7-5-9-5-1"
         in2="result3"
         in="SourceGraphic"
         operator="over"
         result="composite2" />
    </filter>
    <filter
       style="color-interpolation-filters:sRGB"
       id="filter4375-5-4-2-8-1"
       inkscape:label="deevad outline effect">
      <feFlood
         id="feFlood4377-0-3-47-4-1"
         flood-opacity="1"
         flood-color="rgb(255,255,255)"
         result="flood" />
      <feComposite
         id="feComposite4379-6-6-35-0-60"
         in2="SourceGraphic"
         in="flood"
         operator="in"
         result="composite1" />
      <feMorphology
         id="feMorphology4393-0-9-76-6-4"
         operator="dilate"
         radius="6"
         result="result3" />
      <feComposite
         id="feComposite4385-7-5-9-5-4"
         in2="result3"
         in="SourceGraphic"
         operator="over"
         result="composite2" />
    </filter>
    <filter
       style="color-interpolation-filters:sRGB"
       id="filter4375-5-4-2-8-1-9"
       inkscape:label="deevad outline effect">
      <feFlood
         id="feFlood4377-0-3-47-4-1-8"
         flood-opacity="1"
         flood-color="rgb(255,255,255)"
         result="flood" />
      <feComposite
         id="feComposite4379-6-6-35-0-60-5"
         in2="SourceGraphic"
         in="flood"
         operator="in"
         result="composite1" />
      <feMorphology
         id="feMorphology4393-0-9-76-6-4-5"
         operator="dilate"
         radius="6"
         result="result3" />
      <feComposite
         id="feComposite4385-7-5-9-5-4-7"
         in2="result3"
         in="SourceGraphic"
         operator="over"
         result="composite2" />
    </filter>
    <filter
       style="color-interpolation-filters:sRGB"
       id="filter4375-5-4-2-8-8-1"
       inkscape:label="deevad outline effect">
      <feFlood
         id="feFlood4377-0-3-47-4-3-7"
         flood-opacity="1"
         flood-color="rgb(255,255,255)"
         result="flood" />
      <feComposite
         id="feComposite4379-6-6-35-0-7-8"
         in2="SourceGraphic"
         in="flood"
         operator="in"
         result="composite1" />
      <feMorphology
         id="feMorphology4393-0-9-76-6-5-1"
         operator="dilate"
         radius="6"
         result="result3" />
      <feComposite
         id="feComposite4385-7-5-9-5-1-5"
         in2="result3"
         in="SourceGraphic"
         operator="over"
         result="composite2" />
    </filter>
    <filter
       style="color-interpolation-filters:sRGB"
       id="filter4375-5-4-2-8-8-1-8"
       inkscape:label="deevad outline effect">
      <feFlood
         id="feFlood4377-0-3-47-4-3-7-5"
         flood-opacity="1"
         flood-color="rgb(255,255,255)"
         result="flood" />
      <feComposite
         id="feComposite4379-6-6-35-0-7-8-0"
         in2="SourceGraphic"
         in="flood"
         operator="in"
         result="composite1" />
      <feMorphology
         id="feMorphology4393-0-9-76-6-5-1-2"
         operator="dilate"
         radius="6"
         result="result3" />
      <feComposite
         id="feComposite4385-7-5-9-5-1-5-9"
         in2="result3"
         in="SourceGraphic"
         operator="over"
         result="composite2" />
    </filter>
    <filter
       style="color-interpolation-filters:sRGB"
       id="filter4375-5-4-2-8-8-1-8-5"
       inkscape:label="deevad outline effect">
      <feFlood
         id="feFlood4377-0-3-47-4-3-7-5-5"
         flood-opacity="1"
         flood-color="rgb(255,255,255)"
         result="flood" />
      <feComposite
         id="feComposite4379-6-6-35-0-7-8-0-8"
         in2="SourceGraphic"
         in="flood"
         operator="in"
         result="composite1" />
      <feMorphology
         id="feMorphology4393-0-9-76-6-5-1-2-0"
         operator="dilate"
         radius="6"
         result="result3" />
      <feComposite
         id="feComposite4385-7-5-9-5-1-5-9-5"
         in2="result3"
         in="SourceGraphic"
         operator="over"
         result="composite2" />
    </filter>
    <filter
       style="color-interpolation-filters:sRGB"
       id="filter4375-5-4-2-8-8-1-8-3"
       inkscape:label="deevad outline effect">
      <feFlood
         id="feFlood4377-0-3-47-4-3-7-5-4"
         flood-opacity="1"
         flood-color="rgb(255,255,255)"
         result="flood" />
      <feComposite
         id="feComposite4379-6-6-35-0-7-8-0-2"
         in2="SourceGraphic"
         in="flood"
         operator="in"
         result="composite1" />
      <feMorphology
         id="feMorphology4393-0-9-76-6-5-1-2-6"
         operator="dilate"
         radius="6"
         result="result3" />
      <feComposite
         id="feComposite4385-7-5-9-5-1-5-9-8"
         in2="result3"
         in="SourceGraphic"
         operator="over"
         result="composite2" />
    </filter>
    <filter
       style="color-interpolation-filters:sRGB"
       id="filter4375-5-4-2-8-8-1-8-9"
       inkscape:label="deevad outline effect">
      <feFlood
         id="feFlood4377-0-3-47-4-3-7-5-52"
         flood-opacity="1"
         flood-color="rgb(255,255,255)"
         result="flood" />
      <feComposite
         id="feComposite4379-6-6-35-0-7-8-0-7"
         in2="SourceGraphic"
         in="flood"
         operator="in"
         result="composite1" />
      <feMorphology
         id="feMorphology4393-0-9-76-6-5-1-2-3"
         operator="dilate"
         radius="6"
         result="result3" />
      <feComposite
         id="feComposite4385-7-5-9-5-1-5-9-6"
         in2="result3"
         in="SourceGraphic"
         operator="over"
         result="composite2" />
    </filter>
    <filter
       style="color-interpolation-filters:sRGB"
       id="filter4375-5-4-2-8-8-1-8-1"
       inkscape:label="deevad outline effect">
      <feFlood
         id="feFlood4377-0-3-47-4-3-7-5-7"
         flood-opacity="1"
         flood-color="rgb(255,255,255)"
         result="flood" />
      <feComposite
         id="feComposite4379-6-6-35-0-7-8-0-5"
         in2="SourceGraphic"
         in="flood"
         operator="in"
         result="composite1" />
      <feMorphology
         id="feMorphology4393-0-9-76-6-5-1-2-00"
         operator="dilate"
         radius="6"
         result="result3" />
      <feComposite
         id="feComposite4385-7-5-9-5-1-5-9-9"
         in2="result3"
         in="SourceGraphic"
         operator="over"
         result="composite2" />
    </filter>
  </defs>
  <sodipodi:namedview
     pagecolor="#ffffff"
     bordercolor="#666666"
     borderopacity="1"
     objecttolerance="10"
     gridtolerance="10"
     guidetolerance="10"
     inkscape:pageopacity="0"
     inkscape:pageshadow="2"
     inkscape:window-width="1366"
     inkscape:window-height="715"
     id="namedview4"
     showgrid="false"
     inkscape:zoom="0.4121778"
     inkscape:cx="596.15156"
     inkscape:cy="1290.8255"
     inkscape:window-x="-8"
     inkscape:window-y="-8"
     inkscape:window-maximized="1"
     inkscape:current-layer="layer1" />
  <g
     inkscape:groupmode="layer"
     id="layer2"
     inkscape:label="artwork"
     sodipodi:insensitive="true">
    <image
       sodipodi:absref="G:\Aslan's Works &amp; Design Projects\2. Personal Projects\3. Translation Projects\1. Pepper &amp; Carrot Translation Project\Episode 4\lang\fa\../gfx_Pepper-and-Carrot_by-David-Revoy_E04P02.png"
       xlink:href="../gfx_Pepper-and-Carrot_by-David-Revoy_E04P02.png"
       y="0"
       x="0"
       id="image10"
       height="3503"
       width="2481" />
  </g>
  <g
     inkscape:groupmode="layer"
     id="layer3"
     inkscape:label="speechbubbles">
    <path
       style="fill:#ffffff;stroke:none"
       d="m 516.94719,955.40493 c 1.81385,-44.27644 13.36569,-66.97073 19.04542,-76.03998 5.79383,-9.25144 55.29793,-38.52725 65.29859,-40.42631 9.32056,-1.76991 39.9047,-15.4005 50.7878,-15.4005 10.8831,0 83.43709,-4.81265 87.06479,-6.73772 3.6277,-1.92506 56.20167,-2.71838 66.20552,-0.96253 9.06924,1.59181 65.60717,6.53705 73.46091,10.58784 3.3468,1.7262 81.58884,13.40242 87.06479,14.43797 4.55272,0.86097 43.53249,-6.73772 48.06709,-6.73772 4.5346,0 38.0908,10.58785 41.7185,22.13823 3.6277,11.55037 25.3939,42.35137 19.9524,77.0025 -5.4416,34.65112 -22.6731,69.30229 -50.7878,73.15239 -28.11474,3.8501 -193.17507,16.363 -240.33517,18.2881 -47.16009,1.9251 -239.42817,-17.3256 -247.59049,-28.87595 -8.16233,-11.55038 -19.95235,-40.42632 -19.95235,-40.42632 z"
       id="path4972"
       inkscape:connector-curvature="0"
       sodipodi:nodetypes="csssssssssssssc" />
    <path
       style="color:#000000;display:inline;overflow:visible;visibility:visible;fill:#ffffff;fill-opacity:1;fill-rule:nonzero;stroke:none;stroke-width:1px;marker:none;enable-background:accumulate"
       d="m 69.456389,141.40627 c 0,-48.693785 88.968661,-69.562548 162.685561,-72.34505 73.71689,-2.782502 179.2083,4.173752 181.75026,38.95503 2.54197,34.78126 -16.52275,68.17129 -35.58747,75.12754 -19.06471,6.95625 -120.74318,20.86876 -151.24672,22.26001 -30.50354,1.39126 -152.517707,25.04252 -157.601631,-63.99753 z"
       id="path4974"
       inkscape:connector-curvature="0" />
    <path
       style="color:#000000;fill:#ffffff;fill-opacity:1;fill-rule:nonzero;stroke:none;stroke-width:1px;marker:none;visibility:visible;display:inline;overflow:visible;enable-background:accumulate"
       d="m 334.65357,273.73019 c -67.89078,-18.51567 -87.09222,-32.23098 -97.3787,-90.52105 -10.28648,-58.29007 10.97225,-58.97583 10.97225,-58.97583 0,0 -8.22919,111.09401 86.40645,149.49688 z"
       id="path5002"
       inkscape:connector-curvature="0" />
    <path
       style="color:#000000;fill:#ffffff;fill-opacity:1;fill-rule:nonzero;stroke:none;stroke-width:1px;marker:none;visibility:visible;display:inline;overflow:visible;enable-background:accumulate"
       d="m 740.05071,833.92004 c 6.34848,-35.37007 4.53463,-68.01937 -28.11467,-81.62324 54.41549,10.8831 61.67089,77.99554 61.67089,98.85481 0,20.85927 -33.55622,-17.23157 -33.55622,-17.23157 z"
       id="path5010"
       inkscape:connector-curvature="0" />
    <path
       style="color:#000000;fill:#ffffff;fill-opacity:1;fill-rule:nonzero;stroke:none;stroke-width:1px;marker:none;visibility:visible;display:inline;overflow:visible;enable-background:accumulate"
       d="m 1070.1714,134.75981 c 0.7886,-43.37467 64.6677,-49.683712 120.6604,-47.317821 55.9928,2.365891 156.9375,-14.195346 147.4739,68.610841 -9.4636,82.80618 -188.4827,44.95193 -194.0031,45.74056 -5.5204,0.78863 -85.1721,-14.98398 -74.1312,-67.03358 z"
       id="path5018"
       inkscape:connector-curvature="0" />
    <path
       style="color:#000000;fill:#ffffff;fill-opacity:1;fill-rule:nonzero;stroke:none;stroke-width:1px;marker:none;visibility:visible;display:inline;overflow:visible;enable-background:accumulate"
       d="m 1375.3713,403.68276 c 2.3659,-40.22015 18.9271,-85.96071 143.5307,-72.554 124.6036,13.40672 119.0832,22.87028 118.2946,76.49715 -0.7886,53.62686 -56.7814,63.09042 -132.4899,49.68371 -75.7085,-13.40672 -126.9695,4.73178 -129.3354,-53.62686 z"
       id="path5026"
       inkscape:connector-curvature="0" />
    <path
       style="color:#000000;fill:#ffffff;fill-opacity:1;fill-rule:nonzero;stroke:none;stroke-width:1px;marker:none;visibility:visible;display:inline;overflow:visible;enable-background:accumulate"
       d="m 1072.5373,525.92046 c 2.3659,-46.52919 32.3338,-56.78139 63.879,-59.14728 31.5452,-2.36589 44.1633,4.73179 52.8383,6.30905 8.6749,1.57726 89.9038,-4.73179 100.9446,-3.15453 11.0409,1.57727 63.0905,22.87028 60.7246,59.93591 -2.3659,37.06563 -37.8543,52.83823 -74.1313,55.20412 -36.277,2.3659 -110.4082,0 -128.5467,4.73179 -18.1385,4.73178 -70.1881,-3.15452 -75.7085,-63.87906 z"
       id="path5034"
       inkscape:connector-curvature="0" />
    <path
       style="color:#000000;fill:#ffffff;fill-opacity:1;fill-rule:nonzero;stroke:none;stroke-width:1px;marker:none;visibility:visible;display:inline;overflow:visible;enable-background:accumulate"
       d="m 1225.5316,890.26768 c 0,-33.91111 33.1224,-71.76536 67.8222,-74.13126 34.6997,-2.36589 79.6516,3.15453 123.0263,9.46357 43.3747,6.30904 59.9359,-8.67493 83.5948,-3.15452 23.6589,5.52041 42.586,22.87028 42.586,44.95193 0,22.08165 -13.4067,22.87028 -14.1953,23.65891 -0.7886,0.78863 4.7318,16.56123 -3.9431,22.87028 -8.675,6.30904 -55.2042,14.19534 -60.7246,15.7726 -5.5204,1.57726 -50.4723,6.30905 -65.4563,5.52042 -14.984,-0.78863 -91.4811,0.78863 -97.7902,-1.57726 -6.309,-2.3659 -53.6268,-1.57726 -74.9198,-43.37467 z"
       id="path5042"
       inkscape:connector-curvature="0" />
    <path
       style="color:#000000;fill:#ffffff;fill-opacity:1;fill-rule:nonzero;stroke:none;stroke-width:1px;marker:none;visibility:visible;display:inline;overflow:visible;enable-background:accumulate"
       d="m 1183.6909,183.29859 c 14.3116,13.11899 28.6233,30.41221 29.8159,34.58644 1.1926,4.17422 -10.1374,27.43062 -5.9632,32.20116 4.1742,4.77054 19.6785,5.36686 21.4675,8.94477 1.7889,3.5779 -3.5779,22.06376 0,25.64166 3.5779,3.57791 28.6232,13.119 29.8159,16.10058 1.1926,2.98159 7.7521,19.08218 19.6784,31.60485 -11.33,-31.60485 -7.7521,-38.16434 -11.9263,-42.93488 -4.1742,-4.77055 -20.8711,-8.94477 -23.2564,-14.31163 -2.3853,-5.36686 2.3853,-23.2564 -2.3853,-28.02694 -4.7705,-4.77054 -16.1006,-6.5595 -16.1006,-6.5595 4.1743,-4.77054 22.0638,-32.79748 2.3853,-60.82442 -19.6785,-28.02693 -43.5312,3.57791 -43.5312,3.57791 z"
       id="path5050"
       inkscape:connector-curvature="0" />
    <path
       style="color:#000000;fill:#ffffff;fill-opacity:1;fill-rule:nonzero;stroke:none;stroke-width:1px;marker:none;visibility:visible;display:inline;overflow:visible;enable-background:accumulate"
       d="m 1480.9424,434.81508 c 4.6668,19.70442 14.519,30.07516 19.1859,32.14931 4.6668,2.07415 16.2199,7.77924 21.2588,11.33459 4.1495,2.9624 11.1881,5.84802 8.0769,9.47778 -3.1112,3.62976 -29.8543,18.07793 -27.7801,31.5599 2.0741,13.48196 9.3337,15.55611 21.26,16.59319 11.9264,1.03707 27.4825,2.59268 30.0752,12.44489 2.5927,9.85221 -5.1854,18.66734 -10.3708,21.77857 -5.1854,3.11122 -38.8903,17.63026 -45.6313,24.88978 -6.7409,7.25953 -22.8156,32.14931 -13.4819,42.00152 4.6668,-17.11173 7.7353,-25.24497 14.9948,-30.43034 7.2596,-5.18538 19.7472,-15.71947 30.1179,-17.27508 10.3708,-1.55562 31.1123,-3.11123 36.2976,-10.37075 5.1854,-7.25952 12.9635,-26.96394 8.2966,-36.81614 -4.6668,-9.85221 -15.0376,-18.14881 -33.1864,-18.14881 -11.9263,-1.03707 -17.6302,-2.59268 -18.1488,-5.70391 -0.5185,-3.11122 7.2596,-11.92636 18.1488,-16.07465 10.8893,-4.1483 18.1488,-11.40782 16.0747,-17.63027 -2.0742,-6.22245 -16.8105,-17.48379 -19.9218,-22.66917 -3.1112,-5.18537 -24.1539,-32.81432 -24.1539,-32.81432 z"
       id="path5058"
       inkscape:connector-curvature="0"
       sodipodi:nodetypes="cscsssssscssssccscccc" />
    <path
       style="color:#000000;fill:#ffffff;fill-opacity:1;fill-rule:nonzero;stroke:none;stroke-width:1px;marker:none;visibility:visible;display:inline;overflow:visible;enable-background:accumulate"
       d="m 1169.82,569.11623 c 6.2225,27.48248 16.5932,59.11325 19.7045,66.37277 6.2224,-7.25952 12.9634,-12.44489 18.1488,-16.59319 4.6668,14.0005 22.8156,80.37327 20.7414,97.485 6.741,-42.00152 -3.6297,-93.3367 -12.9634,-115.63381 -7.778,4.1483 -11.9263,7.77806 -16.0746,9.85221 -5.1854,-10.88928 -14.5191,-49.77957 -14.5191,-49.77957 z"
       id="path5066"
       inkscape:connector-curvature="0" />
    <path
       style="color:#000000;fill:#ffffff;fill-opacity:1;fill-rule:nonzero;stroke:none;stroke-width:1px;marker:none;visibility:visible;display:inline;overflow:visible;enable-background:accumulate"
       d="m 1429.6072,851.71903 c 36.8161,-34.22345 74.1508,-91.78109 5.1854,-131.18992 -1.5556,-37.85322 -7.1179,-66.37345 -64.8172,-94.89232 38.3718,29.03809 56.002,49.26104 53.9279,105.26306 32.6678,24.88979 31.1122,70.52107 -21.26,104.22599 -52.3723,33.70492 -40.9645,20.74149 -40.9645,20.74149 l 52.8908,6.22245 z"
       id="path5074"
       inkscape:connector-curvature="0"
       sodipodi:nodetypes="ccccsccc" />
    <path
       style="color:#000000;display:inline;overflow:visible;visibility:visible;fill:#ffffff;fill-opacity:1;fill-rule:nonzero;stroke:none;stroke-width:0.96272647px;marker:none;enable-background:accumulate"
       d="m 2012.9616,723.64493 c 12.9634,-10.09265 33.7049,-6.72843 33.7049,-6.72843 0,0 4.6669,-14.41807 39.4089,-18.74349 34.742,-4.32542 48.7425,11.53445 48.7425,11.53445 0,0 8.2966,-9.61204 23.8527,-8.65084 15.5561,0.96121 25.9268,12.49566 25.9268,12.49566 0,0 6.741,-9.13144 20.223,-8.17023 13.482,0.9612 21.7786,8.17023 21.7786,8.17023 0,0 9.3336,-11.53445 22.2971,-10.57325 12.9634,0.9612 30.0751,16.82108 30.0751,16.82108 0,0 9.3337,-12.49565 28.001,-11.53445 18.6674,0.9612 36.2976,12.97626 40.9645,16.34048 4.6668,3.36421 10.3707,11.05384 10.3707,11.05384 0,0 15.5561,0.96121 21.26,7.20904 5.704,6.24783 4.6669,24.03011 4.6669,24.03011 0,0 19.1859,8.65085 21.7785,21.6271 2.5927,12.97627 -9.8522,28.35554 -9.8522,28.35554 0,0 19.7045,14.89866 16.0747,29.79734 -3.6298,14.89866 -22.2971,16.82107 -22.2971,16.82107 0,0 20.7415,17.30168 16.0746,29.79734 -4.6668,12.49566 -25.4083,20.6659 -25.4083,20.6659 0,0 8.2966,11.53446 3.6298,14.41807 -4.6669,2.88361 -13.482,3.84482 -13.482,3.84482 0,0 -4.1483,11.53445 -14.0005,15.85987 -9.8522,4.32542 -36.2976,0.9612 -36.2976,0.9612 0,0 1.5556,9.13145 -9.8522,13.45687 -11.4078,4.32542 -29.5566,-3.36421 -29.5566,-3.36421 0,0 0,9.13143 -12.9635,13.93746 -12.9634,4.80603 -25.4083,-9.61205 -25.4083,-9.61205 0,0 -4.1483,10.09265 -21.7786,10.57325 -17.6302,0.48061 -23.8527,-17.78228 -23.8527,-17.78228 0,0 -3.6297,16.34048 -17.1117,17.30168 -13.482,0.96121 -24.3712,-16.34047 -24.3712,-16.34047 0,0 -6.2225,16.34047 -19.1859,14.89866 -12.9635,-1.4418 -19.1859,-15.37927 -19.1859,-15.37927 0,0 -15.5561,9.61204 -25.4083,5.28663 -9.8522,-4.32543 -10.3708,-10.09265 -10.3708,-10.09265 0,0 -39.9273,3.36422 -56.002,-13.93746 -16.0747,-17.30168 -7.2595,-22.10771 -7.2595,-22.10771 0,0 -18.1488,0.96121 -24.8898,-12.01506 -6.741,-12.97625 3.6298,-24.99132 3.6298,-24.99132 0,0 -22.8157,-10.09264 -23.8528,-22.1077 -1.037,-12.01505 14.0005,-24.51071 14.0005,-24.51071 0,0 -16.5931,-8.17024 -15.0375,-17.78229 1.5556,-9.61204 11.4078,-18.74348 11.4078,-18.74348 0,0 -10.8893,-8.65084 -2.5927,-25.47192 8.2966,-16.82108 21.26,-24.99132 21.26,-24.99132 0,0 -6.741,-5.76723 10.8893,-21.6271 z"
       id="path5082"
       inkscape:connector-curvature="0" />
    <path
       style="color:#000000;fill:#ffffff;fill-opacity:1;fill-rule:nonzero;stroke:none;stroke-width:1px;marker:none;visibility:visible;display:inline;overflow:visible;enable-background:accumulate"
       d="m 2236.4512,645.85975 c 6.7409,-17.11173 21.7785,-18.14881 21.7785,-18.14881 0,0 -0.5185,-12.96343 9.8522,-20.22295 10.3708,-7.25952 22.8157,0.51854 22.8157,0.51854 0,0 17.1117,-2.59269 25.4083,13.48196 8.2966,16.07466 14.0005,23.85272 6.2224,39.92737 5.704,8.81514 0,27.48248 -8.2965,31.11224 -8.2966,3.62976 -28.5196,9.85221 -39.9274,-8.81514 -9.3337,3.11123 -37.8532,5.18538 -37.8532,-37.85321 z"
       id="path5090"
       inkscape:connector-curvature="0" />
    <path
       style="color:#000000;fill:#ffffff;fill-opacity:1;fill-rule:nonzero;stroke:none;stroke-width:1px;marker:none;visibility:visible;display:inline;overflow:visible;enable-background:accumulate"
       d="m 2222.4507,545.78206 c -1.5557,-11.40782 8.2966,-17.11173 8.2966,-17.11173 0,0 -9.8523,-8.81514 1.5556,-17.63027 11.4078,-8.81513 21.7785,2.07415 21.7785,2.07415 0,0 14.5191,-17.11173 28.001,2.59269 13.482,19.70441 0,30.59369 0,30.59369 0,0 7.7781,20.74149 -12.9634,25.40833 -20.7415,4.66683 -26.4454,1.55561 -31.6308,-10.88928 -14.519,-4.1483 -15.0375,-15.03758 -15.0375,-15.03758 z"
       id="path5098"
       inkscape:connector-curvature="0" />
    <path
       style="color:#000000;fill:#ffffff;fill-opacity:1;fill-rule:nonzero;stroke:none;stroke-width:1px;marker:none;visibility:visible;display:inline;overflow:visible;enable-background:accumulate"
       d="m 2172.6711,455.03804 c -7.2595,-9.85221 -2.5927,-20.22296 3.6297,-22.2971 6.2225,-2.07415 19.1859,-0.51854 22.8157,9.8522 10.3707,-4.66683 17.1117,4.66684 17.6302,8.81514 0.5186,4.14829 -0.5185,12.44489 -0.5185,12.44489 0,0 8.2966,25.40833 -5.1854,32.66785 -13.4819,7.25952 -26.4454,-5.18538 -26.4454,-17.63027 -9.8522,5.18537 -19.7044,-1.03707 -18.6673,-8.2966 1.0371,-7.25952 6.741,-15.55611 6.741,-15.55611 z"
       id="path5106"
       inkscape:connector-curvature="0" />
    <path
       style="color:#000000;fill:#ffffff;fill-opacity:1;fill-rule:nonzero;stroke:none;stroke-width:1px;marker:none;visibility:visible;display:inline;overflow:visible;enable-background:accumulate"
       d="m 1106.5134,1407.2077 c -0.4509,-15.3307 -19.8397,-30.6613 -18.9379,-45.5411 0.9018,-14.8798 19.3888,-27.9559 31.1123,-6.7635 9.4689,-9.469 21.6433,-10.8217 29.3086,-2.7054 7.6653,8.1162 15.7816,14.8797 5.4108,28.8577 -10.3707,13.9779 -41.0321,15.7816 -46.8938,26.1523 z"
       id="path5114"
       inkscape:connector-curvature="0" />
    <path
       style="color:#000000;fill:#ffffff;fill-opacity:1;fill-rule:nonzero;stroke:none;stroke-width:1px;marker:none;visibility:visible;display:inline;overflow:visible;enable-background:accumulate"
       d="m 624.59723,1243.001 c 0,0 6.27342,-19.2124 24.70159,-17.644 18.42817,1.5683 36.46424,25.4857 -14.50728,71.7522 -8.62595,-9.018 -43.12975,-26.662 -44.69811,-41.1693 -1.56835,-14.5073 13.33102,-37.2484 34.5038,-12.9389 z"
       id="path5122"
       inkscape:connector-curvature="0" />
    <path
       style="color:#000000;fill:#ffffff;fill-opacity:1;fill-rule:nonzero;stroke:none;stroke-width:1px;marker:none;visibility:visible;display:inline;overflow:visible;enable-background:accumulate"
       d="m 853.92715,1278.7345 c 0,0 50.09069,-86.4661 118.07093,-76.925 67.98022,9.541 103.16302,51.2833 92.42922,133.5752 -10.7337,82.2918 -116.28194,166.969 -131.18988,180.6843 -14.90795,13.7153 -19.67849,16.1005 -21.46744,26.2379 -47.10911,-9.541 -180.08799,-36.3753 -226.00447,-121.0525 -45.91647,-84.6771 -31.00852,-134.1715 14.31163,-165.7763 45.32016,-31.6049 103.16299,-56.0539 153.85001,23.2564 z"
       id="path5130"
       inkscape:connector-curvature="0" />
    <path
       style="color:#000000;fill:#ffffff;fill-opacity:1;fill-rule:nonzero;stroke:none;stroke-width:1px;marker:none;visibility:visible;display:inline;overflow:visible;enable-background:accumulate"
       d="m 1075.4012,1487.9192 c -57.7155,3.6072 -92.43493,-15.7816 -115.88183,-32.465 -23.44691,-16.6834 -18.93789,-50.9519 -18.93789,-50.9519 l 52.75553,0.4509 c 0,0 13.52709,51.8537 28.40679,61.3227 14.8798,9.4689 36.5231,22.996 53.6574,21.6433 z"
       id="path5138"
       inkscape:connector-curvature="0" />
    <path
       style="color:#000000;fill:#ffffff;fill-opacity:1;fill-rule:nonzero;stroke:none;stroke-width:1px;marker:none;visibility:visible;display:inline;overflow:visible;enable-background:accumulate"
       d="m 795.7695,1586.5388 c 0,-9.8874 11.93314,-36.1403 9.88746,-43.3002 -2.04568,-7.1599 -10.2284,-22.8434 -21.47964,-19.7749 -11.25124,3.0685 -13.29692,8.5237 -12.95598,14.3198 -7.15988,-6.819 -27.95762,-12.2741 -33.41277,-2.7276 -5.45514,9.5465 -6.13704,21.8206 13.97881,31.0261 20.11586,9.2056 35.45846,8.5237 43.98212,20.4568 z"
       id="path5146"
       inkscape:connector-curvature="0" />
    <path
       style="color:#000000;fill:#ffffff;fill-opacity:1;fill-rule:nonzero;stroke:none;stroke-width:1px;marker:none;visibility:visible;display:inline;overflow:visible;enable-background:accumulate"
       d="m 926.0816,1956.7478 c -9.54108,-38.7606 6.5595,-56.6502 21.46745,-62.017 14.90794,-5.3669 21.46744,-8.9448 18.48585,-15.5043 -2.98159,-6.5595 -36.97171,-8.9447 -37.56802,-18.4858 -0.59632,-9.5411 14.90794,-38.7607 33.39379,-39.357 18.48586,-0.5963 28.02694,-10.7337 34.58644,-11.9264 6.55949,-1.1926 51.87969,0 59.03549,-4.1742 7.1558,-4.1742 73.9434,-29.2196 95.4108,-75.136 21.4675,-45.9165 -4.1742,-7.7522 -42.9349,10.7337 -38.7606,18.4858 -77.5213,13.7153 -90.6403,20.2748 -13.119,6.5595 -24.449,26.8343 -38.16431,29.2196 -13.71531,2.3852 -49.49438,-5.3669 -66.19128,6.5595 -16.6969,11.9263 -40.54961,36.9717 -34.58643,53.6686 5.96318,16.6969 36.9717,20.2748 41.74225,23.8527 -8.34845,12.5227 -20.87113,31.0085 -19.08218,42.9349 1.78896,11.9263 4.17423,28.6232 25.04535,39.3569 z"
       id="path5154"
       inkscape:connector-curvature="0" />
    <flowRoot
       xml:space="preserve"
       id="flowRoot2987-7-9-9-8"
       style="font-style:normal;font-variant:normal;font-weight:normal;font-stretch:normal;line-height:0.01%;font-family:Lavi;-inkscape-font-specification:Lavi;letter-spacing:0px;word-spacing:0px;fill:#ffffff;fill-opacity:1;stroke:#d85e10;stroke-opacity:1;filter:url(#filter4968-5)"
       transform="matrix(0.56421638,-0.28299338,0.40834508,0.9532616,1508.2079,1346.4399)"><flowRegion
         id="flowRegion2989-4-5-8-4"><rect
           id="rect2991-45-1-3-5"
           width="417.15793"
           height="141.89404"
           x="120.55251"
           y="265.53046"
           style="font-style:normal;font-variant:normal;font-weight:normal;font-stretch:normal;font-family:Lavi;-inkscape-font-specification:Lavi;fill:#ffffff;fill-opacity:1;stroke:#d85e10;stroke-opacity:1" /></flowRegion><flowPara
         id="flowPara2995-4-1-5-2"
         style="font-style:normal;font-variant:normal;font-weight:normal;font-stretch:normal;font-size:79.17514038px;line-height:1.25;font-family:midan;-inkscape-font-specification:midan;direction:rtl;fill:#d85e10;fill-opacity:1;stroke:none;stroke-width:3.93892884;stroke-miterlimit:4;stroke-dasharray:none;stroke-opacity:1">غذای گربه</flowPara></flowRoot>    <path
       style="color:#000000;fill:#ffffff;fill-opacity:1;fill-rule:nonzero;stroke:none;stroke-width:1px;marker:none;visibility:visible;display:inline;overflow:visible;enable-background:accumulate"
       d="m 1924.9438,1496.4501 c -4.8004,54.1755 -0.6858,78.863 4.8004,91.8926 19.1524,-4.4576 31.0358,-5.7603 34.2882,-13.7153 -8.2292,13.0295 -12.3437,32.9167 -19.8872,37.0313 -7.5434,4.1146 -71.3196,35.6598 -79.5488,40.4602 -8.2292,4.8003 6.8577,8.2292 6.8577,8.2292 l 50.0609,-6.8577 -37.7171,27.4306 26.0591,4.8004 130.2954,-41.1459 -2.7431,-10.2865 -17.1441,-2.0573 20.573,-4.8004 -5.4862,-10.2865 -64.4619,-4.8003 c 0,0 20.573,-41.8317 26.7448,-56.2328 -19.9985,-8.5809 -45.2605,6.8577 -51.4324,7.5434 -12.1474,-13.2081 -10.4793,-38.4181 -21.2587,-67.205 z"
       id="path5162"
       inkscape:connector-curvature="0"
       sodipodi:nodetypes="cccssccccccccccccc" />
    <path
       style="fill:#ffffff;stroke:none;stroke-width:1px;stroke-linecap:butt;stroke-linejoin:miter;stroke-opacity:1;color:#000000;fill-opacity:1;fill-rule:nonzero;stroke-miterlimit:4;stroke-dasharray:none;stroke-dashoffset:0;marker:none;visibility:visible;display:inline;overflow:visible;enable-background:accumulate"
       d="m 260.5909,2649.2219 c -37.03134,-20.5729 -124.12356,-17.1441 -120.69473,16.4584 3.42882,33.6025 52.11817,-15.0868 79.54879,-3.4288 27.43063,11.658 -3.42882,30.1737 -13.02954,43.889 -9.60072,13.7153 41.8317,5.4861 43.20323,18.5156 1.37153,13.0296 -4.80036,33.6026 -33.60251,39.0887 -28.80215,5.4861 -15.08684,30.1737 -15.08684,30.1737 0,0 2.05729,-15.7726 12.34378,-18.5157 10.28648,-2.7431 53.48971,-14.4011 55.547,-37.0313 2.0573,-22.6303 -16.45837,-38.4029 -36.34557,-37.0314 -1.37153,-0.6858 40.46016,-12.3438 28.11639,-52.1182 z"
       id="path5219"
       inkscape:connector-curvature="0" />
    <path
       style="color:#000000;fill:#ffffff;fill-opacity:1;fill-rule:nonzero;stroke:none;stroke-width:1px;marker:none;visibility:visible;display:inline;overflow:visible;enable-background:accumulate"
       d="m 1212.1248,2823.9893 c 20.5044,-10.2522 42.5861,-30.7566 41.7974,-42.5861 -0.7886,-11.8294 -5.5204,-38.6428 -32.3338,-36.277 -26.8134,2.3659 -67.0336,13.4068 -77.2858,18.9272 -10.2522,5.5204 -31.5452,19.7157 -46.5292,5.5204 -14.9839,-14.1954 -9.4635,-26.8134 -5.5204,-33.1225 3.9432,-6.309 17.3499,-27.6021 12.6181,-31.5452 -4.7318,-3.9432 -26.8134,11.8294 -32.3338,18.1385 -5.5204,6.309 -43.3747,34.6997 -52.0496,35.4884 -8.675,0.7886 -52.83827,7.8863 -67.82225,-1.5773 -14.98397,-9.4636 -40.22014,-24.4475 -22.08165,-54.4155 18.1385,-29.968 46.52919,-11.0408 51.26098,-3.9431 4.73178,7.0976 -0.78863,27.602 5.52041,29.9679 6.30904,2.3659 53.62691,-0.7886 60.72451,-16.5612 7.0977,-15.7726 60.7246,-43.3747 74.9199,-41.0088 14.1954,2.3659 32.3339,7.8863 29.968,32.3338 -2.3659,24.4476 -11.8295,20.5044 -7.8863,28.3907 13.4067,-8.6749 85.9607,-27.602 97.7901,-22.8703 11.8295,4.7318 41.0088,11.8295 46.5292,42.5861 5.5204,30.7566 -9.4636,48.8951 -27.6021,63.0904 -18.1385,14.1954 -40.7066,24.7826 -56.4792,27.9371 -15.7727,3.1545 -62.679,6.2874 -62.1606,0.1403 0.5602,-6.6423 50.029,-16.2479 68.9561,-18.6138 z"
       id="path5255"
       inkscape:connector-curvature="0"
       sodipodi:nodetypes="csssscsscssssssscsssssc" />
    <g
       id="g5381"
       transform="matrix(1.0032789,0,0,1,-3.973648,0)"
       style="fill:#ffffff">
      <path
         inkscape:connector-curvature="0"
         id="path5263"
         d="m 1225.2771,3157.962 c -4.7051,-6.6655 -4.7051,-15.2915 -4.7051,-16.8598 0,-1.5684 0.3921,-7.4497 0.3921,-7.4497 l -3.1367,-1.1763 2.7446,-5.0971 -3.1367,0.3921 c 0,0 7.4497,-9.0181 9.018,-11.7627 1.5684,-2.7446 4.313,-9.018 4.313,-9.018 0,0 14.5073,-1.9605 17.644,-3.1368 3.1367,-1.1762 12.5468,-11.3705 12.5468,-11.3705 0,0 11.3706,5.4892 15.6836,6.2734 4.3129,0.7842 24.3095,1.9604 27.8383,0 3.5288,-1.9605 7.0576,-4.7051 7.0576,-4.7051 0,0 9.018,-0.7841 11.3705,-1.9604 2.3526,-1.1763 6.6655,-3.9209 6.6655,-3.9209 0,0 7.4497,0.7842 10.5864,0.3921 3.1367,-0.3921 17.644,0 19.2124,0 1.5683,0 12.5468,6.6655 12.5468,6.6655 l 7.0576,6.6655 c 0,0 5.8813,-0.3921 8.626,-1.1763 2.7446,-0.7841 5.0971,3.1367 5.0971,3.1367 0,0 10.5864,23.9175 12.1548,28.6225 1.5683,4.7051 2.3525,14.1152 2.3525,14.1152 0,0 -4.313,7.4497 -6.6655,10.5864 -2.3525,3.1367 -9.018,10.5864 -12.5468,13.331 -3.5288,2.7446 -7.8418,7.0576 -12.1548,4.313 -4.313,-2.7446 -8.6259,-2.3525 -10.1943,-0.3921 -1.5684,1.9604 -12.9389,15.6836 -16.8598,14.1152 -3.9209,-1.5684 -17.2519,-3.9209 -21.1728,-7.4497 -3.9209,-3.5288 -10.1943,4.7051 -12.9389,2.3525 -2.7446,-2.3525 -6.6655,-6.6655 -9.4102,-6.6655 -2.7446,0 -35.68,9.8023 -39.6009,8.2339 -3.9209,-1.5684 -24.7016,-14.5073 -27.0541,-16.0756 -2.3526,-1.5684 -8.2339,-10.9785 -8.2339,-10.9785 z"
         style="color:#000000;fill:#ffffff;fill-opacity:1;fill-rule:nonzero;stroke:none;stroke-width:1px;marker:none;visibility:visible;display:inline;overflow:visible;enable-background:accumulate" />
      <path
         inkscape:connector-curvature="0"
         id="path5271"
         d="m 1236.8125,3095.4062 a 2.20022,2.20022 0 0 0 -0.1563,0.031 l -9.875,1.375 a 2.20022,2.20022 0 0 0 -1.4374,0.8125 l -12.9688,16.3438 a 2.2133161,2.2133161 0 1 0 3.4688,2.75 l 12.375,-15.6876 9.0312,-1.25 a 2.20022,2.20022 0 0 0 -0.4375,-4.375 z"
         style="font-size:medium;font-style:normal;font-variant:normal;font-weight:normal;font-stretch:normal;text-indent:0;text-align:start;text-decoration:none;line-height:normal;letter-spacing:normal;word-spacing:normal;text-transform:none;direction:ltr;block-progression:tb;writing-mode:lr-tb;text-anchor:start;baseline-shift:baseline;color:#000000;fill:#ffffff;fill-opacity:1;fill-rule:nonzero;stroke:none;stroke-width:1px;marker:none;visibility:visible;display:inline;overflow:visible;enable-background:accumulate;font-family:Sans;-inkscape-font-specification:Sans" />
      <path
         inkscape:connector-curvature="0"
         id="path5273"
         d="m 1252.1562,3077.3125 a 2.20022,2.20022 0 0 0 -1.625,0.9063 l -7.8124,10.5312 -11.3438,-5.0625 a 2.20022,2.20022 0 0 0 -2.3125,0.3125 l -14.6563,12.2812 a 2.20022,2.20022 0 1 0 2.8126,3.375 l 13.5937,-11.4062 11.7187,5.25 a 2.20022,2.20022 0 0 0 2.6563,-0.7188 l 8.875,-11.9374 a 2.20022,2.20022 0 0 0 -1.9063,-3.5313 z"
         style="font-size:medium;font-style:normal;font-variant:normal;font-weight:normal;font-stretch:normal;text-indent:0;text-align:start;text-decoration:none;line-height:normal;letter-spacing:normal;word-spacing:normal;text-transform:none;direction:ltr;block-progression:tb;writing-mode:lr-tb;text-anchor:start;baseline-shift:baseline;color:#000000;fill:#ffffff;fill-opacity:1;fill-rule:nonzero;stroke:none;stroke-width:1px;marker:none;visibility:visible;display:inline;overflow:visible;enable-background:accumulate;font-family:Sans;-inkscape-font-specification:Sans" />
      <path
         inkscape:connector-curvature="0"
         id="path5275"
         d="m 1267.9375,3079.7188 a 2.20022,2.20022 0 0 0 -1,0.2812 l -10.2187,5.4375 a 2.20022,2.20022 0 1 0 2.0624,3.875 l 8.8126,-4.6563 6.3437,6.3438 a 2.20022,2.20022 0 0 0 1.2187,0.625 l 2.4063,0.3125 a 2.20022,2.20022 0 1 0 0.625,-4.3437 l -1.6875,-0.25 -6.9688,-6.9688 a 2.20022,2.20022 0 0 0 -1.5937,-0.6562 z"
         style="font-size:medium;font-style:normal;font-variant:normal;font-weight:normal;font-stretch:normal;text-indent:0;text-align:start;text-decoration:none;line-height:normal;letter-spacing:normal;word-spacing:normal;text-transform:none;direction:ltr;block-progression:tb;writing-mode:lr-tb;text-anchor:start;baseline-shift:baseline;color:#000000;fill:#ffffff;fill-opacity:1;fill-rule:nonzero;stroke:none;stroke-width:1px;marker:none;visibility:visible;display:inline;overflow:visible;enable-background:accumulate;font-family:Sans;-inkscape-font-specification:Sans" />
      <path
         inkscape:connector-curvature="0"
         id="path5277"
         d="m 1265.2812,3072.9062 a 2.20022,2.20022 0 0 0 -0.25,4.3438 l 14.375,3.8438 4.6876,9.3124 a 2.2010735,2.2010735 0 0 0 3.9374,-1.9687 l -5.125,-10.2187 a 2.20022,2.20022 0 0 0 -1.4062,-1.1563 L 1266.1562,3073 a 2.20022,2.20022 0 0 0 -0.875,-0.094 z"
         style="font-size:medium;font-style:normal;font-variant:normal;font-weight:normal;font-stretch:normal;text-indent:0;text-align:start;text-decoration:none;line-height:normal;letter-spacing:normal;word-spacing:normal;text-transform:none;direction:ltr;block-progression:tb;writing-mode:lr-tb;text-anchor:start;baseline-shift:baseline;color:#000000;fill:#ffffff;fill-opacity:1;fill-rule:nonzero;stroke:none;stroke-width:1px;marker:none;visibility:visible;display:inline;overflow:visible;enable-background:accumulate;font-family:Sans;-inkscape-font-specification:Sans" />
      <path
         inkscape:connector-curvature="0"
         id="path5279"
         d="m 1343.875,3078.6875 a 2.20022,2.20022 0 0 0 -0.7812,0.2187 l -4.4376,2.0626 a 2.20022,2.20022 0 1 0 1.8438,3.9687 l 4.4375,-2.0313 a 2.20022,2.20022 0 0 0 -1.0625,-4.2187 z"
         style="font-size:medium;font-style:normal;font-variant:normal;font-weight:normal;font-stretch:normal;text-indent:0;text-align:start;text-decoration:none;line-height:normal;letter-spacing:normal;word-spacing:normal;text-transform:none;direction:ltr;block-progression:tb;writing-mode:lr-tb;text-anchor:start;baseline-shift:baseline;color:#000000;fill:#ffffff;fill-opacity:1;fill-rule:nonzero;stroke:none;stroke-width:1px;marker:none;visibility:visible;display:inline;overflow:visible;enable-background:accumulate;font-family:Sans;-inkscape-font-specification:Sans" />
      <path
         inkscape:connector-curvature="0"
         id="path5281"
         d="m 1353.5625,3079.375 a 2.2031,2.2031 0 1 0 0,4.4062 l 16.5313,0 8.9374,7.9688 a 2.2020313,2.2020313 0 1 0 2.9376,-3.2812 l -9.5626,-8.5313 a 2.20022,2.20022 0 0 0 -1.4687,-0.5625 l -17.375,0 z"
         style="font-size:medium;font-style:normal;font-variant:normal;font-weight:normal;font-stretch:normal;text-indent:0;text-align:start;text-decoration:none;line-height:normal;letter-spacing:normal;word-spacing:normal;text-transform:none;direction:ltr;block-progression:tb;writing-mode:lr-tb;text-anchor:start;baseline-shift:baseline;color:#000000;fill:#ffffff;fill-opacity:1;fill-rule:nonzero;stroke:none;stroke-width:1px;marker:none;visibility:visible;display:inline;overflow:visible;enable-background:accumulate;font-family:Sans;-inkscape-font-specification:Sans" />
      <path
         inkscape:connector-curvature="0"
         id="path5283"
         d="m 1365,3069.8438 a 2.2036013,2.2036013 0 1 0 0.094,4.4062 l 10,0.3125 4.8124,5.125 a 2.20022,2.20022 0 1 0 3.2188,-3 l -5.4688,-5.8125 a 2.20022,2.20022 0 0 0 -1.5312,-0.6875 l -10.9062,-0.3437 a 2.20022,2.20022 0 0 0 -0.2188,0 z"
         style="font-size:medium;font-style:normal;font-variant:normal;font-weight:normal;font-stretch:normal;text-indent:0;text-align:start;text-decoration:none;line-height:normal;letter-spacing:normal;word-spacing:normal;text-transform:none;direction:ltr;block-progression:tb;writing-mode:lr-tb;text-anchor:start;baseline-shift:baseline;color:#000000;fill:#ffffff;fill-opacity:1;fill-rule:nonzero;stroke:none;stroke-width:1px;marker:none;visibility:visible;display:inline;overflow:visible;enable-background:accumulate;font-family:Sans;-inkscape-font-specification:Sans" />
      <path
         inkscape:connector-curvature="0"
         id="path5285"
         d="m 1397.4375,3095.0625 a 2.20022,2.20022 0 0 0 -0.25,4.375 l 15.5,2.5 2.125,12.0937 a 2.2066945,2.2066945 0 0 0 4.3437,-0.7812 l -2.4062,-13.625 a 2.20022,2.20022 0 0 0 -1.8125,-1.7812 l -17.0625,-2.75 a 2.20022,2.20022 0 0 0 -0.4375,-0.031 z"
         style="font-size:medium;font-style:normal;font-variant:normal;font-weight:normal;font-stretch:normal;text-indent:0;text-align:start;text-decoration:none;line-height:normal;letter-spacing:normal;word-spacing:normal;text-transform:none;direction:ltr;block-progression:tb;writing-mode:lr-tb;text-anchor:start;baseline-shift:baseline;color:#000000;fill:#ffffff;fill-opacity:1;fill-rule:nonzero;stroke:none;stroke-width:1px;marker:none;visibility:visible;display:inline;overflow:visible;enable-background:accumulate;font-family:Sans;-inkscape-font-specification:Sans" />
      <path
         inkscape:connector-curvature="0"
         id="path5287"
         d="m 1397.875,3101.1875 a 2.20022,2.20022 0 0 0 -1.0312,4.1563 l 3.5937,1.9062 5.875,22.9688 a 2.2094076,2.2094076 0 1 0 4.2813,-1.0938 l -6.1563,-23.875 a 2.20022,2.20022 0 0 0 -1.0937,-1.375 l -4.4063,-2.4062 a 2.20022,2.20022 0 0 0 -1.0625,-0.2813 z"
         style="font-size:medium;font-style:normal;font-variant:normal;font-weight:normal;font-stretch:normal;text-indent:0;text-align:start;text-decoration:none;line-height:normal;letter-spacing:normal;word-spacing:normal;text-transform:none;direction:ltr;block-progression:tb;writing-mode:lr-tb;text-anchor:start;baseline-shift:baseline;color:#000000;fill:#ffffff;fill-opacity:1;fill-rule:nonzero;stroke:none;stroke-width:1px;marker:none;visibility:visible;display:inline;overflow:visible;enable-background:accumulate;font-family:Sans;-inkscape-font-specification:Sans" />
      <path
         inkscape:connector-curvature="0"
         id="path5289"
         d="m 1412.125,3144.4688 a 2.20022,2.20022 0 0 0 -2.0312,1.625 l -2.9688,10.1874 -3.875,5.5313 a 2.20022,2.20022 0 1 0 3.5938,2.5313 l 4.0937,-5.7813 a 2.20022,2.20022 0 0 0 0.3125,-0.6563 l 3.0625,-10.5937 a 2.20022,2.20022 0 0 0 -2.1875,-2.8437 z"
         style="font-size:medium;font-style:normal;font-variant:normal;font-weight:normal;font-stretch:normal;text-indent:0;text-align:start;text-decoration:none;line-height:normal;letter-spacing:normal;word-spacing:normal;text-transform:none;direction:ltr;block-progression:tb;writing-mode:lr-tb;text-anchor:start;baseline-shift:baseline;color:#000000;fill:#ffffff;fill-opacity:1;fill-rule:nonzero;stroke:none;stroke-width:1px;marker:none;visibility:visible;display:inline;overflow:visible;enable-background:accumulate;font-family:Sans;-inkscape-font-specification:Sans" />
      <path
         inkscape:connector-curvature="0"
         id="path5291"
         d="m 1417.4062,3142.0938 a 2.20022,2.20022 0 0 0 -1.9374,2 l -1,9.5624 -3.2813,7.9063 a 2.20022,2.20022 0 1 0 4.0625,1.6875 l 3.4062,-8.1875 a 2.20022,2.20022 0 0 0 0.1563,-0.625 l 1.0313,-9.875 a 2.20022,2.20022 0 0 0 -2.4376,-2.4687 z"
         style="font-size:medium;font-style:normal;font-variant:normal;font-weight:normal;font-stretch:normal;text-indent:0;text-align:start;text-decoration:none;line-height:normal;letter-spacing:normal;word-spacing:normal;text-transform:none;direction:ltr;block-progression:tb;writing-mode:lr-tb;text-anchor:start;baseline-shift:baseline;color:#000000;fill:#ffffff;fill-opacity:1;fill-rule:nonzero;stroke:none;stroke-width:1px;marker:none;visibility:visible;display:inline;overflow:visible;enable-background:accumulate;font-family:Sans;-inkscape-font-specification:Sans" />
      <path
         inkscape:connector-curvature="0"
         id="path5293"
         d="m 1390.3125,3173.8125 a 2.20022,2.20022 0 0 0 -1,0.2813 l -7.125,3.875 -7.3437,0.6562 a 2.20022,2.20022 0 1 0 0.375,4.375 l 7.8437,-0.6875 a 2.20022,2.20022 0 0 0 0.875,-0.25 l 7.5,-4.0937 a 2.20022,2.20022 0 0 0 -1.125,-4.1563 z"
         style="font-size:medium;font-style:normal;font-variant:normal;font-weight:normal;font-stretch:normal;text-indent:0;text-align:start;text-decoration:none;line-height:normal;letter-spacing:normal;word-spacing:normal;text-transform:none;direction:ltr;block-progression:tb;writing-mode:lr-tb;text-anchor:start;baseline-shift:baseline;color:#000000;fill:#ffffff;fill-opacity:1;fill-rule:nonzero;stroke:none;stroke-width:1px;marker:none;visibility:visible;display:inline;overflow:visible;enable-background:accumulate;font-family:Sans;-inkscape-font-specification:Sans" />
      <path
         inkscape:connector-curvature="0"
         id="path5295"
         d="m 1360.875,3185.4062 a 2.20022,2.20022 0 0 0 -1.4688,0.75 l -6.7812,7.6876 -12.2812,-1.1876 -8.0626,-5.5 a 2.205845,2.205845 0 1 0 -2.4687,3.6563 l 8.5313,5.7813 a 2.20022,2.20022 0 0 0 1.0312,0.375 l 13.9688,1.375 a 2.20022,2.20022 0 0 0 1.875,-0.75 l 7.5,-8.5313 a 2.20022,2.20022 0 0 0 -1.8438,-3.6563 z"
         style="font-size:medium;font-style:normal;font-variant:normal;font-weight:normal;font-stretch:normal;text-indent:0;text-align:start;text-decoration:none;line-height:normal;letter-spacing:normal;word-spacing:normal;text-transform:none;direction:ltr;block-progression:tb;writing-mode:lr-tb;text-anchor:start;baseline-shift:baseline;color:#000000;fill:#ffffff;fill-opacity:1;fill-rule:nonzero;stroke:none;stroke-width:1px;marker:none;visibility:visible;display:inline;overflow:visible;enable-background:accumulate;font-family:Sans;-inkscape-font-specification:Sans" />
      <path
         inkscape:connector-curvature="0"
         id="path5297"
         d="m 1299.0938,3181.6562 a 2.20022,2.20022 0 0 0 -1.125,3.9376 l 11.9374,9.5312 a 2.20022,2.20022 0 0 0 1.5,0.5 l 5.4688,-0.3438 a 2.20022,2.20022 0 0 0 1.5312,-0.75 l 2.375,-2.7187 a 2.2033255,2.2033255 0 1 0 -3.3124,-2.9063 l -1.7813,2.0313 -3.6875,0.2187 -11.2812,-9 a 2.20022,2.20022 0 0 0 -1.625,-0.5 z"
         style="font-size:medium;font-style:normal;font-variant:normal;font-weight:normal;font-stretch:normal;text-indent:0;text-align:start;text-decoration:none;line-height:normal;letter-spacing:normal;word-spacing:normal;text-transform:none;direction:ltr;block-progression:tb;writing-mode:lr-tb;text-anchor:start;baseline-shift:baseline;color:#000000;fill:#ffffff;fill-opacity:1;fill-rule:nonzero;stroke:none;stroke-width:1px;marker:none;visibility:visible;display:inline;overflow:visible;enable-background:accumulate;font-family:Sans;-inkscape-font-specification:Sans" />
      <path
         inkscape:connector-curvature="0"
         id="path5299"
         d="m 1243.5,3178.25 a 2.20022,2.20022 0 0 0 -0.75,4.1562 l 16.375,8.5313 a 2.20022,2.20022 0 0 0 0.2812,0.125 l 8.875,3.0625 a 2.20022,2.20022 0 0 0 1.5,0 l 8.5938,-3.3438 0.094,-0.031 7.0624,-1.6562 a 2.20022,2.20022 0 1 0 -1,-4.2813 l -7.1874,1.6875 a 2.20022,2.20022 0 0 0 -0.25,0.094 l -8.125,3.125 -7.8126,-2.6876 -0.094,-0.062 -16.2813,-8.4688 a 2.20022,2.20022 0 0 0 -1.2812,-0.25 z"
         style="font-size:medium;font-style:normal;font-variant:normal;font-weight:normal;font-stretch:normal;text-indent:0;text-align:start;text-decoration:none;line-height:normal;letter-spacing:normal;word-spacing:normal;text-transform:none;direction:ltr;block-progression:tb;writing-mode:lr-tb;text-anchor:start;baseline-shift:baseline;color:#000000;fill:#ffffff;fill-opacity:1;fill-rule:nonzero;stroke:none;stroke-width:1px;marker:none;visibility:visible;display:inline;overflow:visible;enable-background:accumulate;font-family:Sans;-inkscape-font-specification:Sans" />
      <path
         inkscape:connector-curvature="0"
         id="path5301"
         d="m 1229.0625,3164.9375 a 2.20022,2.20022 0 0 0 -1.3125,3.9375 l 3.4062,2.75 a 2.201074,2.201074 0 1 0 2.75,-3.4375 l -3.4062,-2.75 a 2.20022,2.20022 0 0 0 -1.4375,-0.5 z"
         style="font-size:medium;font-style:normal;font-variant:normal;font-weight:normal;font-stretch:normal;text-indent:0;text-align:start;text-decoration:none;line-height:normal;letter-spacing:normal;word-spacing:normal;text-transform:none;direction:ltr;block-progression:tb;writing-mode:lr-tb;text-anchor:start;baseline-shift:baseline;color:#000000;fill:#ffffff;fill-opacity:1;fill-rule:nonzero;stroke:none;stroke-width:1px;marker:none;visibility:visible;display:inline;overflow:visible;enable-background:accumulate;font-family:Sans;-inkscape-font-specification:Sans" />
    </g>
    <path
       style="fill:#ffffff;stroke:none;stroke-width:1px;stroke-linecap:butt;stroke-linejoin:miter;stroke-opacity:1;color:#000000;fill-opacity:1;fill-rule:nonzero;marker:none;visibility:visible;display:inline;overflow:visible;enable-background:accumulate"
       d="m 1225.3623,3138.528 c -1.3638,0.341 -96.4879,38.186 -125.1274,42.2774 64.7798,-1.0228 139.4472,-29.3214 139.4472,-29.3214 z"
       id="path5303"
       inkscape:connector-curvature="0" />
    <path
       style="fill:#ffffff;stroke:none;stroke-width:1px;stroke-linecap:butt;stroke-linejoin:miter;stroke-opacity:1;color:#000000;fill-opacity:1;fill-rule:nonzero;marker:none;visibility:visible;display:inline;overflow:visible;enable-background:accumulate"
       d="m 1170.7767,2814.8844 3.1367,-5.8813 -2.3525,0 c 0,0 4.7051,-14.5073 12.5468,-10.9785 7.8418,3.5288 -3.1367,14.8994 -13.331,16.8598 z"
       id="path5400"
       inkscape:connector-curvature="0" />
    <path
       style="fill:#ffffff;stroke:none;stroke-width:1px;stroke-linecap:butt;stroke-linejoin:miter;stroke-opacity:1;color:#000000;fill-opacity:1;fill-rule:nonzero;marker:none;visibility:visible;display:inline;overflow:visible;enable-background:accumulate"
       d="m 1170.7767,2862.3271 c 0,0 12.5469,-0.7841 11.3706,1.9605 -1.1763,2.7446 -5.4892,1.5683 -5.4892,1.5683 0,0 6.2734,7.0576 3.5288,7.0576 -2.7447,0 -7.8418,-2.7446 -9.4102,-10.5864 z"
       id="path5408"
       inkscape:connector-curvature="0" />
  </g>
  <g
     inkscape:groupmode="layer"
     id="layer1"
     inkscape:label="txt">
    <flowRoot
       xml:space="preserve"
       id="flowRoot2987"
       style="font-style:normal;font-variant:normal;font-weight:normal;font-stretch:normal;line-height:0.01%;font-family:Lavi;-inkscape-font-specification:Lavi;letter-spacing:0px;word-spacing:0px;fill:#000000;fill-opacity:1;stroke:none"
       transform="translate(-227.71221,-186.62259)"><flowRegion
         id="flowRegion2989"><rect
           id="rect2991"
           width="417.15793"
           height="141.89404"
           x="120.55251"
           y="265.53046"
           style="font-style:normal;font-variant:normal;font-weight:normal;font-stretch:normal;font-family:Lavi;-inkscape-font-specification:Lavi" /></flowRegion><flowPara
         id="flowPara2995"
         style="font-style:normal;font-variant:normal;font-weight:normal;font-stretch:normal;font-size:90px;line-height:1.25;font-family:Midan;-inkscape-font-specification:Midan;direction:rtl">هویج؟</flowPara></flowRoot>    <flowRoot
       xml:space="preserve"
       id="flowRoot2987-8"
       style="font-style:normal;font-variant:normal;font-weight:normal;font-stretch:normal;line-height:0.01%;font-family:Lavi;-inkscape-font-specification:Lavi;letter-spacing:0px;word-spacing:0px;fill:#000000;fill-opacity:1;stroke:none"
       transform="translate(442.92828,574.53262)"><flowRegion
         id="flowRegion2989-3"><rect
           id="rect2991-4"
           width="459.11337"
           height="183.84949"
           x="120.55251"
           y="265.53046"
           style="font-style:normal;font-variant:normal;font-weight:normal;font-stretch:normal;font-family:Lavi;-inkscape-font-specification:Lavi" /></flowRegion><flowPara
         style="font-style:normal;font-variant:normal;font-weight:normal;font-stretch:normal;font-size:74.66666667px;line-height:100%;font-family:Midan;-inkscape-font-specification:Midan;text-align:center;direction:rtl;text-anchor:middle"
         id="flowPara4467">جالبه. حتی </flowPara><flowPara
         style="font-style:normal;font-variant:normal;font-weight:normal;font-stretch:normal;font-size:74.66666667px;line-height:100%;font-family:Midan;-inkscape-font-specification:Midan;text-align:center;direction:rtl;text-anchor:middle"
         id="flowPara1062">زیر تختم نیست؟</flowPara></flowRoot>    <flowRoot
       xml:space="preserve"
       id="flowRoot2987-1-6-5"
       style="font-style:normal;font-variant:normal;font-weight:normal;font-stretch:normal;line-height:0.01%;font-family:Lavi;-inkscape-font-specification:Lavi;letter-spacing:0px;word-spacing:0px;fill:#000000;fill-opacity:1;stroke:none"
       transform="translate(1797.8534,475.19717)"><flowRegion
         id="flowRegion2989-1-0-4"><rect
           id="rect2991-1-2-3"
           width="564.67615"
           height="370.30939"
           x="120.55251"
           y="265.53046"
           style="font-style:normal;font-variant:normal;font-weight:normal;font-stretch:normal;font-family:Lavi;-inkscape-font-specification:Lavi" /></flowRegion><flowPara
         style="font-style:normal;font-variant:normal;font-weight:normal;font-stretch:normal;font-size:60px;line-height:100%;font-family:Midan;-inkscape-font-specification:Midan;text-align:center;direction:rtl;text-anchor:middle"
         id="flowPara3939">واقعا فکرشو </flowPara><flowPara
         style="font-style:normal;font-variant:normal;font-weight:normal;font-stretch:normal;font-size:60px;line-height:100%;font-family:Midan;-inkscape-font-specification:Midan;text-align:center;direction:rtl;text-anchor:middle"
         id="flowPara4478">نمیکردم که بخوام از</flowPara><flowPara
         style="font-style:normal;font-variant:normal;font-weight:normal;font-stretch:normal;font-size:60px;line-height:100%;font-family:Midan;-inkscape-font-specification:Midan;text-align:center;direction:rtl;text-anchor:middle"
         id="flowPara4480"> این حقه استفادہ کنم.</flowPara></flowRoot>    <flowRoot
       xml:space="preserve"
       id="flowRoot2987-7-9-9-7-4-5-35-8"
       style="font-style:normal;font-variant:normal;font-weight:normal;font-stretch:normal;line-height:0.01%;font-family:Lavi;-inkscape-font-specification:Lavi;letter-spacing:0px;word-spacing:0px;fill:#000000;fill-opacity:1;stroke:none;stroke-width:1.71342587;stroke-miterlimit:4;stroke-dasharray:none;stroke-opacity:1;filter:url(#filter4375-5-4-2-8);"
       transform="matrix(0.51519764,-0.13096801,0.02602001,0.52891141,-0.4074104,2539.5559)"><flowRegion
         id="flowRegion2989-4-5-8-7-8-5-0-7"
         style="stroke-width:9.32865334;stroke:none;"><rect
           id="rect2991-45-1-3-3-4-3-60-4"
           width="572.43164"
           height="165.43835"
           x="120.55251"
           y="265.53046"
           style="font-style:normal;font-variant:normal;font-weight:normal;font-stretch:normal;font-family:Lavi;-inkscape-font-specification:Lavi;fill:#000000;fill-opacity:1;stroke:none;stroke-width:1.71342587;stroke-miterlimit:4;stroke-dasharray:none;stroke-opacity:1;" /></flowRegion><flowPara
         style="font-style:normal;font-variant:normal;font-weight:bold;font-stretch:normal;font-size:66.63323212px;line-height:100%;font-family:'XP Vosta';-inkscape-font-specification:'XP Vosta Bold';text-align:center;text-anchor:middle;fill:#000000;fill-opacity:1;stroke:none;stroke-width:1.71342587;stroke-linejoin:miter;stroke-miterlimit:4;stroke-dasharray:none;stroke-opacity:1"
         id="flowPara4750">ششش  ششش</flowPara><flowPara
         style="font-style:normal;font-variant:normal;font-weight:bold;font-stretch:normal;font-size:66.63323212px;line-height:100%;font-family:'XP Vosta';-inkscape-font-specification:'XP Vosta Bold';text-align:center;text-anchor:middle;fill:#000000;fill-opacity:1;stroke:none;stroke-width:1.71342587;stroke-linejoin:miter;stroke-miterlimit:4;stroke-dasharray:none;stroke-opacity:1"
         id="flowPara4488">ششش</flowPara></flowRoot>    <flowRoot
       xml:space="preserve"
       id="flowRoot2987-7-9-9-6"
       style="font-style:normal;font-variant:normal;font-weight:normal;font-stretch:normal;line-height:0.01%;font-family:Lavi;-inkscape-font-specification:Lavi;letter-spacing:0px;word-spacing:0px;fill:#000000;fill-opacity:1;stroke:none"
       transform="matrix(1.0490588,0,0,0.97373943,806.83629,2824.6803)"><flowRegion
         id="flowRegion2989-4-5-8-75"><rect
           id="rect2991-45-1-3-34"
           width="417.15793"
           height="141.89404"
           x="120.55251"
           y="265.53046"
           style="font-style:normal;font-variant:normal;font-weight:normal;font-stretch:normal;font-family:Lavi;-inkscape-font-specification:Lavi" /></flowRegion><flowPara
         id="flowPara2995-4-1-5-4"
         style="font-style:normal;font-variant:normal;font-weight:normal;font-stretch:normal;font-size:79.15323639px;line-height:1.25;font-family:Midan;-inkscape-font-specification:Midan;direction:rtl">قررر...</flowPara></flowRoot>    <flowRoot
       xml:space="preserve"
       id="flowRoot2987-7-9-9-6-2"
       style="font-style:normal;font-variant:normal;font-weight:normal;font-stretch:normal;line-height:0.01%;font-family:Lavi;-inkscape-font-specification:Lavi;letter-spacing:0px;word-spacing:0px;fill:#000000;fill-opacity:1;stroke:none"
       transform="matrix(0.69322557,-0.22010773,0,0.54518538,1612.2135,3065.2336)"><flowRegion
         id="flowRegion2989-4-5-8-75-8"><rect
           id="rect2991-45-1-3-34-5"
           width="417.15793"
           height="141.89404"
           x="120.55251"
           y="265.53046"
           style="font-style:normal;font-variant:normal;font-weight:normal;font-stretch:normal;font-family:Lavi;-inkscape-font-specification:Lavi" /></flowRegion><flowPara
         id="flowPara2995-4-1-5-4-4"
         style="font-style:normal;font-variant:normal;font-weight:bold;font-stretch:normal;font-size:86.75396729px;line-height:1.25;font-family:'XP Vosta';-inkscape-font-specification:'XP Vosta Bold';direction:rtl">پووووف!</flowPara></flowRoot>    <flowRoot
       xml:space="preserve"
       id="flowRoot2987-7-9-9-9"
       style="font-style:normal;font-variant:normal;font-weight:normal;font-stretch:normal;line-height:0.01%;font-family:Lavi;-inkscape-font-specification:Lavi;letter-spacing:0px;word-spacing:0px;fill:#000000;fill-opacity:1;stroke:none"
       transform="matrix(0.99017359,-0.4318322,0.17414417,0.9011435,104.16962,2576.0277)"><flowRegion
         id="flowRegion2989-4-5-8-6"><rect
           id="rect2991-45-1-3-2"
           width="456.10794"
           height="254.78914"
           x="120.55251"
           y="265.53046"
           style="font-style:normal;font-variant:normal;font-weight:normal;font-stretch:normal;font-family:Lavi;-inkscape-font-specification:Lavi" /></flowRegion><flowPara
         id="flowPara2995-4-1-5-7"
         style="font-style:normal;font-variant:normal;font-weight:normal;font-stretch:normal;font-size:54.22200775px;line-height:1.25;font-family:'XP Vosta';-inkscape-font-specification:'XP Vosta';text-align:center;direction:rtl;text-anchor:middle;fill:#ffffff">خوشگل میووو</flowPara><flowPara
         style="font-style:normal;font-variant:normal;font-weight:normal;font-stretch:normal;font-size:54.22200775px;line-height:1.25;font-family:'XP Vosta';-inkscape-font-specification:'XP Vosta';text-align:center;direction:rtl;text-anchor:middle;fill:#ffffff"
         id="flowPara4923">میووو!</flowPara></flowRoot>    <flowRoot
       xml:space="preserve"
       id="flowRoot2987-6"
       style="font-style:normal;font-variant:normal;font-weight:normal;font-stretch:normal;line-height:0.01%;font-family:Lavi;-inkscape-font-specification:Lavi;letter-spacing:0px;word-spacing:0px;fill:#000000;fill-opacity:1;stroke:none"
       transform="translate(742.79451,-180.71349)"><flowRegion
         id="flowRegion2989-1"><rect
           id="rect2991-5"
           width="417.15793"
           height="141.89404"
           x="120.55251"
           y="265.53046"
           style="font-style:normal;font-variant:normal;font-weight:normal;font-stretch:normal;font-family:Lavi;-inkscape-font-specification:Lavi" /></flowRegion><flowPara
         id="flowPara2995-7"
         style="font-style:normal;font-variant:normal;font-weight:normal;font-stretch:normal;font-size:90px;line-height:1.25;font-family:Midan;-inkscape-font-specification:Midan;direction:rtl">هویج؟</flowPara></flowRoot>    <flowRoot
       xml:space="preserve"
       id="flowRoot2987-80"
       style="font-style:normal;font-variant:normal;font-weight:normal;font-stretch:normal;line-height:0.01%;font-family:Lavi;-inkscape-font-specification:Lavi;letter-spacing:0px;word-spacing:0px;fill:#000000;fill-opacity:1;stroke:none"
       transform="translate(1045.2094,64.752538)"><flowRegion
         id="flowRegion2989-0"><rect
           id="rect2991-9"
           width="417.15793"
           height="141.89404"
           x="120.55251"
           y="265.53046"
           style="font-style:normal;font-variant:normal;font-weight:normal;font-stretch:normal;font-family:Lavi;-inkscape-font-specification:Lavi" /></flowRegion><flowPara
         id="flowPara2995-2"
         style="font-style:normal;font-variant:normal;font-weight:normal;font-stretch:normal;font-size:90px;line-height:1.25;font-family:Midan;-inkscape-font-specification:Midan;direction:rtl">هویج؟</flowPara></flowRoot>    <flowRoot
       xml:space="preserve"
       id="flowRoot2987-1"
       style="font-style:normal;font-variant:normal;font-weight:normal;font-stretch:normal;line-height:0.01%;font-family:Lavi;-inkscape-font-specification:Lavi;letter-spacing:0px;word-spacing:0px;fill:#000000;fill-opacity:1;stroke:none"
       transform="translate(747.64677,202.61624)"><flowRegion
         id="flowRegion2989-18"><rect
           id="rect2991-2"
           width="417.15793"
           height="141.89404"
           x="120.55251"
           y="265.53046"
           style="font-style:normal;font-variant:normal;font-weight:normal;font-stretch:normal;font-family:Lavi;-inkscape-font-specification:Lavi" /></flowRegion><flowPara
         id="flowPara2995-4"
         style="font-style:normal;font-variant:normal;font-weight:normal;font-stretch:normal;font-size:90px;line-height:1.25;font-family:Midan;-inkscape-font-specification:Midan;direction:rtl">هویج؟!</flowPara></flowRoot>    <flowRoot
       xml:space="preserve"
       id="flowRoot2987-1-2"
       style="font-style:normal;font-variant:normal;font-weight:normal;font-stretch:normal;line-height:0.01%;font-family:Lavi;-inkscape-font-specification:Lavi;letter-spacing:0px;word-spacing:0px;fill:#000000;fill-opacity:1;stroke:none"
       transform="translate(931.5684,550.27548)"><flowRegion
         id="flowRegion2989-18-0"><rect
           id="rect2991-2-4"
           width="417.15793"
           height="141.89404"
           x="120.55251"
           y="265.53046"
           style="font-style:normal;font-variant:normal;font-weight:normal;font-stretch:normal;font-family:Lavi;-inkscape-font-specification:Lavi" /></flowRegion><flowPara
         id="flowPara2995-4-2"
         style="font-style:normal;font-variant:normal;font-weight:normal;font-stretch:normal;font-size:90px;line-height:1.25;font-family:Midan;-inkscape-font-specification:Midan;direction:rtl">هویج؟!!</flowPara></flowRoot>    <flowRoot
       xml:space="preserve"
       id="flowRoot2987-6-4"
       style="font-style:normal;font-variant:normal;font-weight:normal;font-stretch:normal;line-height:0.01%;font-family:Lavi;-inkscape-font-specification:Lavi;letter-spacing:0px;word-spacing:0px;fill:#000000;fill-opacity:1;stroke:none"
       transform="translate(307.66363,980.12799)"><flowRegion
         id="flowRegion2989-1-5"><rect
           id="rect2991-5-3"
           width="572.43073"
           height="319.00208"
           x="120.55251"
           y="265.53046"
           style="font-style:normal;font-variant:normal;font-weight:normal;font-stretch:normal;font-size:180px;font-family:Lavi;-inkscape-font-specification:Lavi" /></flowRegion><flowPara
         id="flowPara2995-7-2"
         style="font-style:normal;font-variant:normal;font-weight:normal;font-stretch:normal;font-size:180px;line-height:1.25;font-family:Midan;-inkscape-font-specification:Midan;direction:rtl">هویج!</flowPara></flowRoot>    <flowRoot
       xml:space="preserve"
       id="flowRoot2987-7-9-9-7-4-5-35-8-0"
       style="font-style:normal;font-variant:normal;font-weight:normal;font-stretch:normal;line-height:0.01%;font-family:Lavi;-inkscape-font-specification:Lavi;letter-spacing:0px;word-spacing:0px;fill:#000000;fill-opacity:1;stroke:none;stroke-width:1.71342587;stroke-miterlimit:4;stroke-dasharray:none;stroke-opacity:1;filter:url(#filter4375-5-4-2-8-7);"
       transform="matrix(0.51519764,-0.13096801,0.02602001,0.52891141,1.2915005,2624.5802)"><flowRegion
         id="flowRegion2989-4-5-8-7-8-5-0-7-9"
         style="stroke-width:9.32865334;stroke:none;"><rect
           id="rect2991-45-1-3-3-4-3-60-4-8"
           width="572.43164"
           height="165.43835"
           x="120.55251"
           y="265.53046"
           style="font-style:normal;font-variant:normal;font-weight:normal;font-stretch:normal;font-family:Lavi;-inkscape-font-specification:Lavi;fill:#000000;fill-opacity:1;stroke:none;stroke-width:1.71342587;stroke-miterlimit:4;stroke-dasharray:none;stroke-opacity:1;" /></flowRegion><flowPara
         style="font-style:normal;font-variant:normal;font-weight:bold;font-stretch:normal;font-size:66.63323212px;line-height:100%;font-family:'XP Vosta';-inkscape-font-specification:'XP Vosta Bold';text-align:center;text-anchor:middle;fill:#000000;fill-opacity:1;stroke:none;stroke-width:1.71342587;stroke-linejoin:miter;stroke-miterlimit:4;stroke-dasharray:none;stroke-opacity:1"
         id="flowPara4750-71">ششش  ششش</flowPara><flowPara
         style="font-style:normal;font-variant:normal;font-weight:bold;font-stretch:normal;font-size:66.63323212px;line-height:100%;font-family:'XP Vosta';-inkscape-font-specification:'XP Vosta Bold';text-align:center;text-anchor:middle;fill:#000000;fill-opacity:1;stroke:none;stroke-width:1.71342587;stroke-linejoin:miter;stroke-miterlimit:4;stroke-dasharray:none;stroke-opacity:1"
         id="flowPara4488-6">ششش</flowPara></flowRoot>    <flowRoot
       xml:space="preserve"
       id="flowRoot2987-7-9-9-7-4-5-35-8-05"
       style="font-style:normal;font-variant:normal;font-weight:normal;font-stretch:normal;line-height:0.01%;font-family:Lavi;-inkscape-font-specification:Lavi;letter-spacing:0px;word-spacing:0px;fill:#000000;fill-opacity:1;stroke:#000000;stroke-width:1.71342587;stroke-miterlimit:4;stroke-dasharray:none;stroke-opacity:1;filter:url(#filter4375-5-4-2-8-8)"
       transform="matrix(0.72169041,-0.17271907,0.03644891,0.69752213,731.71043,2569.2623)"><flowRegion
         id="flowRegion2989-4-5-8-7-8-5-0-7-5"
         style="stroke-width:9.32865334"><rect
           id="rect2991-45-1-3-3-4-3-60-4-4"
           width="572.43164"
           height="165.43835"
           x="120.55251"
           y="265.53046"
           style="font-style:normal;font-variant:normal;font-weight:normal;font-stretch:normal;font-family:Lavi;-inkscape-font-specification:Lavi;fill:#000000;fill-opacity:1;stroke:#000000;stroke-width:1.71342587;stroke-miterlimit:4;stroke-dasharray:none;stroke-opacity:1" /></flowRegion><flowPara
         style="font-style:normal;font-variant:normal;font-weight:bold;font-stretch:normal;font-size:66.63323212px;line-height:100%;font-family:'XP Vosta';-inkscape-font-specification:'XP Vosta Bold';text-align:center;text-anchor:middle;fill:#000000;fill-opacity:1;stroke:none;stroke-width:1.71342587;stroke-linejoin:miter;stroke-miterlimit:4;stroke-dasharray:none;stroke-opacity:1"
         id="flowPara4750-1">ششش  ششش</flowPara><flowPara
         style="font-style:normal;font-variant:normal;font-weight:bold;font-stretch:normal;font-size:66.63323212px;line-height:100%;font-family:'XP Vosta';-inkscape-font-specification:'XP Vosta Bold';text-align:center;text-anchor:middle;fill:#000000;fill-opacity:1;stroke:none;stroke-width:1.71342587;stroke-linejoin:miter;stroke-miterlimit:4;stroke-dasharray:none;stroke-opacity:1"
         id="flowPara4488-60">ششش</flowPara></flowRoot>    <flowRoot
       xml:space="preserve"
       id="flowRoot2987-7-9-9-7-4-5-35-8-4"
       style="font-style:normal;font-variant:normal;font-weight:normal;font-stretch:normal;line-height:0.01%;font-family:Lavi;-inkscape-font-specification:Lavi;letter-spacing:0px;word-spacing:0px;fill:#000000;fill-opacity:1;stroke:#000000;stroke-width:1.71342587;stroke-miterlimit:4;stroke-dasharray:none;stroke-opacity:1;filter:url(#filter4375-5-4-2-8-1)"
       transform="matrix(0.51519764,-0.13096801,0.02602001,0.52891141,1016.6301,2636.7109)"><flowRegion
         id="flowRegion2989-4-5-8-7-8-5-0-7-6"
         style="stroke-width:9.32865334"><rect
           id="rect2991-45-1-3-3-4-3-60-4-2"
           width="572.43164"
           height="165.43835"
           x="120.55251"
           y="265.53046"
           style="font-style:normal;font-variant:normal;font-weight:normal;font-stretch:normal;font-family:Lavi;-inkscape-font-specification:Lavi;fill:#000000;fill-opacity:1;stroke:#000000;stroke-width:1.71342587;stroke-miterlimit:4;stroke-dasharray:none;stroke-opacity:1" /></flowRegion><flowPara
         style="font-style:normal;font-variant:normal;font-weight:bold;font-stretch:normal;font-size:66.63323212px;line-height:100%;font-family:'XP Vosta';-inkscape-font-specification:'XP Vosta Bold';text-align:center;text-anchor:middle;fill:#000000;fill-opacity:1;stroke:none;stroke-width:1.71342587;stroke-linejoin:miter;stroke-miterlimit:4;stroke-dasharray:none;stroke-opacity:1"
         id="flowPara4750-6">ششش  ششش</flowPara><flowPara
         style="font-style:normal;font-variant:normal;font-weight:bold;font-stretch:normal;font-size:66.63323212px;line-height:100%;font-family:'XP Vosta';-inkscape-font-specification:'XP Vosta Bold';text-align:center;text-anchor:middle;fill:#000000;fill-opacity:1;stroke:none;stroke-width:1.71342587;stroke-linejoin:miter;stroke-miterlimit:4;stroke-dasharray:none;stroke-opacity:1"
         id="flowPara4488-0">ششش</flowPara></flowRoot>    <flowRoot
       xml:space="preserve"
       id="flowRoot2987-7-9-9-7-4-5-35-8-05-8"
       style="font-style:normal;font-variant:normal;font-weight:normal;font-stretch:normal;line-height:0.01%;font-family:Lavi;-inkscape-font-specification:Lavi;letter-spacing:0px;word-spacing:0px;fill:#000000;fill-opacity:1;stroke:#000000;stroke-width:1.71342587;stroke-miterlimit:4;stroke-dasharray:none;stroke-opacity:1;filter:url(#filter4375-5-4-2-8-8-1)"
       transform="matrix(0.72169041,-0.17271907,0.03644891,0.69752213,1642.3977,1489.9137)"><flowRegion
         id="flowRegion2989-4-5-8-7-8-5-0-7-5-2"
         style="stroke-width:9.32865334"><rect
           id="rect2991-45-1-3-3-4-3-60-4-4-6"
           width="572.43164"
           height="165.43835"
           x="120.55251"
           y="265.53046"
           style="font-style:normal;font-variant:normal;font-weight:normal;font-stretch:normal;font-family:Lavi;-inkscape-font-specification:Lavi;fill:#000000;fill-opacity:1;stroke:#000000;stroke-width:1.71342587;stroke-miterlimit:4;stroke-dasharray:none;stroke-opacity:1" /></flowRegion><flowPara
         style="font-style:normal;font-variant:normal;font-weight:bold;font-stretch:normal;font-size:66.63323212px;line-height:100%;font-family:'XP Vosta';-inkscape-font-specification:'XP Vosta Bold';text-align:center;text-anchor:middle;fill:#000000;fill-opacity:1;stroke:none;stroke-width:1.71342587;stroke-linejoin:miter;stroke-miterlimit:4;stroke-dasharray:none;stroke-opacity:1"
         id="flowPara4750-1-7">ششش  ششش</flowPara><flowPara
         style="font-style:normal;font-variant:normal;font-weight:bold;font-stretch:normal;font-size:66.63323212px;line-height:100%;font-family:'XP Vosta';-inkscape-font-specification:'XP Vosta Bold';text-align:center;text-anchor:middle;fill:#000000;fill-opacity:1;stroke:none;stroke-width:1.71342587;stroke-linejoin:miter;stroke-miterlimit:4;stroke-dasharray:none;stroke-opacity:1"
         id="flowPara4488-60-9">ششش</flowPara></flowRoot>    <flowRoot
       xml:space="preserve"
       id="flowRoot2987-7-9-9-7-4-5-35-8-05-8-6"
       style="font-style:normal;font-variant:normal;font-weight:normal;font-stretch:normal;line-height:0.01%;font-family:Lavi;-inkscape-font-specification:Lavi;letter-spacing:0px;word-spacing:0px;fill:#000000;fill-opacity:1;stroke:#000000;stroke-width:1.71342587;stroke-miterlimit:4;stroke-dasharray:none;stroke-opacity:1;filter:url(#filter4375-5-4-2-8-8-1-8)"
       transform="matrix(0.72169041,-0.17271907,0.03644891,0.69752213,718.80951,1630.2272)"><flowRegion
         id="flowRegion2989-4-5-8-7-8-5-0-7-5-2-9"
         style="stroke-width:9.32865334"><rect
           id="rect2991-45-1-3-3-4-3-60-4-4-6-4"
           width="572.43164"
           height="165.43835"
           x="120.55251"
           y="265.53046"
           style="font-style:normal;font-variant:normal;font-weight:normal;font-stretch:normal;font-family:Lavi;-inkscape-font-specification:Lavi;fill:#000000;fill-opacity:1;stroke:#000000;stroke-width:1.71342587;stroke-miterlimit:4;stroke-dasharray:none;stroke-opacity:1" /></flowRegion><flowPara
         style="font-style:normal;font-variant:normal;font-weight:bold;font-stretch:normal;font-size:66.63323212px;line-height:100%;font-family:'XP Vosta';-inkscape-font-specification:'XP Vosta Bold';text-align:center;text-anchor:middle;fill:#000000;fill-opacity:1;stroke:none;stroke-width:1.71342587;stroke-linejoin:miter;stroke-miterlimit:4;stroke-dasharray:none;stroke-opacity:1"
         id="flowPara4488-60-9-7">خرخرخر</flowPara></flowRoot>    <flowRoot
       xml:space="preserve"
       id="flowRoot2987-7-9-9-7-4-5-35-8-05-8-6-1"
       style="font-style:normal;font-variant:normal;font-weight:normal;font-stretch:normal;line-height:0.01%;font-family:Lavi;-inkscape-font-specification:Lavi;letter-spacing:0px;word-spacing:0px;fill:#000000;fill-opacity:1;stroke:#000000;stroke-width:1.71342587;stroke-miterlimit:4;stroke-dasharray:none;stroke-opacity:1;filter:url(#filter4375-5-4-2-8-8-1-8-9)"
       transform="matrix(0.72169041,-0.17271907,0.03644891,0.69752213,775.95869,1656.9117)"><flowRegion
         id="flowRegion2989-4-5-8-7-8-5-0-7-5-2-9-1"
         style="stroke-width:9.32865334"><rect
           id="rect2991-45-1-3-3-4-3-60-4-4-6-4-6"
           width="572.43164"
           height="165.43835"
           x="120.55251"
           y="265.53046"
           style="font-style:normal;font-variant:normal;font-weight:normal;font-stretch:normal;font-family:Lavi;-inkscape-font-specification:Lavi;fill:#000000;fill-opacity:1;stroke:#000000;stroke-width:1.71342587;stroke-miterlimit:4;stroke-dasharray:none;stroke-opacity:1" /></flowRegion><flowPara
         style="font-style:normal;font-variant:normal;font-weight:bold;font-stretch:normal;font-size:66.63323212px;line-height:100%;font-family:'XP Vosta';-inkscape-font-specification:'XP Vosta Bold';text-align:center;text-anchor:middle;fill:#000000;fill-opacity:1;stroke:none;stroke-width:1.71342587;stroke-linejoin:miter;stroke-miterlimit:4;stroke-dasharray:none;stroke-opacity:1"
         id="flowPara4488-60-9-7-4">خرخرخر</flowPara></flowRoot>    <flowRoot
       xml:space="preserve"
       id="flowRoot2987-7-9-9-7-4-5-35-8-05-8-6-8"
       style="font-style:normal;font-variant:normal;font-weight:normal;font-stretch:normal;line-height:0.01%;font-family:Lavi;-inkscape-font-specification:Lavi;letter-spacing:0px;word-spacing:0px;fill:#000000;fill-opacity:1;stroke:#000000;stroke-width:1.71342587;stroke-miterlimit:4;stroke-dasharray:none;stroke-opacity:1;filter:url(#filter4375-5-4-2-8-8-1-8-1)"
       transform="matrix(0.72169041,-0.17271907,0.03644891,0.69752213,627.9643,1690.8776)"><flowRegion
         id="flowRegion2989-4-5-8-7-8-5-0-7-5-2-9-4"
         style="stroke-width:9.32865334"><rect
           id="rect2991-45-1-3-3-4-3-60-4-4-6-4-8"
           width="572.43164"
           height="165.43835"
           x="120.55251"
           y="265.53046"
           style="font-style:normal;font-variant:normal;font-weight:normal;font-stretch:normal;font-family:Lavi;-inkscape-font-specification:Lavi;fill:#000000;fill-opacity:1;stroke:#000000;stroke-width:1.71342587;stroke-miterlimit:4;stroke-dasharray:none;stroke-opacity:1" /></flowRegion><flowPara
         style="font-style:normal;font-variant:normal;font-weight:bold;font-stretch:normal;font-size:66.63323212px;line-height:100%;font-family:'XP Vosta';-inkscape-font-specification:'XP Vosta Bold';text-align:center;text-anchor:middle;fill:#000000;fill-opacity:1;stroke:none;stroke-width:1.71342587;stroke-linejoin:miter;stroke-miterlimit:4;stroke-dasharray:none;stroke-opacity:1"
         id="flowPara4488-60-9-7-43">خرخرخر</flowPara></flowRoot>  </g>
</svg>
