<?xml version="1.0" encoding="UTF-8" standalone="no"?>
<!-- Created With Inkscape (http://www.inkscape.org/) -->

<svg
   xmlns:dc="http://purl.org/dc/elements/1.1/"
   xmlns:cc="http://creativecommons.org/ns#"
   xmlns:rdf="http://www.w3.org/1999/02/22-rdf-syntax-ns#"
   xmlns:svg="http://www.w3.org/2000/svg"
   xmlns="http://www.w3.org/2000/svg"
   xmlns:xlink="http://www.w3.org/1999/xlink"
   xmlns:sodipodi="http://sodipodi.sourceforge.net/DTD/sodipodi-0.dtd"
   xmlns:inkscape="http://www.inkscape.org/namespaces/inkscape"
   id="svg2"
   version="1.1"
   inkscape:version="0.92.1 r15371"
   width="2646.3999"
   height="3736.5334"
   sodipodi:docname="E14P03.svg"
   viewBox="0 0 2481 3503">
  <metadata
     id="metadata8">
    <rdf:RDF>
      <cc:Work
         rdf:about="">
        <dc:format>image/svg+xml</dc:format>
        <dc:type
           rdf:resource="http://purl.org/dc/dcmitype/StillImage" />
        <dc:title />
      </cc:Work>
    </rdf:RDF>
  </metadata>
  <defs
     id="defs6" />
  <sodipodi:namedview
     pagecolor="#ffffff"
     bordercolor="#666666"
     borderopacity="1"
     objecttolerance="10"
     gridtolerance="10"
     guidetolerance="10"
     inkscape:pageopacity="0"
     inkscape:pageshadow="2"
     inkscape:window-width="965"
     inkscape:window-height="723"
     id="namedview4"
     showgrid="false"
     inkscape:zoom="0.20113573"
     inkscape:cx="1040.0707"
     inkscape:cy="870.15438"
     inkscape:window-x="282"
     inkscape:window-y="256"
     inkscape:window-maximized="0"
     inkscape:current-layer="layer1" />
  <g
     inkscape:groupmode="layer"
     id="layer2"
     inkscape:label="artwork"
     sodipodi:insensitive="true">
    <image
       sodipodi:absref="../gfx_Pepper-and-Carrot_by-David-Revoy_E14P03.png"
       xlink:href="../gfx_Pepper-and-Carrot_by-David-Revoy_E14P03.png"
       y="0"
       x="0"
       id="image10"
       height="3503"
       width="2481" />
  </g>
  <g
     inkscape:groupmode="layer"
     id="layer3"
     inkscape:label="speechbubbles"
     style="display:inline">
    <path
       style="color:#000000;display:inline;overflow:visible;visibility:visible;fill:#ffffff;fill-opacity:1;fill-rule:nonzero;stroke:none;stroke-width:0.90790319px;marker:none;enable-background:accumulate"
       d="m 1185.7261,404.36174 c 34.885,-51.13978 103.326,-77.04805 264.4961,-67.30538 103.3479,6.24734 162.667,25.43142 209.3451,54.53071 22.0478,13.7447 41.7895,85.55282 18.2974,140.378 -23.4921,54.82517 -96.9153,109.32399 -254.3277,94.30159 -157.4122,-15.02252 -157.4824,-17.08429 -180.5184,-30.09985 -43.7659,-24.72803 -92.1776,-140.66525 -57.2925,-191.80507 z"
       id="path4530"
       inkscape:connector-curvature="0"
       sodipodi:nodetypes="zsssssz" />
    <path
       style="color:#000000;display:inline;overflow:visible;visibility:visible;fill:#ffffff;fill-opacity:1;fill-rule:nonzero;stroke:none;stroke-width:0.8484028px;marker:none;enable-background:accumulate"
       d="m 1137.6398,193.11279 c -5.2171,12.98834 -34.6427,14.07746 -45.4751,11.43735 21.8355,14.52985 21.0743,23.55749 -8.5723,24.95919 49.7178,26.18658 9.0891,22.22393 1.0754,28.86411 39.0377,9.02446 21.5718,20.25565 14.6217,31.4361 44.87,0.38403 30.1861,18.3059 32.0773,32.57954 3.8039,-6.69782 21.8751,-27.08896 22.9624,-4.3848 29.6789,-21.66099 65.4263,-35.65291 68.2648,2.25391 11.9581,-19.06989 23.8803,-27.1296 22.9624,-4.3848 29.6284,-29.58248 56.2536,-18.93417 83.0367,-10.57305 7.0344,-8.92869 7.8541,-22.64574 30.6121,-19.43123 -3.1909,-8.84993 4.4931,-14.93335 21.8463,-18.54593 -23.0596,-5.34599 -27.3094,-10.86026 15.5071,-16.79446 -32.5809,-0.574 -62.9628,-1.75001 -24.7383,-21.98737 -11.9921,-0.48968 -40.4445,16.39692 -27.1789,-33.0221 -20.621,15.82075 -42.6218,24.55269 -70.2128,-8.58776 -13.0574,16.55631 -35.7052,24.74904 -45.5582,4.06889 -3.5413,8.81631 -18.2256,12.13197 -30.6915,12.53408 -4.8206,-3.50202 -9.7925,-8.25863 -14.9808,-14.49056 -8.48,13.08541 -21.1651,21.92271 -45.5583,4.06889 z"
       id="path3549-3-7"
       inkscape:connector-curvature="0"
       sodipodi:nodetypes="cccccccccccccccccccc" />
    <path
       style="fill:#ffffff;fill-rule:evenodd;stroke:none;stroke-width:1px;stroke-linecap:butt;stroke-linejoin:miter;stroke-opacity:1"
       d="m 1497.7176,575.15777 c 39.3706,13.96771 -22.485,68.10223 -9.329,82.54185 9.0819,9.96796 46.6601,-7.96729 81.4034,37.57991 -40.7385,-30.89398 -73.2809,-5.93721 -92.7166,-17.39889 -36.9131,-21.76848 1.4853,-61.31653 3.4361,-70.97465 2.6091,-12.9174 17.2061,-31.74822 17.2061,-31.74822 z"
       id="path4186"
       inkscape:connector-curvature="0"
       sodipodi:nodetypes="cscssc" />
    <path
       style="fill:#ffffff;fill-rule:evenodd;stroke:none;stroke-width:0.74277014px;stroke-linecap:butt;stroke-linejoin:miter;stroke-opacity:1"
       d="m 786.39981,2213.2392 c -20.90097,-14.7386 -33.04727,-39.256 -31.58123,-63.6647 0.0195,-3.737 -0.40167,-8.5312 1.59896,-2.389 1.86494,4.2857 7.58866,14.4837 9.92742,13.3179 -1.33882,-9.4125 -0.29246,-18.7945 1.09221,-28.0959 0.9061,-9.7289 7.98709,11.6902 12.19971,3.2379 -2.27787,-3.594 -1.30662,-12.7366 2.84096,-4.807 5.62167,6.6447 7.08235,0.1349 8.35569,-3.3608 5.66706,4.6199 7.04065,1.0249 9.29833,-2.3325 4.70417,3.0128 8.47809,2.7709 10.47243,-1.9746 7.24339,0.06 16.7536,4.9692 18.14956,-5.5697 3.49711,-4.947 6.83248,6.2098 12.80003,3.0074 12.02999,-1.2438 23.96788,1.6151 35.96988,2.1026 10.08396,1.2156 17.90641,8.0001 25.80203,12.9232 -0.77022,-3.6572 -1.40789,-7.4247 3.84024,-3.8002 4.6435,-0.088 -6.328,-14.1701 1.77358,-5.9898 10.30186,9.724 16.93991,22.1478 25.47225,33.1606 7.65241,11.5357 17.65911,21.76 23.24007,34.4701 4.79748,9.8475 8.68293,20.4327 10.56333,30.9719 -1.78846,-3.9145 -9.00702,-12.3778 -8.24161,-2.9264 0.4962,4.2247 -2.01371,17.6551 -6.14615,9.2641 -4.12742,-2.263 -6.16566,3.5564 -7.41514,-2.7254 -2.01107,-4.1032 -9.92493,-17.4016 -8.85583,-5.5939 -0.18518,4.7461 -0.30183,16.7568 -6.55473,16.2699 -0.54726,-4.6122 -3.34414,-4.8758 -5.74592,-2.0557 -2.67373,-2.9488 -5.12893,-4.6234 -8.10146,-2.765 -6.52599,-4.3862 -15.2998,-4.8255 -21.91149,-0.3629 -7.35159,3.1017 -9.61981,12.9857 -19.02849,10.9486 -7.02281,1.1423 -10.72049,8.6393 -18.04419,4.889 -6.59681,2.6873 -20.87999,-6.1797 -27.70958,-8.4913 -2.53609,-1.0336 -8.93369,-6.3778 -8.74594,-0.5426 -4.94829,1.7153 -12.9991,-5.9139 -13.27028,-3.932 1.40209,7.8916 -6.1187,0.3802 -8.06127,-1.8782 -5.08912,-6.7997 -11.41164,-13.1987 -13.98337,-21.3056 z"
       id="path4197"
       inkscape:connector-curvature="0"
       sodipodi:nodetypes="cccccccccccccccccccccccccccccccccc" />
    <path
       style="fill:#ffffff;fill-rule:evenodd;stroke:none;stroke-width:0.93871725"
       d="m 700.62692,2291.3401 c -15.81896,16.5707 -6.95253,40.1734 -3.54932,59.3854 -0.69589,13.1103 15.48996,32.002 13.7238,38.1509 -6.35757,-4.9893 -15.85181,-10.1788 -8.90179,1.9513 8.84002,34.4111 35.38088,61.9766 63.09553,85.2293 8.49547,5.1495 34.58282,21.1757 32.75193,9.9077 15.90569,9.0575 34.89298,12.8658 52.98091,16.3598 20.45559,-0.5776 40.37874,3.6131 59.06358,11.2038 18.66481,4.9248 39.13435,12.0898 58.37706,5.5015 -7.55773,-23.4956 24.92223,-1.5049 37.06108,-9.871 10.8575,3.388 38.1366,-2.7011 56.4418,-6.4351 18.3162,-3.8885 36.5164,-9.3752 53.3444,-17.1173 11.7586,0.6489 31.4708,-4.8389 44.0788,-17.9659 10.9975,3.1663 24.4141,-42.2238 20.6738,-51.9989 -2.9647,-16.3124 -1.6441,-34.3757 -5.2037,-47.2091 -1.7597,-15.2664 -16.5312,-23.4208 -21.7107,-37.896 -12.2292,-25.6447 -34.4307,-46.1396 -60.9922,-59.6303 -22.1294,-11.2416 -45.5124,-22.4559 -70.6246,-26.3324 -16.3788,-0.4217 14.0376,16.4153 -6.2731,7.4188 -15.35703,-9.5482 2.0754,12.2598 -9.7569,3.1968 -6.64785,-7.1276 -20.23727,-13.06 -15.15764,2.504 -0.8159,6.2112 -6.47089,1.1072 -9.97971,6.5888 -17.56371,-9.839 -37.29184,-2.4772 -56.63553,-2.3495 -10.66192,-1.1618 -27.18412,5.8917 -32.07979,-6.7956 0.096,15.3735 -16.78343,0.5314 -18.56727,15.4959 -8.05771,-3.8658 -21.36684,-12.6856 -22.7776,1.39 -13.47143,11.991 -32.13942,-10.4208 -40.63609,-5.579 4.76285,23.7631 -18.54817,3.5037 -27.11765,-2.0466 -1.84444,26.356 -29.86227,-5.0721 -42.04048,-1.1265 12.97262,15.0803 -4.34791,29.076 -21.07509,19.0225 7.92701,24.1095 -8.29311,5.5535 -18.51353,9.0467 z"
       id="path4236"
       inkscape:connector-curvature="0"
       sodipodi:nodetypes="ccccccccccccccccccccccccccccccc" />
    <path
       style="color:#000000;display:inline;overflow:visible;visibility:visible;fill:#ffffff;fill-opacity:1;fill-rule:nonzero;stroke:none;stroke-width:1px;marker:none;enable-background:accumulate"
       d="m 1181.2565,2384.8843 c 71.2625,-32.4224 174.9357,-46.5343 183.7112,99.2131 42.8576,28.8431 84.7314,17.5004 117.4338,154.3432 -31.7764,-75.6266 -60.5224,-102.3764 -138.8525,-144.9574 -12.7089,-74.1482 -76.4453,-109.0649 -157.2325,-50.6415 -80.7874,58.4235 -47.4492,-14.6057 -47.4492,-14.6057 l 18.2401,-27.146 z"
       id="path5074"
       inkscape:connector-curvature="0"
       sodipodi:nodetypes="ccccsccc" />
  </g>
  <g
     inkscape:groupmode="layer"
     id="layer1"
     inkscape:label="txt"
     style="display:inline">
    <text
       xml:space="preserve"
       style="font-style:normal;font-variant:normal;font-weight:normal;font-stretch:normal;line-height:0%;font-family:Lavi;-inkscape-font-specification:Lavi;text-align:center;letter-spacing:0px;word-spacing:0px;text-anchor:middle;fill:#000000;fill-opacity:1;stroke:none"
       x="1224.7714"
       y="265.99097"
       id="text4246"><tspan
         sodipodi:role="line"
         style="font-size:45px;line-height:1.25"
         x="1224.7714"
         y="265.99097"
         id="tspan4252">.i .u'i cu'i</tspan></text>
    <text
       xml:space="preserve"
       style="font-style:normal;font-variant:normal;font-weight:normal;font-stretch:normal;line-height:0%;font-family:Lavi;-inkscape-font-specification:Lavi;text-align:center;letter-spacing:0px;word-spacing:0px;text-anchor:middle;fill:#000000;fill-opacity:1;stroke:none"
       x="1431.7031"
       y="408.59286"
       id="text4246-5"><tspan
         sodipodi:role="line"
         style="font-size:45px;line-height:1.25"
         x="1431.7031"
         y="408.59286"
         id="tspan3474">.i ba'a le fatci</tspan><tspan
         sodipodi:role="line"
         style="font-size:45px;line-height:1.25"
         x="1431.7031"
         y="464.84286"
         id="tspan3691">cu zmadu</tspan><tspan
         sodipodi:role="line"
         style="font-size:45px;line-height:1.25"
         x="1431.7031"
         y="521.0929"
         id="tspan3687">le pu jai se jinvi be mi</tspan><tspan
         sodipodi:role="line"
         style="font-size:45px;line-height:1.25"
         x="1431.7031"
         y="577.3429"
         id="tspan3689">le ka pluja</tspan></text>
    <text
       xml:space="preserve"
       style="font-style:normal;font-variant:normal;font-weight:normal;font-stretch:normal;line-height:0%;font-family:Lavi;-inkscape-font-specification:Lavi;text-align:center;letter-spacing:0px;word-spacing:0px;text-anchor:middle;fill:#000000;fill-opacity:1;stroke:none"
       x="853.57947"
       y="2196.405"
       id="text4246-2"
       transform="scale(0.99940856,1.0005918)"><tspan
         sodipodi:role="line"
         style="font-size:54.65267181px;line-height:1.25"
         x="853.57947"
         y="2196.405"
         id="tspan4252-4">.i ue</tspan></text>
    <text
       xml:space="preserve"
       style="font-style:normal;font-variant:normal;font-weight:normal;font-stretch:normal;line-height:0%;font-family:Lavi;-inkscape-font-specification:Lavi;text-align:center;letter-spacing:0px;word-spacing:0px;text-anchor:middle;fill:#000000;fill-opacity:1;stroke:none"
       x="928.74841"
       y="2342.6091"
       id="text4246-2-2"><tspan
         sodipodi:role="line"
         style="font-size:45px;line-height:1.25"
         x="928.74841"
         y="2342.6091"
         id="tspan3495">.i mi pu jinvi le du'u</tspan><tspan
         sodipodi:role="line"
         style="font-size:45px;line-height:1.25"
         x="928.74841"
         y="2398.8591"
         id="tspan3700">lo'e vacrydrakono</tspan><tspan
         sodipodi:role="line"
         style="font-size:45px;line-height:1.25"
         x="928.74841"
         y="2455.1091"
         id="tspan3698"> cu jai frili</tspan></text>
  </g>
</svg>
